\BOOKMARK [0][-]{chapter.1}{Wstep}{}% 1
\BOOKMARK [1][-]{section.1.1}{Historia automat\363w kom\363rkowych}{chapter.1}% 2
\BOOKMARK [1][-]{section.1.2}{Definicja}{chapter.1}% 3
\BOOKMARK [1][-]{section.1.3}{Siatka}{chapter.1}% 4
\BOOKMARK [1][-]{section.1.4}{Rodzaje sasiedztw}{chapter.1}% 5
\BOOKMARK [1][-]{section.1.5}{Warunki brzegowe}{chapter.1}% 6
\BOOKMARK [1][-]{section.1.6}{Funcja przejscia}{chapter.1}% 7
\BOOKMARK [1][-]{section.1.7}{Warunki poczatkowe}{chapter.1}% 8
\BOOKMARK [1][-]{section.1.8}{Elementarne automaty kom\363rkowe}{chapter.1}% 9
\BOOKMARK [1][-]{section.1.9}{Gra w zycie}{chapter.1}% 10
\BOOKMARK [1][-]{section.1.10}{Cel pracy}{chapter.1}% 11
\BOOKMARK [0][-]{chapter.2}{Opis modelu}{}% 12
\BOOKMARK [1][-]{section.2.1}{Siatka}{chapter.2}% 13
\BOOKMARK [1][-]{section.2.2}{Parametry kom\363rki}{chapter.2}% 14
\BOOKMARK [1][-]{section.2.3}{Warunki poczatkowe}{chapter.2}% 15
\BOOKMARK [1][-]{section.2.4}{Sasiedztwo}{chapter.2}% 16
\BOOKMARK [1][-]{section.2.5}{Warunki brzegowe}{chapter.2}% 17
\BOOKMARK [1][-]{section.2.6}{Funkcja przejscia}{chapter.2}% 18
\BOOKMARK [1][-]{section.2.7}{Przebieg symulacji}{chapter.2}% 19
\BOOKMARK [1][-]{section.2.8}{Parametry modelu}{chapter.2}% 20
\BOOKMARK [0][-]{chapter.3}{Aplikacja internetowa}{}% 21
\BOOKMARK [1][-]{section.3.1}{Interfejs graficzny}{chapter.3}% 22
\BOOKMARK [1][-]{section.3.2}{Parametry symulacji}{chapter.3}% 23
\BOOKMARK [1][-]{section.3.3}{Obszar symulacji}{chapter.3}% 24
\BOOKMARK [1][-]{section.3.4}{Generowane wykresy}{chapter.3}% 25
\BOOKMARK [0][-]{chapter.4}{Aplikacja konsolowa}{}% 26
\BOOKMARK [1][-]{section.4.1}{Parametry programu}{chapter.4}% 27
\BOOKMARK [1][-]{section.4.2}{Najwazniejsze klasy}{chapter.4}% 28
\BOOKMARK [1][-]{section.4.3}{Plik wejsciowy}{chapter.4}% 29
\BOOKMARK [1][-]{section.4.4}{Pliki wyjsciowe}{chapter.4}% 30
\BOOKMARK [2][-]{subsection.4.4.1}{Pliki z danymi}{section.4.4}% 31
\BOOKMARK [2][-]{subsection.4.4.2}{Pliki skryptowe programu gnuplot}{section.4.4}% 32
\BOOKMARK [0][-]{chapter.5}{Wyniki}{}% 33
\BOOKMARK [1][-]{section.5.1}{Rozmiar organizacji}{chapter.5}% 34
\BOOKMARK [2][-]{subsection.5.1.1}{Wnioski}{section.5.1}% 35
\BOOKMARK [1][-]{section.5.2}{Warunki transferu wiedzy}{chapter.5}% 36
\BOOKMARK [2][-]{subsection.5.2.1}{Wnioski}{section.5.2}% 37
\BOOKMARK [1][-]{section.5.3}{Sasiedztwo}{chapter.5}% 38
\BOOKMARK [2][-]{subsection.5.3.1}{Wnioski}{section.5.3}% 39
\BOOKMARK [0][-]{chapter.6}{Podsumowanie}{}% 40
