%!PS-Adobe-2.0 EPSF-2.0
%%Title: exp1_L20K8p02_n(k).eps
%%Creator: gnuplot 5.0 patchlevel 3
%%CreationDate: Sun Sep 10 20:10:24 2017
%%DocumentFonts: (atend)
%%BoundingBox: 50 50 1058 806
%%EndComments
%%BeginProlog
/gnudict 256 dict def
gnudict begin
%
% The following true/false flags may be edited by hand if desired.
% The unit line width and grayscale image gamma correction may also be changed.
%
/Color true def
/Blacktext false def
/Solid false def
/Dashlength 1 def
/Landscape false def
/Level1 false def
/Level3 false def
/Rounded false def
/ClipToBoundingBox false def
/SuppressPDFMark false def
/TransparentPatterns false def
/gnulinewidth 5.000 def
/userlinewidth gnulinewidth def
/Gamma 1.0 def
/BackgroundColor {-1.000 -1.000 -1.000} def
%
/vshift -316 def
/dl1 {
  10.0 Dashlength userlinewidth gnulinewidth div mul mul mul
  Rounded { currentlinewidth 0.75 mul sub dup 0 le { pop 0.01 } if } if
} def
/dl2 {
  10.0 Dashlength userlinewidth gnulinewidth div mul mul mul
  Rounded { currentlinewidth 0.75 mul add } if
} def
/hpt_ 31.5 def
/vpt_ 31.5 def
/hpt hpt_ def
/vpt vpt_ def
/doclip {
  ClipToBoundingBox {
    newpath 50 50 moveto 1058 50 lineto 1058 806 lineto 50 806 lineto closepath
    clip
  } if
} def
%
% Gnuplot Prolog Version 5.1 (Oct 2015)
%
%/SuppressPDFMark true def
%
/M {moveto} bind def
/L {lineto} bind def
/R {rmoveto} bind def
/V {rlineto} bind def
/N {newpath moveto} bind def
/Z {closepath} bind def
/C {setrgbcolor} bind def
/f {rlineto fill} bind def
/g {setgray} bind def
/Gshow {show} def   % May be redefined later in the file to support UTF-8
/vpt2 vpt 2 mul def
/hpt2 hpt 2 mul def
/Lshow {currentpoint stroke M 0 vshift R 
	Blacktext {gsave 0 setgray textshow grestore} {textshow} ifelse} def
/Rshow {currentpoint stroke M dup stringwidth pop neg vshift R
	Blacktext {gsave 0 setgray textshow grestore} {textshow} ifelse} def
/Cshow {currentpoint stroke M dup stringwidth pop -2 div vshift R 
	Blacktext {gsave 0 setgray textshow grestore} {textshow} ifelse} def
/UP {dup vpt_ mul /vpt exch def hpt_ mul /hpt exch def
  /hpt2 hpt 2 mul def /vpt2 vpt 2 mul def} def
/DL {Color {setrgbcolor Solid {pop []} if 0 setdash}
 {pop pop pop 0 setgray Solid {pop []} if 0 setdash} ifelse} def
/BL {stroke userlinewidth 2 mul setlinewidth
	Rounded {1 setlinejoin 1 setlinecap} if} def
/AL {stroke userlinewidth 2 div setlinewidth
	Rounded {1 setlinejoin 1 setlinecap} if} def
/UL {dup gnulinewidth mul /userlinewidth exch def
	dup 1 lt {pop 1} if 10 mul /udl exch def} def
/PL {stroke userlinewidth setlinewidth
	Rounded {1 setlinejoin 1 setlinecap} if} def
3.8 setmiterlimit
% Classic Line colors (version 5.0)
/LCw {1 1 1} def
/LCb {0 0 0} def
/LCa {0 0 0} def
/LC0 {1 0 0} def
/LC1 {0 1 0} def
/LC2 {0 0 1} def
/LC3 {1 0 1} def
/LC4 {0 1 1} def
/LC5 {1 1 0} def
/LC6 {0 0 0} def
/LC7 {1 0.3 0} def
/LC8 {0.5 0.5 0.5} def
% Default dash patterns (version 5.0)
/LTB {BL [] LCb DL} def
/LTw {PL [] 1 setgray} def
/LTb {PL [] LCb DL} def
/LTa {AL [1 udl mul 2 udl mul] 0 setdash LCa setrgbcolor} def
/LT0 {PL [] LC0 DL} def
/LT1 {PL [2 dl1 3 dl2] LC1 DL} def
/LT2 {PL [1 dl1 1.5 dl2] LC2 DL} def
/LT3 {PL [6 dl1 2 dl2 1 dl1 2 dl2] LC3 DL} def
/LT4 {PL [1 dl1 2 dl2 6 dl1 2 dl2 1 dl1 2 dl2] LC4 DL} def
/LT5 {PL [4 dl1 2 dl2] LC5 DL} def
/LT6 {PL [1.5 dl1 1.5 dl2 1.5 dl1 1.5 dl2 1.5 dl1 6 dl2] LC6 DL} def
/LT7 {PL [3 dl1 3 dl2 1 dl1 3 dl2] LC7 DL} def
/LT8 {PL [2 dl1 2 dl2 2 dl1 6 dl2] LC8 DL} def
/SL {[] 0 setdash} def
/Pnt {stroke [] 0 setdash gsave 1 setlinecap M 0 0 V stroke grestore} def
/Dia {stroke [] 0 setdash 2 copy vpt add M
  hpt neg vpt neg V hpt vpt neg V
  hpt vpt V hpt neg vpt V closepath stroke
  Pnt} def
/Pls {stroke [] 0 setdash vpt sub M 0 vpt2 V
  currentpoint stroke M
  hpt neg vpt neg R hpt2 0 V stroke
 } def
/Box {stroke [] 0 setdash 2 copy exch hpt sub exch vpt add M
  0 vpt2 neg V hpt2 0 V 0 vpt2 V
  hpt2 neg 0 V closepath stroke
  Pnt} def
/Crs {stroke [] 0 setdash exch hpt sub exch vpt add M
  hpt2 vpt2 neg V currentpoint stroke M
  hpt2 neg 0 R hpt2 vpt2 V stroke} def
/TriU {stroke [] 0 setdash 2 copy vpt 1.12 mul add M
  hpt neg vpt -1.62 mul V
  hpt 2 mul 0 V
  hpt neg vpt 1.62 mul V closepath stroke
  Pnt} def
/Star {2 copy Pls Crs} def
/BoxF {stroke [] 0 setdash exch hpt sub exch vpt add M
  0 vpt2 neg V hpt2 0 V 0 vpt2 V
  hpt2 neg 0 V closepath fill} def
/TriUF {stroke [] 0 setdash vpt 1.12 mul add M
  hpt neg vpt -1.62 mul V
  hpt 2 mul 0 V
  hpt neg vpt 1.62 mul V closepath fill} def
/TriD {stroke [] 0 setdash 2 copy vpt 1.12 mul sub M
  hpt neg vpt 1.62 mul V
  hpt 2 mul 0 V
  hpt neg vpt -1.62 mul V closepath stroke
  Pnt} def
/TriDF {stroke [] 0 setdash vpt 1.12 mul sub M
  hpt neg vpt 1.62 mul V
  hpt 2 mul 0 V
  hpt neg vpt -1.62 mul V closepath fill} def
/DiaF {stroke [] 0 setdash vpt add M
  hpt neg vpt neg V hpt vpt neg V
  hpt vpt V hpt neg vpt V closepath fill} def
/Pent {stroke [] 0 setdash 2 copy gsave
  translate 0 hpt M 4 {72 rotate 0 hpt L} repeat
  closepath stroke grestore Pnt} def
/PentF {stroke [] 0 setdash gsave
  translate 0 hpt M 4 {72 rotate 0 hpt L} repeat
  closepath fill grestore} def
/Circle {stroke [] 0 setdash 2 copy
  hpt 0 360 arc stroke Pnt} def
/CircleF {stroke [] 0 setdash hpt 0 360 arc fill} def
/C0 {BL [] 0 setdash 2 copy moveto vpt 90 450 arc} bind def
/C1 {BL [] 0 setdash 2 copy moveto
	2 copy vpt 0 90 arc closepath fill
	vpt 0 360 arc closepath} bind def
/C2 {BL [] 0 setdash 2 copy moveto
	2 copy vpt 90 180 arc closepath fill
	vpt 0 360 arc closepath} bind def
/C3 {BL [] 0 setdash 2 copy moveto
	2 copy vpt 0 180 arc closepath fill
	vpt 0 360 arc closepath} bind def
/C4 {BL [] 0 setdash 2 copy moveto
	2 copy vpt 180 270 arc closepath fill
	vpt 0 360 arc closepath} bind def
/C5 {BL [] 0 setdash 2 copy moveto
	2 copy vpt 0 90 arc
	2 copy moveto
	2 copy vpt 180 270 arc closepath fill
	vpt 0 360 arc} bind def
/C6 {BL [] 0 setdash 2 copy moveto
	2 copy vpt 90 270 arc closepath fill
	vpt 0 360 arc closepath} bind def
/C7 {BL [] 0 setdash 2 copy moveto
	2 copy vpt 0 270 arc closepath fill
	vpt 0 360 arc closepath} bind def
/C8 {BL [] 0 setdash 2 copy moveto
	2 copy vpt 270 360 arc closepath fill
	vpt 0 360 arc closepath} bind def
/C9 {BL [] 0 setdash 2 copy moveto
	2 copy vpt 270 450 arc closepath fill
	vpt 0 360 arc closepath} bind def
/C10 {BL [] 0 setdash 2 copy 2 copy moveto vpt 270 360 arc closepath fill
	2 copy moveto
	2 copy vpt 90 180 arc closepath fill
	vpt 0 360 arc closepath} bind def
/C11 {BL [] 0 setdash 2 copy moveto
	2 copy vpt 0 180 arc closepath fill
	2 copy moveto
	2 copy vpt 270 360 arc closepath fill
	vpt 0 360 arc closepath} bind def
/C12 {BL [] 0 setdash 2 copy moveto
	2 copy vpt 180 360 arc closepath fill
	vpt 0 360 arc closepath} bind def
/C13 {BL [] 0 setdash 2 copy moveto
	2 copy vpt 0 90 arc closepath fill
	2 copy moveto
	2 copy vpt 180 360 arc closepath fill
	vpt 0 360 arc closepath} bind def
/C14 {BL [] 0 setdash 2 copy moveto
	2 copy vpt 90 360 arc closepath fill
	vpt 0 360 arc} bind def
/C15 {BL [] 0 setdash 2 copy vpt 0 360 arc closepath fill
	vpt 0 360 arc closepath} bind def
/Rec {newpath 4 2 roll moveto 1 index 0 rlineto 0 exch rlineto
	neg 0 rlineto closepath} bind def
/Square {dup Rec} bind def
/Bsquare {vpt sub exch vpt sub exch vpt2 Square} bind def
/S0 {BL [] 0 setdash 2 copy moveto 0 vpt rlineto BL Bsquare} bind def
/S1 {BL [] 0 setdash 2 copy vpt Square fill Bsquare} bind def
/S2 {BL [] 0 setdash 2 copy exch vpt sub exch vpt Square fill Bsquare} bind def
/S3 {BL [] 0 setdash 2 copy exch vpt sub exch vpt2 vpt Rec fill Bsquare} bind def
/S4 {BL [] 0 setdash 2 copy exch vpt sub exch vpt sub vpt Square fill Bsquare} bind def
/S5 {BL [] 0 setdash 2 copy 2 copy vpt Square fill
	exch vpt sub exch vpt sub vpt Square fill Bsquare} bind def
/S6 {BL [] 0 setdash 2 copy exch vpt sub exch vpt sub vpt vpt2 Rec fill Bsquare} bind def
/S7 {BL [] 0 setdash 2 copy exch vpt sub exch vpt sub vpt vpt2 Rec fill
	2 copy vpt Square fill Bsquare} bind def
/S8 {BL [] 0 setdash 2 copy vpt sub vpt Square fill Bsquare} bind def
/S9 {BL [] 0 setdash 2 copy vpt sub vpt vpt2 Rec fill Bsquare} bind def
/S10 {BL [] 0 setdash 2 copy vpt sub vpt Square fill 2 copy exch vpt sub exch vpt Square fill
	Bsquare} bind def
/S11 {BL [] 0 setdash 2 copy vpt sub vpt Square fill 2 copy exch vpt sub exch vpt2 vpt Rec fill
	Bsquare} bind def
/S12 {BL [] 0 setdash 2 copy exch vpt sub exch vpt sub vpt2 vpt Rec fill Bsquare} bind def
/S13 {BL [] 0 setdash 2 copy exch vpt sub exch vpt sub vpt2 vpt Rec fill
	2 copy vpt Square fill Bsquare} bind def
/S14 {BL [] 0 setdash 2 copy exch vpt sub exch vpt sub vpt2 vpt Rec fill
	2 copy exch vpt sub exch vpt Square fill Bsquare} bind def
/S15 {BL [] 0 setdash 2 copy Bsquare fill Bsquare} bind def
/D0 {gsave translate 45 rotate 0 0 S0 stroke grestore} bind def
/D1 {gsave translate 45 rotate 0 0 S1 stroke grestore} bind def
/D2 {gsave translate 45 rotate 0 0 S2 stroke grestore} bind def
/D3 {gsave translate 45 rotate 0 0 S3 stroke grestore} bind def
/D4 {gsave translate 45 rotate 0 0 S4 stroke grestore} bind def
/D5 {gsave translate 45 rotate 0 0 S5 stroke grestore} bind def
/D6 {gsave translate 45 rotate 0 0 S6 stroke grestore} bind def
/D7 {gsave translate 45 rotate 0 0 S7 stroke grestore} bind def
/D8 {gsave translate 45 rotate 0 0 S8 stroke grestore} bind def
/D9 {gsave translate 45 rotate 0 0 S9 stroke grestore} bind def
/D10 {gsave translate 45 rotate 0 0 S10 stroke grestore} bind def
/D11 {gsave translate 45 rotate 0 0 S11 stroke grestore} bind def
/D12 {gsave translate 45 rotate 0 0 S12 stroke grestore} bind def
/D13 {gsave translate 45 rotate 0 0 S13 stroke grestore} bind def
/D14 {gsave translate 45 rotate 0 0 S14 stroke grestore} bind def
/D15 {gsave translate 45 rotate 0 0 S15 stroke grestore} bind def
/DiaE {stroke [] 0 setdash vpt add M
  hpt neg vpt neg V hpt vpt neg V
  hpt vpt V hpt neg vpt V closepath stroke} def
/BoxE {stroke [] 0 setdash exch hpt sub exch vpt add M
  0 vpt2 neg V hpt2 0 V 0 vpt2 V
  hpt2 neg 0 V closepath stroke} def
/TriUE {stroke [] 0 setdash vpt 1.12 mul add M
  hpt neg vpt -1.62 mul V
  hpt 2 mul 0 V
  hpt neg vpt 1.62 mul V closepath stroke} def
/TriDE {stroke [] 0 setdash vpt 1.12 mul sub M
  hpt neg vpt 1.62 mul V
  hpt 2 mul 0 V
  hpt neg vpt -1.62 mul V closepath stroke} def
/PentE {stroke [] 0 setdash gsave
  translate 0 hpt M 4 {72 rotate 0 hpt L} repeat
  closepath stroke grestore} def
/CircE {stroke [] 0 setdash 
  hpt 0 360 arc stroke} def
/Opaque {gsave closepath 1 setgray fill grestore 0 setgray closepath} def
/DiaW {stroke [] 0 setdash vpt add M
  hpt neg vpt neg V hpt vpt neg V
  hpt vpt V hpt neg vpt V Opaque stroke} def
/BoxW {stroke [] 0 setdash exch hpt sub exch vpt add M
  0 vpt2 neg V hpt2 0 V 0 vpt2 V
  hpt2 neg 0 V Opaque stroke} def
/TriUW {stroke [] 0 setdash vpt 1.12 mul add M
  hpt neg vpt -1.62 mul V
  hpt 2 mul 0 V
  hpt neg vpt 1.62 mul V Opaque stroke} def
/TriDW {stroke [] 0 setdash vpt 1.12 mul sub M
  hpt neg vpt 1.62 mul V
  hpt 2 mul 0 V
  hpt neg vpt -1.62 mul V Opaque stroke} def
/PentW {stroke [] 0 setdash gsave
  translate 0 hpt M 4 {72 rotate 0 hpt L} repeat
  Opaque stroke grestore} def
/CircW {stroke [] 0 setdash 
  hpt 0 360 arc Opaque stroke} def
/BoxFill {gsave Rec 1 setgray fill grestore} def
/Density {
  /Fillden exch def
  currentrgbcolor
  /ColB exch def /ColG exch def /ColR exch def
  /ColR ColR Fillden mul Fillden sub 1 add def
  /ColG ColG Fillden mul Fillden sub 1 add def
  /ColB ColB Fillden mul Fillden sub 1 add def
  ColR ColG ColB setrgbcolor} def
/BoxColFill {gsave Rec PolyFill} def
/PolyFill {gsave Density fill grestore grestore} def
/h {rlineto rlineto rlineto gsave closepath fill grestore} bind def
%
% PostScript Level 1 Pattern Fill routine for rectangles
% Usage: x y w h s a XX PatternFill
%	x,y = lower left corner of box to be filled
%	w,h = width and height of box
%	  a = angle in degrees between lines and x-axis
%	 XX = 0,1 for no/yes cross-hatch
%
/PatternFill {gsave /PFa [ 9 2 roll ] def
  PFa 0 get PFa 2 get 2 div add PFa 1 get PFa 3 get 2 div add translate
  PFa 2 get -2 div PFa 3 get -2 div PFa 2 get PFa 3 get Rec
  TransparentPatterns {} {gsave 1 setgray fill grestore} ifelse
  clip
  currentlinewidth 0.5 mul setlinewidth
  /PFs PFa 2 get dup mul PFa 3 get dup mul add sqrt def
  0 0 M PFa 5 get rotate PFs -2 div dup translate
  0 1 PFs PFa 4 get div 1 add floor cvi
	{PFa 4 get mul 0 M 0 PFs V} for
  0 PFa 6 get ne {
	0 1 PFs PFa 4 get div 1 add floor cvi
	{PFa 4 get mul 0 2 1 roll M PFs 0 V} for
 } if
  stroke grestore} def
%
/languagelevel where
 {pop languagelevel} {1} ifelse
dup 2 lt
	{/InterpretLevel1 true def
	 /InterpretLevel3 false def}
	{/InterpretLevel1 Level1 def
	 2 gt
	    {/InterpretLevel3 Level3 def}
	    {/InterpretLevel3 false def}
	 ifelse }
 ifelse
%
% PostScript level 2 pattern fill definitions
%
/Level2PatternFill {
/Tile8x8 {/PaintType 2 /PatternType 1 /TilingType 1 /BBox [0 0 8 8] /XStep 8 /YStep 8}
	bind def
/KeepColor {currentrgbcolor [/Pattern /DeviceRGB] setcolorspace} bind def
<< Tile8x8
 /PaintProc {0.5 setlinewidth pop 0 0 M 8 8 L 0 8 M 8 0 L stroke} 
>> matrix makepattern
/Pat1 exch def
<< Tile8x8
 /PaintProc {0.5 setlinewidth pop 0 0 M 8 8 L 0 8 M 8 0 L stroke
	0 4 M 4 8 L 8 4 L 4 0 L 0 4 L stroke}
>> matrix makepattern
/Pat2 exch def
<< Tile8x8
 /PaintProc {0.5 setlinewidth pop 0 0 M 0 8 L
	8 8 L 8 0 L 0 0 L fill}
>> matrix makepattern
/Pat3 exch def
<< Tile8x8
 /PaintProc {0.5 setlinewidth pop -4 8 M 8 -4 L
	0 12 M 12 0 L stroke}
>> matrix makepattern
/Pat4 exch def
<< Tile8x8
 /PaintProc {0.5 setlinewidth pop -4 0 M 8 12 L
	0 -4 M 12 8 L stroke}
>> matrix makepattern
/Pat5 exch def
<< Tile8x8
 /PaintProc {0.5 setlinewidth pop -2 8 M 4 -4 L
	0 12 M 8 -4 L 4 12 M 10 0 L stroke}
>> matrix makepattern
/Pat6 exch def
<< Tile8x8
 /PaintProc {0.5 setlinewidth pop -2 0 M 4 12 L
	0 -4 M 8 12 L 4 -4 M 10 8 L stroke}
>> matrix makepattern
/Pat7 exch def
<< Tile8x8
 /PaintProc {0.5 setlinewidth pop 8 -2 M -4 4 L
	12 0 M -4 8 L 12 4 M 0 10 L stroke}
>> matrix makepattern
/Pat8 exch def
<< Tile8x8
 /PaintProc {0.5 setlinewidth pop 0 -2 M 12 4 L
	-4 0 M 12 8 L -4 4 M 8 10 L stroke}
>> matrix makepattern
/Pat9 exch def
/Pattern1 {PatternBgnd KeepColor Pat1 setpattern} bind def
/Pattern2 {PatternBgnd KeepColor Pat2 setpattern} bind def
/Pattern3 {PatternBgnd KeepColor Pat3 setpattern} bind def
/Pattern4 {PatternBgnd KeepColor Landscape {Pat5} {Pat4} ifelse setpattern} bind def
/Pattern5 {PatternBgnd KeepColor Landscape {Pat4} {Pat5} ifelse setpattern} bind def
/Pattern6 {PatternBgnd KeepColor Landscape {Pat9} {Pat6} ifelse setpattern} bind def
/Pattern7 {PatternBgnd KeepColor Landscape {Pat8} {Pat7} ifelse setpattern} bind def
} def
%
%
%End of PostScript Level 2 code
%
/PatternBgnd {
  TransparentPatterns {} {gsave 1 setgray fill grestore} ifelse
} def
%
% Substitute for Level 2 pattern fill codes with
% grayscale if Level 2 support is not selected.
%
/Level1PatternFill {
/Pattern1 {0.250 Density} bind def
/Pattern2 {0.500 Density} bind def
/Pattern3 {0.750 Density} bind def
/Pattern4 {0.125 Density} bind def
/Pattern5 {0.375 Density} bind def
/Pattern6 {0.625 Density} bind def
/Pattern7 {0.875 Density} bind def
} def
%
% Now test for support of Level 2 code
%
Level1 {Level1PatternFill} {Level2PatternFill} ifelse
%
/Symbol-Oblique /Symbol findfont [1 0 .167 1 0 0] makefont
dup length dict begin {1 index /FID eq {pop pop} {def} ifelse} forall
currentdict end definefont pop
%
/MFshow {
   { dup 5 get 3 ge
     { 5 get 3 eq {gsave} {grestore} ifelse }
     {dup dup 0 get findfont exch 1 get scalefont setfont
     [ currentpoint ] exch dup 2 get 0 exch R dup 5 get 2 ne {dup dup 6
     get exch 4 get {textshow} {stringwidth pop 0 R} ifelse }if dup 5 get 0 eq
     {dup 3 get {2 get neg 0 exch R pop} {pop aload pop M} ifelse} {dup 5
     get 1 eq {dup 2 get exch dup 3 get exch 6 get stringwidth pop -2 div
     dup 0 R} {dup 6 get stringwidth pop -2 div 0 R 6 get
     textshow 2 index {aload pop M neg 3 -1 roll neg R pop pop} {pop pop pop
     pop aload pop M} ifelse }ifelse }ifelse }
     ifelse }
   forall} def
/Gswidth {dup type /stringtype eq {stringwidth} {pop (n) stringwidth} ifelse} def
/MFwidth {0 exch { dup 5 get 3 ge { 5 get 3 eq { 0 } { pop } ifelse }
 {dup 3 get{dup dup 0 get findfont exch 1 get scalefont setfont
     6 get Gswidth pop add} {pop} ifelse} ifelse} forall} def
/MLshow { currentpoint stroke M
  0 exch R
  Blacktext {gsave 0 setgray MFshow grestore} {MFshow} ifelse } bind def
/MRshow { currentpoint stroke M
  exch dup MFwidth neg 3 -1 roll R
  Blacktext {gsave 0 setgray MFshow grestore} {MFshow} ifelse } bind def
/MCshow { currentpoint stroke M
  exch dup MFwidth -2 div 3 -1 roll R
  Blacktext {gsave 0 setgray MFshow grestore} {MFshow} ifelse } bind def
/XYsave    { [( ) 1 2 true false 3 ()] } bind def
/XYrestore { [( ) 1 2 true false 4 ()] } bind def
Level1 SuppressPDFMark or 
{} {
/SDict 10 dict def
systemdict /pdfmark known not {
  userdict /pdfmark systemdict /cleartomark get put
} if
SDict begin [
  /Title (exp1_L20K8p02_n\(k\).eps)
  /Subject (gnuplot plot)
  /Creator (gnuplot 5.0 patchlevel 3)
  /Author (parada)
%  /Producer (gnuplot)
%  /Keywords ()
  /CreationDate (Sun Sep 10 20:10:24 2017)
  /DOCINFO pdfmark
end
} ifelse
%
% Support for boxed text - Ethan A Merritt May 2005
%
/InitTextBox { userdict /TBy2 3 -1 roll put userdict /TBx2 3 -1 roll put
           userdict /TBy1 3 -1 roll put userdict /TBx1 3 -1 roll put
	   /Boxing true def } def
/ExtendTextBox { Boxing
    { gsave dup false charpath pathbbox
      dup TBy2 gt {userdict /TBy2 3 -1 roll put} {pop} ifelse
      dup TBx2 gt {userdict /TBx2 3 -1 roll put} {pop} ifelse
      dup TBy1 lt {userdict /TBy1 3 -1 roll put} {pop} ifelse
      dup TBx1 lt {userdict /TBx1 3 -1 roll put} {pop} ifelse
      grestore } if } def
/PopTextBox { newpath TBx1 TBxmargin sub TBy1 TBymargin sub M
               TBx1 TBxmargin sub TBy2 TBymargin add L
	       TBx2 TBxmargin add TBy2 TBymargin add L
	       TBx2 TBxmargin add TBy1 TBymargin sub L closepath } def
/DrawTextBox { PopTextBox stroke /Boxing false def} def
/FillTextBox { gsave PopTextBox 1 1 1 setrgbcolor fill grestore /Boxing false def} def
0 0 0 0 InitTextBox
/TBxmargin 20 def
/TBymargin 20 def
/Boxing false def
/textshow { ExtendTextBox Gshow } def
%
% redundant definitions for compatibility with prologue.ps older than 5.0.2
/LTB {BL [] LCb DL} def
/LTb {PL [] LCb DL} def
end
%%EndProlog
%%Page: 1 1
gnudict begin
gsave
doclip
50 50 translate
0.050 0.050 scale
0 setgray
newpath
(Times-Roman) findfont 950 scalefont setfont
BackgroundColor 0 lt 3 1 roll 0 lt exch 0 lt or or not {BackgroundColor C 1.000 0 0 20160.00 15120.00 BoxColFill} if
1.000 UL
LTb
LCb setrgbcolor
3705 2090 M
63 0 V
12458 0 R
-63 0 V
stroke
3135 2090 M
[ [(Times-Roman) 700.0 0.0 true true 0 ( 0)]
] -233.3 MRshow
1.000 UL
LTb
LCb setrgbcolor
3705 4221 M
63 0 V
12458 0 R
-63 0 V
stroke
3135 4221 M
[ [(Times-Roman) 700.0 0.0 true true 0 ( 20)]
] -233.3 MRshow
1.000 UL
LTb
LCb setrgbcolor
3705 6352 M
63 0 V
12458 0 R
-63 0 V
stroke
3135 6352 M
[ [(Times-Roman) 700.0 0.0 true true 0 ( 40)]
] -233.3 MRshow
1.000 UL
LTb
LCb setrgbcolor
3705 8482 M
63 0 V
12458 0 R
-63 0 V
stroke
3135 8482 M
[ [(Times-Roman) 700.0 0.0 true true 0 ( 60)]
] -233.3 MRshow
1.000 UL
LTb
LCb setrgbcolor
3705 10613 M
63 0 V
12458 0 R
-63 0 V
stroke
3135 10613 M
[ [(Times-Roman) 700.0 0.0 true true 0 ( 80)]
] -233.3 MRshow
1.000 UL
LTb
LCb setrgbcolor
3705 12744 M
63 0 V
12458 0 R
-63 0 V
stroke
3135 12744 M
[ [(Times-Roman) 700.0 0.0 true true 0 ( 100)]
] -233.3 MRshow
1.000 UL
LTb
LCb setrgbcolor
3705 2090 M
0 63 V
0 10591 R
0 -63 V
stroke
3705 1140 M
[ [(Times-Roman) 700.0 0.0 true true 0 ( 0)]
] -233.3 MCshow
1.000 UL
LTb
LCb setrgbcolor
6209 2090 M
0 63 V
0 10591 R
0 -63 V
stroke
6209 1140 M
[ [(Times-Roman) 700.0 0.0 true true 0 ( 10)]
] -233.3 MCshow
1.000 UL
LTb
LCb setrgbcolor
8713 2090 M
0 63 V
0 10591 R
0 -63 V
stroke
8713 1140 M
[ [(Times-Roman) 700.0 0.0 true true 0 ( 20)]
] -233.3 MCshow
1.000 UL
LTb
LCb setrgbcolor
11218 2090 M
0 63 V
0 10591 R
0 -63 V
stroke
11218 1140 M
[ [(Times-Roman) 700.0 0.0 true true 0 ( 30)]
] -233.3 MCshow
1.000 UL
LTb
LCb setrgbcolor
13722 2090 M
0 63 V
0 10591 R
0 -63 V
stroke
13722 1140 M
[ [(Times-Roman) 700.0 0.0 true true 0 ( 40)]
] -233.3 MCshow
1.000 UL
LTb
LCb setrgbcolor
16226 2090 M
0 63 V
0 10591 R
0 -63 V
stroke
16226 1140 M
[ [(Times-Roman) 700.0 0.0 true true 0 ( 50)]
] -233.3 MCshow
1.000 UL
LTb
LCb setrgbcolor
1.000 UL
LTB
LCb setrgbcolor
3705 12744 N
0 -10654 V
12521 0 V
0 10654 V
-12521 0 V
Z stroke
1.000 UP
1.000 UL
LTb
LCb setrgbcolor
LCb setrgbcolor
1520 7417 M
currentpoint gsave translate -270 rotate 0 0 moveto
[ [(Times-Italic) 950.0 0.0 true true 0 (n\(k\) )]
[(Times-Roman) 950.0 0.0 true true 0 ([%])]
] -316.7 MCshow
grestore
LTb
LCb setrgbcolor
9965 665 M
[ [(Times-Italic) 950.0 0.0 true true 0 (t)]
] -316.7 MCshow
LTb
LCb setrgbcolor
9965 13694 M
[ [(Times-Italic) 950.0 0.0 true true 0 (L = 20; K = 8; p = 0,2)]
] -316.7 MCshow
LCb setrgbcolor
18477 12474 M
[ [(Times-Italic) 600.0 0.0 true true 0 (k=)]
] -200.0 MCshow
LTb
% Begin plot #1
4.000 UP
4.000 UL
LTb
LC0 setrgbcolor
LCb setrgbcolor
17726 11874 M
[ [(Times-Roman) 600.0 0.0 true true 0 (0)]
] -200.0 MRshow
4.000 UP
4.000 UL
LTb
LC0 setrgbcolor
18086 11874 M
1143 0 V
3705 3875 M
3955 2438 L
251 -187 V
250 -22 V
251 -4 V
250 0 V
251 0 V
250 0 V
250 0 V
251 0 V
250 0 V
251 0 V
250 0 V
250 0 V
251 0 V
250 0 V
251 0 V
250 0 V
251 0 V
250 0 V
250 0 V
251 0 V
250 0 V
251 0 V
250 0 V
251 0 V
250 0 V
250 0 V
251 0 V
250 0 V
251 0 V
250 0 V
250 0 V
251 0 V
250 0 V
251 0 V
250 0 V
251 0 V
250 0 V
250 0 V
251 0 V
250 0 V
251 0 V
250 0 V
250 0 V
251 0 V
250 0 V
251 0 V
250 0 V
251 0 V
250 0 V
3705 3875 Pls
3955 2438 Pls
4206 2251 Pls
4456 2229 Pls
4707 2225 Pls
4957 2225 Pls
5208 2225 Pls
5458 2225 Pls
5708 2225 Pls
5959 2225 Pls
6209 2225 Pls
6460 2225 Pls
6710 2225 Pls
6960 2225 Pls
7211 2225 Pls
7461 2225 Pls
7712 2225 Pls
7962 2225 Pls
8213 2225 Pls
8463 2225 Pls
8713 2225 Pls
8964 2225 Pls
9214 2225 Pls
9465 2225 Pls
9715 2225 Pls
9966 2225 Pls
10216 2225 Pls
10466 2225 Pls
10717 2225 Pls
10967 2225 Pls
11218 2225 Pls
11468 2225 Pls
11718 2225 Pls
11969 2225 Pls
12219 2225 Pls
12470 2225 Pls
12720 2225 Pls
12971 2225 Pls
13221 2225 Pls
13471 2225 Pls
13722 2225 Pls
13972 2225 Pls
14223 2225 Pls
14473 2225 Pls
14723 2225 Pls
14974 2225 Pls
15224 2225 Pls
15475 2225 Pls
15725 2225 Pls
15976 2225 Pls
16226 2225 Pls
18657 11874 Pls
% End plot #1
% Begin plot #2
4.000 UP
4.000 UL
LTb
LC1 setrgbcolor
LCb setrgbcolor
17726 11334 M
[ [(Times-Roman) 600.0 0.0 true true 0 (1)]
] -200.0 MRshow
4.000 UP
4.000 UL
LTb
LC1 setrgbcolor
18086 11334 M
1143 0 V
3705 5665 M
3955 4414 L
4206 2669 L
250 -466 V
251 -79 V
250 -16 V
251 -4 V
250 -1 V
250 0 V
251 0 V
250 0 V
251 0 V
250 0 V
250 0 V
251 0 V
250 0 V
251 0 V
250 0 V
251 0 V
250 0 V
250 0 V
251 0 V
250 0 V
251 0 V
250 0 V
251 0 V
250 0 V
250 0 V
251 0 V
250 0 V
251 0 V
250 0 V
250 0 V
251 0 V
250 0 V
251 0 V
250 0 V
251 0 V
250 0 V
250 0 V
251 0 V
250 0 V
251 0 V
250 0 V
250 0 V
251 0 V
250 0 V
251 0 V
250 0 V
251 0 V
250 0 V
3705 5665 Crs
3955 4414 Crs
4206 2669 Crs
4456 2203 Crs
4707 2124 Crs
4957 2108 Crs
5208 2104 Crs
5458 2103 Crs
5708 2103 Crs
5959 2103 Crs
6209 2103 Crs
6460 2103 Crs
6710 2103 Crs
6960 2103 Crs
7211 2103 Crs
7461 2103 Crs
7712 2103 Crs
7962 2103 Crs
8213 2103 Crs
8463 2103 Crs
8713 2103 Crs
8964 2103 Crs
9214 2103 Crs
9465 2103 Crs
9715 2103 Crs
9966 2103 Crs
10216 2103 Crs
10466 2103 Crs
10717 2103 Crs
10967 2103 Crs
11218 2103 Crs
11468 2103 Crs
11718 2103 Crs
11969 2103 Crs
12219 2103 Crs
12470 2103 Crs
12720 2103 Crs
12971 2103 Crs
13221 2103 Crs
13471 2103 Crs
13722 2103 Crs
13972 2103 Crs
14223 2103 Crs
14473 2103 Crs
14723 2103 Crs
14974 2103 Crs
15224 2103 Crs
15475 2103 Crs
15725 2103 Crs
15976 2103 Crs
16226 2103 Crs
18657 11334 Crs
% End plot #2
% Begin plot #3
4.000 UP
4.000 UL
LTb
LC2 setrgbcolor
LCb setrgbcolor
17726 10794 M
[ [(Times-Roman) 600.0 0.0 true true 0 (2)]
] -200.0 MRshow
4.000 UP
4.000 UL
LTb
LC2 setrgbcolor
18086 10794 M
1143 0 V
3705 5221 M
250 1216 V
251 -565 V
4456 3625 L
4707 2434 L
250 -287 V
251 -48 V
250 -7 V
250 -1 V
251 -1 V
250 0 V
251 0 V
250 0 V
250 0 V
251 0 V
250 0 V
251 0 V
250 0 V
251 0 V
250 0 V
250 0 V
251 0 V
250 0 V
251 0 V
250 0 V
251 0 V
250 0 V
250 0 V
251 0 V
250 0 V
251 0 V
250 0 V
250 0 V
251 0 V
250 0 V
251 0 V
250 0 V
251 0 V
250 0 V
250 0 V
251 0 V
250 0 V
251 0 V
250 0 V
250 0 V
251 0 V
250 0 V
251 0 V
250 0 V
251 0 V
250 0 V
3705 5221 Star
3955 6437 Star
4206 5872 Star
4456 3625 Star
4707 2434 Star
4957 2147 Star
5208 2099 Star
5458 2092 Star
5708 2091 Star
5959 2090 Star
6209 2090 Star
6460 2090 Star
6710 2090 Star
6960 2090 Star
7211 2090 Star
7461 2090 Star
7712 2090 Star
7962 2090 Star
8213 2090 Star
8463 2090 Star
8713 2090 Star
8964 2090 Star
9214 2090 Star
9465 2090 Star
9715 2090 Star
9966 2090 Star
10216 2090 Star
10466 2090 Star
10717 2090 Star
10967 2090 Star
11218 2090 Star
11468 2090 Star
11718 2090 Star
11969 2090 Star
12219 2090 Star
12470 2090 Star
12720 2090 Star
12971 2090 Star
13221 2090 Star
13471 2090 Star
13722 2090 Star
13972 2090 Star
14223 2090 Star
14473 2090 Star
14723 2090 Star
14974 2090 Star
15224 2090 Star
15475 2090 Star
15725 2090 Star
15976 2090 Star
16226 2090 Star
18657 10794 Star
% End plot #3
% Begin plot #4
4.000 UP
4.000 UL
LTb
LC3 setrgbcolor
LCb setrgbcolor
17726 10254 M
[ [(Times-Roman) 600.0 0.0 true true 0 (3)]
] -200.0 MRshow
4.000 UP
4.000 UL
LTb
LC3 setrgbcolor
18086 10254 M
1143 0 V
3705 3653 M
250 1202 V
251 2003 V
250 1585 V
251 -838 V
4957 5482 L
5208 3719 L
250 -985 V
250 -430 V
251 -154 V
250 -46 V
251 -11 V
250 -2 V
250 -1 V
251 0 V
250 0 V
251 0 V
250 0 V
251 0 V
250 0 V
250 0 V
251 0 V
250 0 V
251 0 V
250 0 V
251 0 V
250 0 V
250 0 V
251 0 V
250 0 V
251 0 V
250 0 V
250 0 V
251 0 V
250 0 V
251 0 V
250 0 V
251 0 V
250 0 V
250 0 V
251 0 V
250 0 V
251 0 V
250 0 V
250 0 V
251 0 V
250 0 V
251 0 V
250 0 V
251 0 V
250 0 V
3705 3653 Box
3955 4855 Box
4206 6858 Box
4456 8443 Box
4707 7605 Box
4957 5482 Box
5208 3719 Box
5458 2734 Box
5708 2304 Box
5959 2150 Box
6209 2104 Box
6460 2093 Box
6710 2091 Box
6960 2090 Box
7211 2090 Box
7461 2090 Box
7712 2090 Box
7962 2090 Box
8213 2090 Box
8463 2090 Box
8713 2090 Box
8964 2090 Box
9214 2090 Box
9465 2090 Box
9715 2090 Box
9966 2090 Box
10216 2090 Box
10466 2090 Box
10717 2090 Box
10967 2090 Box
11218 2090 Box
11468 2090 Box
11718 2090 Box
11969 2090 Box
12219 2090 Box
12470 2090 Box
12720 2090 Box
12971 2090 Box
13221 2090 Box
13471 2090 Box
13722 2090 Box
13972 2090 Box
14223 2090 Box
14473 2090 Box
14723 2090 Box
14974 2090 Box
15224 2090 Box
15475 2090 Box
15725 2090 Box
15976 2090 Box
16226 2090 Box
18657 10254 Box
% End plot #4
% Begin plot #5
4.000 UP
4.000 UL
LTb
LC4 setrgbcolor
LCb setrgbcolor
17726 9714 M
[ [(Times-Roman) 600.0 0.0 true true 0 (4)]
] -200.0 MRshow
4.000 UP
4.000 UL
LTb
LC4 setrgbcolor
18086 9714 M
1143 0 V
3705 2579 M
250 250 V
251 478 V
250 1113 V
251 2018 V
250 2188 V
251 1330 V
250 218 V
250 -580 V
251 -998 V
6209 7457 L
6460 6337 L
6710 5328 L
250 -848 V
251 -660 V
250 -478 V
251 -328 V
250 -222 V
251 -148 V
250 -101 V
250 -68 V
251 -46 V
250 -30 V
251 -17 V
250 -9 V
251 -3 V
250 -1 V
250 -1 V
251 0 V
250 0 V
251 0 V
250 0 V
250 0 V
251 0 V
250 0 V
251 0 V
250 0 V
251 0 V
250 0 V
250 0 V
251 0 V
250 0 V
251 0 V
250 0 V
250 0 V
251 0 V
250 0 V
251 0 V
250 0 V
251 0 V
250 0 V
3705 2579 BoxF
3955 2829 BoxF
4206 3307 BoxF
4456 4420 BoxF
4707 6438 BoxF
4957 8626 BoxF
5208 9956 BoxF
5458 10174 BoxF
5708 9594 BoxF
5959 8596 BoxF
6209 7457 BoxF
6460 6337 BoxF
6710 5328 BoxF
6960 4480 BoxF
7211 3820 BoxF
7461 3342 BoxF
7712 3014 BoxF
7962 2792 BoxF
8213 2644 BoxF
8463 2543 BoxF
8713 2475 BoxF
8964 2429 BoxF
9214 2399 BoxF
9465 2382 BoxF
9715 2373 BoxF
9966 2370 BoxF
10216 2369 BoxF
10466 2368 BoxF
10717 2368 BoxF
10967 2368 BoxF
11218 2368 BoxF
11468 2368 BoxF
11718 2368 BoxF
11969 2368 BoxF
12219 2368 BoxF
12470 2368 BoxF
12720 2368 BoxF
12971 2368 BoxF
13221 2368 BoxF
13471 2368 BoxF
13722 2368 BoxF
13972 2368 BoxF
14223 2368 BoxF
14473 2368 BoxF
14723 2368 BoxF
14974 2368 BoxF
15224 2368 BoxF
15475 2368 BoxF
15725 2368 BoxF
15976 2368 BoxF
16226 2368 BoxF
18657 9714 BoxF
% End plot #5
% Begin plot #6
4.000 UP
4.000 UL
LTb
LC5 setrgbcolor
LCb setrgbcolor
17726 9174 M
[ [(Times-Roman) 600.0 0.0 true true 0 (5)]
] -200.0 MRshow
4.000 UP
4.000 UL
LTb
LC5 setrgbcolor
18086 9174 M
1143 0 V
3705 2189 M
250 17 V
251 17 V
250 37 V
251 94 V
250 238 V
251 483 V
250 768 V
250 1000 V
251 1126 V
250 1142 V
251 1064 V
250 917 V
250 722 V
251 498 V
250 280 V
251 98 V
250 -36 V
251 -128 V
250 -185 V
250 -216 V
251 -226 V
250 -225 V
251 -213 V
250 -192 V
251 -168 V
250 -139 V
250 -112 V
251 -87 V
250 -64 V
251 -47 V
250 -33 V
250 -23 V
251 -14 V
250 -10 V
251 -6 V
250 -4 V
251 -2 V
250 -2 V
250 -1 V
251 0 V
250 0 V
251 -1 V
250 0 V
250 0 V
251 0 V
250 0 V
251 0 V
250 0 V
251 0 V
250 0 V
3705 2189 Circle
3955 2206 Circle
4206 2223 Circle
4456 2260 Circle
4707 2354 Circle
4957 2592 Circle
5208 3075 Circle
5458 3843 Circle
5708 4843 Circle
5959 5969 Circle
6209 7111 Circle
6460 8175 Circle
6710 9092 Circle
6960 9814 Circle
7211 10312 Circle
7461 10592 Circle
7712 10690 Circle
7962 10654 Circle
8213 10526 Circle
8463 10341 Circle
8713 10125 Circle
8964 9899 Circle
9214 9674 Circle
9465 9461 Circle
9715 9269 Circle
9966 9101 Circle
10216 8962 Circle
10466 8850 Circle
10717 8763 Circle
10967 8699 Circle
11218 8652 Circle
11468 8619 Circle
11718 8596 Circle
11969 8582 Circle
12219 8572 Circle
12470 8566 Circle
12720 8562 Circle
12971 8560 Circle
13221 8558 Circle
13471 8557 Circle
13722 8557 Circle
13972 8557 Circle
14223 8556 Circle
14473 8556 Circle
14723 8556 Circle
14974 8556 Circle
15224 8556 Circle
15475 8556 Circle
15725 8556 Circle
15976 8556 Circle
16226 8556 Circle
18657 9174 Circle
% End plot #6
% Begin plot #7
4.000 UP
4.000 UL
LTb
LC6 setrgbcolor
LCb setrgbcolor
17726 8634 M
[ [(Times-Roman) 600.0 0.0 true true 0 (6)]
] -200.0 MRshow
4.000 UP
4.000 UL
LTb
LC6 setrgbcolor
18086 8634 M
1143 0 V
3705 2102 M
250 1 V
251 0 V
250 0 V
251 0 V
250 1 V
251 2 V
250 6 V
250 13 V
251 25 V
250 43 V
251 67 V
250 95 V
250 127 V
251 162 V
250 196 V
251 230 V
250 257 V
251 275 V
250 284 V
250 281 V
251 270 V
250 251 V
251 226 V
250 196 V
251 165 V
250 135 V
250 105 V
251 80 V
250 58 V
251 39 V
250 27 V
250 15 V
251 8 V
250 4 V
251 0 V
250 -1 V
251 -1 V
250 -3 V
250 -2 V
251 -2 V
250 -1 V
251 -2 V
250 -1 V
250 -1 V
251 0 V
250 0 V
251 -1 V
250 0 V
251 0 V
250 0 V
3705 2102 CircleF
3955 2103 CircleF
4206 2103 CircleF
4456 2103 CircleF
4707 2103 CircleF
4957 2104 CircleF
5208 2106 CircleF
5458 2112 CircleF
5708 2125 CircleF
5959 2150 CircleF
6209 2193 CircleF
6460 2260 CircleF
6710 2355 CircleF
6960 2482 CircleF
7211 2644 CircleF
7461 2840 CircleF
7712 3070 CircleF
7962 3327 CircleF
8213 3602 CircleF
8463 3886 CircleF
8713 4167 CircleF
8964 4437 CircleF
9214 4688 CircleF
9465 4914 CircleF
9715 5110 CircleF
9966 5275 CircleF
10216 5410 CircleF
10466 5515 CircleF
10717 5595 CircleF
10967 5653 CircleF
11218 5692 CircleF
11468 5719 CircleF
11718 5734 CircleF
11969 5742 CircleF
12219 5746 CircleF
12470 5746 CircleF
12720 5745 CircleF
12971 5744 CircleF
13221 5741 CircleF
13471 5739 CircleF
13722 5737 CircleF
13972 5736 CircleF
14223 5734 CircleF
14473 5733 CircleF
14723 5732 CircleF
14974 5732 CircleF
15224 5732 CircleF
15475 5731 CircleF
15725 5731 CircleF
15976 5731 CircleF
16226 5731 CircleF
18657 8634 CircleF
% End plot #7
% Begin plot #8
4.000 UP
4.000 UL
LTb
LC7 setrgbcolor
LCb setrgbcolor
17726 8094 M
[ [(Times-Roman) 600.0 0.0 true true 0 (7)]
] -200.0 MRshow
4.000 UP
4.000 UL
LTb
LC7 setrgbcolor
18086 8094 M
1143 0 V
3705 2091 M
250 0 V
251 0 V
250 0 V
251 0 V
250 0 V
251 0 V
250 0 V
250 0 V
251 0 V
250 0 V
251 0 V
250 0 V
250 0 V
251 0 V
250 1 V
251 0 V
250 1 V
251 1 V
250 2 V
250 3 V
251 2 V
250 4 V
251 4 V
250 5 V
251 6 V
250 6 V
250 6 V
251 7 V
250 8 V
251 7 V
250 7 V
250 7 V
251 6 V
250 6 V
251 6 V
250 4 V
251 5 V
250 3 V
250 3 V
251 3 V
250 2 V
251 1 V
250 1 V
250 1 V
251 1 V
250 0 V
251 0 V
250 0 V
251 0 V
250 0 V
3705 2091 TriU
3955 2091 TriU
4206 2091 TriU
4456 2091 TriU
4707 2091 TriU
4957 2091 TriU
5208 2091 TriU
5458 2091 TriU
5708 2091 TriU
5959 2091 TriU
6209 2091 TriU
6460 2091 TriU
6710 2091 TriU
6960 2091 TriU
7211 2091 TriU
7461 2092 TriU
7712 2092 TriU
7962 2093 TriU
8213 2094 TriU
8463 2096 TriU
8713 2099 TriU
8964 2101 TriU
9214 2105 TriU
9465 2109 TriU
9715 2114 TriU
9966 2120 TriU
10216 2126 TriU
10466 2132 TriU
10717 2139 TriU
10967 2147 TriU
11218 2154 TriU
11468 2161 TriU
11718 2168 TriU
11969 2174 TriU
12219 2180 TriU
12470 2186 TriU
12720 2190 TriU
12971 2195 TriU
13221 2198 TriU
13471 2201 TriU
13722 2204 TriU
13972 2206 TriU
14223 2207 TriU
14473 2208 TriU
14723 2209 TriU
14974 2210 TriU
15224 2210 TriU
15475 2210 TriU
15725 2210 TriU
15976 2210 TriU
16226 2210 TriU
18657 8094 TriU
% End plot #8
% Begin plot #9
4.000 UP
4.000 UL
LTb
LC8 setrgbcolor
LCb setrgbcolor
17726 7554 M
[ [(Times-Roman) 600.0 0.0 true true 0 (8)]
] -200.0 MRshow
4.000 UP
4.000 UL
LTb
LC8 setrgbcolor
18086 7554 M
1143 0 V
3705 2090 M
250 0 V
251 0 V
250 0 V
251 0 V
250 0 V
251 0 V
250 0 V
250 0 V
251 0 V
250 0 V
251 0 V
250 0 V
250 0 V
251 0 V
250 0 V
251 0 V
250 0 V
251 0 V
250 0 V
250 0 V
251 0 V
250 0 V
251 0 V
250 0 V
251 0 V
250 0 V
250 0 V
251 0 V
250 0 V
251 0 V
250 0 V
250 0 V
251 0 V
250 0 V
251 0 V
250 0 V
251 0 V
250 0 V
250 0 V
251 0 V
250 0 V
251 0 V
250 0 V
250 0 V
251 0 V
250 0 V
251 0 V
250 0 V
251 0 V
250 0 V
3705 2090 TriUF
3955 2090 TriUF
4206 2090 TriUF
4456 2090 TriUF
4707 2090 TriUF
4957 2090 TriUF
5208 2090 TriUF
5458 2090 TriUF
5708 2090 TriUF
5959 2090 TriUF
6209 2090 TriUF
6460 2090 TriUF
6710 2090 TriUF
6960 2090 TriUF
7211 2090 TriUF
7461 2090 TriUF
7712 2090 TriUF
7962 2090 TriUF
8213 2090 TriUF
8463 2090 TriUF
8713 2090 TriUF
8964 2090 TriUF
9214 2090 TriUF
9465 2090 TriUF
9715 2090 TriUF
9966 2090 TriUF
10216 2090 TriUF
10466 2090 TriUF
10717 2090 TriUF
10967 2090 TriUF
11218 2090 TriUF
11468 2090 TriUF
11718 2090 TriUF
11969 2090 TriUF
12219 2090 TriUF
12470 2090 TriUF
12720 2090 TriUF
12971 2090 TriUF
13221 2090 TriUF
13471 2090 TriUF
13722 2090 TriUF
13972 2090 TriUF
14223 2090 TriUF
14473 2090 TriUF
14723 2090 TriUF
14974 2090 TriUF
15224 2090 TriUF
15475 2090 TriUF
15725 2090 TriUF
15976 2090 TriUF
16226 2090 TriUF
18657 7554 TriUF
% End plot #9
2.000 UL
LTb
LCb setrgbcolor
1.000 UL
LTB
LCb setrgbcolor
3705 12744 N
0 -10654 V
12521 0 V
0 10654 V
-12521 0 V
Z stroke
1.000 UP
1.000 UL
LTb
LCb setrgbcolor
stroke
grestore
end
showpage
%%Trailer
%%DocumentFonts: Times-Italic Times-Roman
