#20		#L
#8		#competences		
#[0.02:0.02:0.98]	#p				
#1					#teaching rate from			
#1					#teaching rate to			
#1					#neighborhood				
#0					#choice of smartest neighbor	
#0					#way of choosing 
#n(K)vsLp				#output data
#
#
#
#
#S=1000
#t	n(0.02)	n(0.04)	n(0.06)	n(0.08)	n(0.10)	n(0.12)	n(0.14)	n(0.16)	n(0.18)	n(0.20)	n(0.22)	n(0.24)	n(0.26)	n(0.28)	n(0.30)	n(0.32)	n(0.34)	n(0.36)	n(0.38)	n(0.40)	n(0.42)	n(0.44)	n(0.46)	n(0.48)	n(0.50)	n(0.52)	n(0.54)	n(0.56)	n(0.58)	n(0.60)	n(0.62)	n(0.64)	n(0.66)	n(0.68)	n(0.70)	n(0.72)	n(0.74)	n(0.76)	n(0.78)	n(0.80)	n(0.82)	n(0.84)	n(0.86)	n(0.88)	n(0.90)	n(0.92)	n(0.94)	n(0.96)	n(0.98)	
0	0.0000	0.0000	0.0000	0.0000	0.0000	0.0000	0.0000	0.0000	0.0000	0.0000	0.0000	0.0000	0.0010	0.0000	0.0120	0.0288	0.0456	0.0939	0.1301	0.2087	0.3187	0.4211	0.5520	0.6301	0.7808	0.8719	0.9226	0.9547	0.9678	0.9731	0.9758	0.9752	0.9748	0.9757	0.9764	0.9761	0.9765	0.9776	0.9792	0.9796	0.9811	0.9823	0.9838	0.9857	0.9876	0.9898	0.9924	0.9943	0.9967	