#1000				#L
#8					#competences		
#[0.02:0.02:0.98]	#p				
#1					#teaching rate from			
#1					#teaching rate to			
#0					#neighborhood				
#0					#choice of smartest neighbor	
#0					#way of choosing 
#n(K)vsLp				#output data
#
#
#
#
#S=100
#t	n(0.02)	n(0.04)	n(0.06)	n(0.08)	n(0.10)	n(0.12)	n(0.14)	n(0.16)	n(0.18)	n(0.20)	n(0.22)	n(0.24)	n(0.26)	n(0.28)	n(0.30)	n(0.32)	n(0.34)	n(0.36)	n(0.38)	n(0.40)	n(0.42)	n(0.44)	n(0.46)	n(0.48)	n(0.50)	n(0.52)	n(0.54)	n(0.56)	n(0.58)	n(0.60)	n(0.62)	n(0.64)	n(0.66)	n(0.68)	n(0.70)	n(0.72)	n(0.74)	n(0.76)	n(0.78)	n(0.80)	n(0.82)	n(0.84)	n(0.86)	n(0.88)	n(0.90)	n(0.92)	n(0.94)	n(0.96)	n(0.98)	
0	0.0000	0.0000	0.0000	0.0000	0.0000	0.0000	0.0000	0.0000	0.0700	0.0899	0.2496	0.3590	0.5776	0.7356	0.9626	0.9808	0.9889	0.9873	0.9859	0.9843	0.9829	0.9816	0.9805	0.9795	0.9785	0.9776	0.9771	0.9765	0.9762	0.9758	0.9754	0.9754	0.9754	0.9757	0.9761	0.9767	0.9772	0.9780	0.9788	0.9800	0.9813	0.9827	0.9841	0.9857	0.9877	0.9901	0.9926	0.9946	0.9967	