#20		#L
#4		#competences		
#[0.02:0.02:0.98]	#p				
#1					#teaching rate from			
#1					#teaching rate to			
#1					#neighborhood				
#0					#choice of smartest neighbor	
#0					#way of choosing 
#n(K)vsLp				#output data
#
#
#
#
#S=1000
#t	n(0.02)	n(0.04)	n(0.06)	n(0.08)	n(0.10)	n(0.12)	n(0.14)	n(0.16)	n(0.18)	n(0.20)	n(0.22)	n(0.24)	n(0.26)	n(0.28)	n(0.30)	n(0.32)	n(0.34)	n(0.36)	n(0.38)	n(0.40)	n(0.42)	n(0.44)	n(0.46)	n(0.48)	n(0.50)	n(0.52)	n(0.54)	n(0.56)	n(0.58)	n(0.60)	n(0.62)	n(0.64)	n(0.66)	n(0.68)	n(0.70)	n(0.72)	n(0.74)	n(0.76)	n(0.78)	n(0.80)	n(0.82)	n(0.84)	n(0.86)	n(0.88)	n(0.90)	n(0.92)	n(0.94)	n(0.96)	n(0.98)	
0	0.0000	0.0000	0.0010	0.0110	0.0230	0.0610	0.1390	0.2270	0.3530	0.4600	0.6160	0.7460	0.8570	0.9350	0.9730	0.9890	0.9930	0.9980	1.0000	0.9999	0.9999	0.9998	0.9996	0.9995	0.9992	0.9989	0.9985	0.9981	0.9977	0.9973	0.9970	0.9967	0.9966	0.9962	0.9964	0.9964	0.9964	0.9963	0.9963	0.9960	0.9962	0.9963	0.9966	0.9971	0.9974	0.9979	0.9982	0.9984	0.9991	