%!PS-Adobe-2.0 EPSF-2.0
%%Title: VNR2_K8.eps
%%Creator: gnuplot 5.0 patchlevel 3
%%CreationDate: Mon May 08 07:02:39 2017
%%DocumentFonts: (atend)
%%BoundingBox: 50 50 1058 806
%%EndComments
%%BeginProlog
/gnudict 256 dict def
gnudict begin
%
% The following true/false flags may be edited by hand if desired.
% The unit line width and grayscale image gamma correction may also be changed.
%
/Color true def
/Blacktext false def
/Solid false def
/Dashlength 1 def
/Landscape false def
/Level1 false def
/Level3 false def
/Rounded false def
/ClipToBoundingBox false def
/SuppressPDFMark false def
/TransparentPatterns false def
/gnulinewidth 5.000 def
/userlinewidth gnulinewidth def
/Gamma 1.0 def
/BackgroundColor {-1.000 -1.000 -1.000} def
%
/vshift -133 def
/dl1 {
  10.0 Dashlength userlinewidth gnulinewidth div mul mul mul
  Rounded { currentlinewidth 0.75 mul sub dup 0 le { pop 0.01 } if } if
} def
/dl2 {
  10.0 Dashlength userlinewidth gnulinewidth div mul mul mul
  Rounded { currentlinewidth 0.75 mul add } if
} def
/hpt_ 31.5 def
/vpt_ 31.5 def
/hpt hpt_ def
/vpt vpt_ def
/doclip {
  ClipToBoundingBox {
    newpath 50 50 moveto 1058 50 lineto 1058 806 lineto 50 806 lineto closepath
    clip
  } if
} def
%
% Gnuplot Prolog Version 5.1 (Oct 2015)
%
%/SuppressPDFMark true def
%
/M {moveto} bind def
/L {lineto} bind def
/R {rmoveto} bind def
/V {rlineto} bind def
/N {newpath moveto} bind def
/Z {closepath} bind def
/C {setrgbcolor} bind def
/f {rlineto fill} bind def
/g {setgray} bind def
/Gshow {show} def   % May be redefined later in the file to support UTF-8
/vpt2 vpt 2 mul def
/hpt2 hpt 2 mul def
/Lshow {currentpoint stroke M 0 vshift R 
	Blacktext {gsave 0 setgray textshow grestore} {textshow} ifelse} def
/Rshow {currentpoint stroke M dup stringwidth pop neg vshift R
	Blacktext {gsave 0 setgray textshow grestore} {textshow} ifelse} def
/Cshow {currentpoint stroke M dup stringwidth pop -2 div vshift R 
	Blacktext {gsave 0 setgray textshow grestore} {textshow} ifelse} def
/UP {dup vpt_ mul /vpt exch def hpt_ mul /hpt exch def
  /hpt2 hpt 2 mul def /vpt2 vpt 2 mul def} def
/DL {Color {setrgbcolor Solid {pop []} if 0 setdash}
 {pop pop pop 0 setgray Solid {pop []} if 0 setdash} ifelse} def
/BL {stroke userlinewidth 2 mul setlinewidth
	Rounded {1 setlinejoin 1 setlinecap} if} def
/AL {stroke userlinewidth 2 div setlinewidth
	Rounded {1 setlinejoin 1 setlinecap} if} def
/UL {dup gnulinewidth mul /userlinewidth exch def
	dup 1 lt {pop 1} if 10 mul /udl exch def} def
/PL {stroke userlinewidth setlinewidth
	Rounded {1 setlinejoin 1 setlinecap} if} def
3.8 setmiterlimit
% Classic Line colors (version 5.0)
/LCw {1 1 1} def
/LCb {0 0 0} def
/LCa {0 0 0} def
/LC0 {1 0 0} def
/LC1 {0 1 0} def
/LC2 {0 0 1} def
/LC3 {1 0 1} def
/LC4 {0 1 1} def
/LC5 {1 1 0} def
/LC6 {0 0 0} def
/LC7 {1 0.3 0} def
/LC8 {0.5 0.5 0.5} def
% Default dash patterns (version 5.0)
/LTB {BL [] LCb DL} def
/LTw {PL [] 1 setgray} def
/LTb {PL [] LCb DL} def
/LTa {AL [1 udl mul 2 udl mul] 0 setdash LCa setrgbcolor} def
/LT0 {PL [] LC0 DL} def
/LT1 {PL [2 dl1 3 dl2] LC1 DL} def
/LT2 {PL [1 dl1 1.5 dl2] LC2 DL} def
/LT3 {PL [6 dl1 2 dl2 1 dl1 2 dl2] LC3 DL} def
/LT4 {PL [1 dl1 2 dl2 6 dl1 2 dl2 1 dl1 2 dl2] LC4 DL} def
/LT5 {PL [4 dl1 2 dl2] LC5 DL} def
/LT6 {PL [1.5 dl1 1.5 dl2 1.5 dl1 1.5 dl2 1.5 dl1 6 dl2] LC6 DL} def
/LT7 {PL [3 dl1 3 dl2 1 dl1 3 dl2] LC7 DL} def
/LT8 {PL [2 dl1 2 dl2 2 dl1 6 dl2] LC8 DL} def
/SL {[] 0 setdash} def
/Pnt {stroke [] 0 setdash gsave 1 setlinecap M 0 0 V stroke grestore} def
/Dia {stroke [] 0 setdash 2 copy vpt add M
  hpt neg vpt neg V hpt vpt neg V
  hpt vpt V hpt neg vpt V closepath stroke
  Pnt} def
/Pls {stroke [] 0 setdash vpt sub M 0 vpt2 V
  currentpoint stroke M
  hpt neg vpt neg R hpt2 0 V stroke
 } def
/Box {stroke [] 0 setdash 2 copy exch hpt sub exch vpt add M
  0 vpt2 neg V hpt2 0 V 0 vpt2 V
  hpt2 neg 0 V closepath stroke
  Pnt} def
/Crs {stroke [] 0 setdash exch hpt sub exch vpt add M
  hpt2 vpt2 neg V currentpoint stroke M
  hpt2 neg 0 R hpt2 vpt2 V stroke} def
/TriU {stroke [] 0 setdash 2 copy vpt 1.12 mul add M
  hpt neg vpt -1.62 mul V
  hpt 2 mul 0 V
  hpt neg vpt 1.62 mul V closepath stroke
  Pnt} def
/Star {2 copy Pls Crs} def
/BoxF {stroke [] 0 setdash exch hpt sub exch vpt add M
  0 vpt2 neg V hpt2 0 V 0 vpt2 V
  hpt2 neg 0 V closepath fill} def
/TriUF {stroke [] 0 setdash vpt 1.12 mul add M
  hpt neg vpt -1.62 mul V
  hpt 2 mul 0 V
  hpt neg vpt 1.62 mul V closepath fill} def
/TriD {stroke [] 0 setdash 2 copy vpt 1.12 mul sub M
  hpt neg vpt 1.62 mul V
  hpt 2 mul 0 V
  hpt neg vpt -1.62 mul V closepath stroke
  Pnt} def
/TriDF {stroke [] 0 setdash vpt 1.12 mul sub M
  hpt neg vpt 1.62 mul V
  hpt 2 mul 0 V
  hpt neg vpt -1.62 mul V closepath fill} def
/DiaF {stroke [] 0 setdash vpt add M
  hpt neg vpt neg V hpt vpt neg V
  hpt vpt V hpt neg vpt V closepath fill} def
/Pent {stroke [] 0 setdash 2 copy gsave
  translate 0 hpt M 4 {72 rotate 0 hpt L} repeat
  closepath stroke grestore Pnt} def
/PentF {stroke [] 0 setdash gsave
  translate 0 hpt M 4 {72 rotate 0 hpt L} repeat
  closepath fill grestore} def
/Circle {stroke [] 0 setdash 2 copy
  hpt 0 360 arc stroke Pnt} def
/CircleF {stroke [] 0 setdash hpt 0 360 arc fill} def
/C0 {BL [] 0 setdash 2 copy moveto vpt 90 450 arc} bind def
/C1 {BL [] 0 setdash 2 copy moveto
	2 copy vpt 0 90 arc closepath fill
	vpt 0 360 arc closepath} bind def
/C2 {BL [] 0 setdash 2 copy moveto
	2 copy vpt 90 180 arc closepath fill
	vpt 0 360 arc closepath} bind def
/C3 {BL [] 0 setdash 2 copy moveto
	2 copy vpt 0 180 arc closepath fill
	vpt 0 360 arc closepath} bind def
/C4 {BL [] 0 setdash 2 copy moveto
	2 copy vpt 180 270 arc closepath fill
	vpt 0 360 arc closepath} bind def
/C5 {BL [] 0 setdash 2 copy moveto
	2 copy vpt 0 90 arc
	2 copy moveto
	2 copy vpt 180 270 arc closepath fill
	vpt 0 360 arc} bind def
/C6 {BL [] 0 setdash 2 copy moveto
	2 copy vpt 90 270 arc closepath fill
	vpt 0 360 arc closepath} bind def
/C7 {BL [] 0 setdash 2 copy moveto
	2 copy vpt 0 270 arc closepath fill
	vpt 0 360 arc closepath} bind def
/C8 {BL [] 0 setdash 2 copy moveto
	2 copy vpt 270 360 arc closepath fill
	vpt 0 360 arc closepath} bind def
/C9 {BL [] 0 setdash 2 copy moveto
	2 copy vpt 270 450 arc closepath fill
	vpt 0 360 arc closepath} bind def
/C10 {BL [] 0 setdash 2 copy 2 copy moveto vpt 270 360 arc closepath fill
	2 copy moveto
	2 copy vpt 90 180 arc closepath fill
	vpt 0 360 arc closepath} bind def
/C11 {BL [] 0 setdash 2 copy moveto
	2 copy vpt 0 180 arc closepath fill
	2 copy moveto
	2 copy vpt 270 360 arc closepath fill
	vpt 0 360 arc closepath} bind def
/C12 {BL [] 0 setdash 2 copy moveto
	2 copy vpt 180 360 arc closepath fill
	vpt 0 360 arc closepath} bind def
/C13 {BL [] 0 setdash 2 copy moveto
	2 copy vpt 0 90 arc closepath fill
	2 copy moveto
	2 copy vpt 180 360 arc closepath fill
	vpt 0 360 arc closepath} bind def
/C14 {BL [] 0 setdash 2 copy moveto
	2 copy vpt 90 360 arc closepath fill
	vpt 0 360 arc} bind def
/C15 {BL [] 0 setdash 2 copy vpt 0 360 arc closepath fill
	vpt 0 360 arc closepath} bind def
/Rec {newpath 4 2 roll moveto 1 index 0 rlineto 0 exch rlineto
	neg 0 rlineto closepath} bind def
/Square {dup Rec} bind def
/Bsquare {vpt sub exch vpt sub exch vpt2 Square} bind def
/S0 {BL [] 0 setdash 2 copy moveto 0 vpt rlineto BL Bsquare} bind def
/S1 {BL [] 0 setdash 2 copy vpt Square fill Bsquare} bind def
/S2 {BL [] 0 setdash 2 copy exch vpt sub exch vpt Square fill Bsquare} bind def
/S3 {BL [] 0 setdash 2 copy exch vpt sub exch vpt2 vpt Rec fill Bsquare} bind def
/S4 {BL [] 0 setdash 2 copy exch vpt sub exch vpt sub vpt Square fill Bsquare} bind def
/S5 {BL [] 0 setdash 2 copy 2 copy vpt Square fill
	exch vpt sub exch vpt sub vpt Square fill Bsquare} bind def
/S6 {BL [] 0 setdash 2 copy exch vpt sub exch vpt sub vpt vpt2 Rec fill Bsquare} bind def
/S7 {BL [] 0 setdash 2 copy exch vpt sub exch vpt sub vpt vpt2 Rec fill
	2 copy vpt Square fill Bsquare} bind def
/S8 {BL [] 0 setdash 2 copy vpt sub vpt Square fill Bsquare} bind def
/S9 {BL [] 0 setdash 2 copy vpt sub vpt vpt2 Rec fill Bsquare} bind def
/S10 {BL [] 0 setdash 2 copy vpt sub vpt Square fill 2 copy exch vpt sub exch vpt Square fill
	Bsquare} bind def
/S11 {BL [] 0 setdash 2 copy vpt sub vpt Square fill 2 copy exch vpt sub exch vpt2 vpt Rec fill
	Bsquare} bind def
/S12 {BL [] 0 setdash 2 copy exch vpt sub exch vpt sub vpt2 vpt Rec fill Bsquare} bind def
/S13 {BL [] 0 setdash 2 copy exch vpt sub exch vpt sub vpt2 vpt Rec fill
	2 copy vpt Square fill Bsquare} bind def
/S14 {BL [] 0 setdash 2 copy exch vpt sub exch vpt sub vpt2 vpt Rec fill
	2 copy exch vpt sub exch vpt Square fill Bsquare} bind def
/S15 {BL [] 0 setdash 2 copy Bsquare fill Bsquare} bind def
/D0 {gsave translate 45 rotate 0 0 S0 stroke grestore} bind def
/D1 {gsave translate 45 rotate 0 0 S1 stroke grestore} bind def
/D2 {gsave translate 45 rotate 0 0 S2 stroke grestore} bind def
/D3 {gsave translate 45 rotate 0 0 S3 stroke grestore} bind def
/D4 {gsave translate 45 rotate 0 0 S4 stroke grestore} bind def
/D5 {gsave translate 45 rotate 0 0 S5 stroke grestore} bind def
/D6 {gsave translate 45 rotate 0 0 S6 stroke grestore} bind def
/D7 {gsave translate 45 rotate 0 0 S7 stroke grestore} bind def
/D8 {gsave translate 45 rotate 0 0 S8 stroke grestore} bind def
/D9 {gsave translate 45 rotate 0 0 S9 stroke grestore} bind def
/D10 {gsave translate 45 rotate 0 0 S10 stroke grestore} bind def
/D11 {gsave translate 45 rotate 0 0 S11 stroke grestore} bind def
/D12 {gsave translate 45 rotate 0 0 S12 stroke grestore} bind def
/D13 {gsave translate 45 rotate 0 0 S13 stroke grestore} bind def
/D14 {gsave translate 45 rotate 0 0 S14 stroke grestore} bind def
/D15 {gsave translate 45 rotate 0 0 S15 stroke grestore} bind def
/DiaE {stroke [] 0 setdash vpt add M
  hpt neg vpt neg V hpt vpt neg V
  hpt vpt V hpt neg vpt V closepath stroke} def
/BoxE {stroke [] 0 setdash exch hpt sub exch vpt add M
  0 vpt2 neg V hpt2 0 V 0 vpt2 V
  hpt2 neg 0 V closepath stroke} def
/TriUE {stroke [] 0 setdash vpt 1.12 mul add M
  hpt neg vpt -1.62 mul V
  hpt 2 mul 0 V
  hpt neg vpt 1.62 mul V closepath stroke} def
/TriDE {stroke [] 0 setdash vpt 1.12 mul sub M
  hpt neg vpt 1.62 mul V
  hpt 2 mul 0 V
  hpt neg vpt -1.62 mul V closepath stroke} def
/PentE {stroke [] 0 setdash gsave
  translate 0 hpt M 4 {72 rotate 0 hpt L} repeat
  closepath stroke grestore} def
/CircE {stroke [] 0 setdash 
  hpt 0 360 arc stroke} def
/Opaque {gsave closepath 1 setgray fill grestore 0 setgray closepath} def
/DiaW {stroke [] 0 setdash vpt add M
  hpt neg vpt neg V hpt vpt neg V
  hpt vpt V hpt neg vpt V Opaque stroke} def
/BoxW {stroke [] 0 setdash exch hpt sub exch vpt add M
  0 vpt2 neg V hpt2 0 V 0 vpt2 V
  hpt2 neg 0 V Opaque stroke} def
/TriUW {stroke [] 0 setdash vpt 1.12 mul add M
  hpt neg vpt -1.62 mul V
  hpt 2 mul 0 V
  hpt neg vpt 1.62 mul V Opaque stroke} def
/TriDW {stroke [] 0 setdash vpt 1.12 mul sub M
  hpt neg vpt 1.62 mul V
  hpt 2 mul 0 V
  hpt neg vpt -1.62 mul V Opaque stroke} def
/PentW {stroke [] 0 setdash gsave
  translate 0 hpt M 4 {72 rotate 0 hpt L} repeat
  Opaque stroke grestore} def
/CircW {stroke [] 0 setdash 
  hpt 0 360 arc Opaque stroke} def
/BoxFill {gsave Rec 1 setgray fill grestore} def
/Density {
  /Fillden exch def
  currentrgbcolor
  /ColB exch def /ColG exch def /ColR exch def
  /ColR ColR Fillden mul Fillden sub 1 add def
  /ColG ColG Fillden mul Fillden sub 1 add def
  /ColB ColB Fillden mul Fillden sub 1 add def
  ColR ColG ColB setrgbcolor} def
/BoxColFill {gsave Rec PolyFill} def
/PolyFill {gsave Density fill grestore grestore} def
/h {rlineto rlineto rlineto gsave closepath fill grestore} bind def
%
% PostScript Level 1 Pattern Fill routine for rectangles
% Usage: x y w h s a XX PatternFill
%	x,y = lower left corner of box to be filled
%	w,h = width and height of box
%	  a = angle in degrees between lines and x-axis
%	 XX = 0/1 for no/yes cross-hatch
%
/PatternFill {gsave /PFa [ 9 2 roll ] def
  PFa 0 get PFa 2 get 2 div add PFa 1 get PFa 3 get 2 div add translate
  PFa 2 get -2 div PFa 3 get -2 div PFa 2 get PFa 3 get Rec
  TransparentPatterns {} {gsave 1 setgray fill grestore} ifelse
  clip
  currentlinewidth 0.5 mul setlinewidth
  /PFs PFa 2 get dup mul PFa 3 get dup mul add sqrt def
  0 0 M PFa 5 get rotate PFs -2 div dup translate
  0 1 PFs PFa 4 get div 1 add floor cvi
	{PFa 4 get mul 0 M 0 PFs V} for
  0 PFa 6 get ne {
	0 1 PFs PFa 4 get div 1 add floor cvi
	{PFa 4 get mul 0 2 1 roll M PFs 0 V} for
 } if
  stroke grestore} def
%
/languagelevel where
 {pop languagelevel} {1} ifelse
dup 2 lt
	{/InterpretLevel1 true def
	 /InterpretLevel3 false def}
	{/InterpretLevel1 Level1 def
	 2 gt
	    {/InterpretLevel3 Level3 def}
	    {/InterpretLevel3 false def}
	 ifelse }
 ifelse
%
% PostScript level 2 pattern fill definitions
%
/Level2PatternFill {
/Tile8x8 {/PaintType 2 /PatternType 1 /TilingType 1 /BBox [0 0 8 8] /XStep 8 /YStep 8}
	bind def
/KeepColor {currentrgbcolor [/Pattern /DeviceRGB] setcolorspace} bind def
<< Tile8x8
 /PaintProc {0.5 setlinewidth pop 0 0 M 8 8 L 0 8 M 8 0 L stroke} 
>> matrix makepattern
/Pat1 exch def
<< Tile8x8
 /PaintProc {0.5 setlinewidth pop 0 0 M 8 8 L 0 8 M 8 0 L stroke
	0 4 M 4 8 L 8 4 L 4 0 L 0 4 L stroke}
>> matrix makepattern
/Pat2 exch def
<< Tile8x8
 /PaintProc {0.5 setlinewidth pop 0 0 M 0 8 L
	8 8 L 8 0 L 0 0 L fill}
>> matrix makepattern
/Pat3 exch def
<< Tile8x8
 /PaintProc {0.5 setlinewidth pop -4 8 M 8 -4 L
	0 12 M 12 0 L stroke}
>> matrix makepattern
/Pat4 exch def
<< Tile8x8
 /PaintProc {0.5 setlinewidth pop -4 0 M 8 12 L
	0 -4 M 12 8 L stroke}
>> matrix makepattern
/Pat5 exch def
<< Tile8x8
 /PaintProc {0.5 setlinewidth pop -2 8 M 4 -4 L
	0 12 M 8 -4 L 4 12 M 10 0 L stroke}
>> matrix makepattern
/Pat6 exch def
<< Tile8x8
 /PaintProc {0.5 setlinewidth pop -2 0 M 4 12 L
	0 -4 M 8 12 L 4 -4 M 10 8 L stroke}
>> matrix makepattern
/Pat7 exch def
<< Tile8x8
 /PaintProc {0.5 setlinewidth pop 8 -2 M -4 4 L
	12 0 M -4 8 L 12 4 M 0 10 L stroke}
>> matrix makepattern
/Pat8 exch def
<< Tile8x8
 /PaintProc {0.5 setlinewidth pop 0 -2 M 12 4 L
	-4 0 M 12 8 L -4 4 M 8 10 L stroke}
>> matrix makepattern
/Pat9 exch def
/Pattern1 {PatternBgnd KeepColor Pat1 setpattern} bind def
/Pattern2 {PatternBgnd KeepColor Pat2 setpattern} bind def
/Pattern3 {PatternBgnd KeepColor Pat3 setpattern} bind def
/Pattern4 {PatternBgnd KeepColor Landscape {Pat5} {Pat4} ifelse setpattern} bind def
/Pattern5 {PatternBgnd KeepColor Landscape {Pat4} {Pat5} ifelse setpattern} bind def
/Pattern6 {PatternBgnd KeepColor Landscape {Pat9} {Pat6} ifelse setpattern} bind def
/Pattern7 {PatternBgnd KeepColor Landscape {Pat8} {Pat7} ifelse setpattern} bind def
} def
%
%
%End of PostScript Level 2 code
%
/PatternBgnd {
  TransparentPatterns {} {gsave 1 setgray fill grestore} ifelse
} def
%
% Substitute for Level 2 pattern fill codes with
% grayscale if Level 2 support is not selected.
%
/Level1PatternFill {
/Pattern1 {0.250 Density} bind def
/Pattern2 {0.500 Density} bind def
/Pattern3 {0.750 Density} bind def
/Pattern4 {0.125 Density} bind def
/Pattern5 {0.375 Density} bind def
/Pattern6 {0.625 Density} bind def
/Pattern7 {0.875 Density} bind def
} def
%
% Now test for support of Level 2 code
%
Level1 {Level1PatternFill} {Level2PatternFill} ifelse
%
/Symbol-Oblique /Symbol findfont [1 0 .167 1 0 0] makefont
dup length dict begin {1 index /FID eq {pop pop} {def} ifelse} forall
currentdict end definefont pop
%
/MFshow {
   { dup 5 get 3 ge
     { 5 get 3 eq {gsave} {grestore} ifelse }
     {dup dup 0 get findfont exch 1 get scalefont setfont
     [ currentpoint ] exch dup 2 get 0 exch R dup 5 get 2 ne {dup dup 6
     get exch 4 get {textshow} {stringwidth pop 0 R} ifelse }if dup 5 get 0 eq
     {dup 3 get {2 get neg 0 exch R pop} {pop aload pop M} ifelse} {dup 5
     get 1 eq {dup 2 get exch dup 3 get exch 6 get stringwidth pop -2 div
     dup 0 R} {dup 6 get stringwidth pop -2 div 0 R 6 get
     textshow 2 index {aload pop M neg 3 -1 roll neg R pop pop} {pop pop pop
     pop aload pop M} ifelse }ifelse }ifelse }
     ifelse }
   forall} def
/Gswidth {dup type /stringtype eq {stringwidth} {pop (n) stringwidth} ifelse} def
/MFwidth {0 exch { dup 5 get 3 ge { 5 get 3 eq { 0 } { pop } ifelse }
 {dup 3 get{dup dup 0 get findfont exch 1 get scalefont setfont
     6 get Gswidth pop add} {pop} ifelse} ifelse} forall} def
/MLshow { currentpoint stroke M
  0 exch R
  Blacktext {gsave 0 setgray MFshow grestore} {MFshow} ifelse } bind def
/MRshow { currentpoint stroke M
  exch dup MFwidth neg 3 -1 roll R
  Blacktext {gsave 0 setgray MFshow grestore} {MFshow} ifelse } bind def
/MCshow { currentpoint stroke M
  exch dup MFwidth -2 div 3 -1 roll R
  Blacktext {gsave 0 setgray MFshow grestore} {MFshow} ifelse } bind def
/XYsave    { [( ) 1 2 true false 3 ()] } bind def
/XYrestore { [( ) 1 2 true false 4 ()] } bind def
Level1 SuppressPDFMark or 
{} {
/SDict 10 dict def
systemdict /pdfmark known not {
  userdict /pdfmark systemdict /cleartomark get put
} if
SDict begin [
  /Title (VNR2_K8.eps)
  /Subject (gnuplot plot)
  /Creator (gnuplot 5.0 patchlevel 3)
  /Author (kamil)
%  /Producer (gnuplot)
%  /Keywords ()
  /CreationDate (Mon May 08 07:02:39 2017)
  /DOCINFO pdfmark
end
} ifelse
%
% Support for boxed text - Ethan A Merritt May 2005
%
/InitTextBox { userdict /TBy2 3 -1 roll put userdict /TBx2 3 -1 roll put
           userdict /TBy1 3 -1 roll put userdict /TBx1 3 -1 roll put
	   /Boxing true def } def
/ExtendTextBox { Boxing
    { gsave dup false charpath pathbbox
      dup TBy2 gt {userdict /TBy2 3 -1 roll put} {pop} ifelse
      dup TBx2 gt {userdict /TBx2 3 -1 roll put} {pop} ifelse
      dup TBy1 lt {userdict /TBy1 3 -1 roll put} {pop} ifelse
      dup TBx1 lt {userdict /TBx1 3 -1 roll put} {pop} ifelse
      grestore } if } def
/PopTextBox { newpath TBx1 TBxmargin sub TBy1 TBymargin sub M
               TBx1 TBxmargin sub TBy2 TBymargin add L
	       TBx2 TBxmargin add TBy2 TBymargin add L
	       TBx2 TBxmargin add TBy1 TBymargin sub L closepath } def
/DrawTextBox { PopTextBox stroke /Boxing false def} def
/FillTextBox { gsave PopTextBox 1 1 1 setrgbcolor fill grestore /Boxing false def} def
0 0 0 0 InitTextBox
/TBxmargin 20 def
/TBymargin 20 def
/Boxing false def
/textshow { ExtendTextBox Gshow } def
%
% redundant definitions for compatibility with prologue.ps older than 5.0.2
/LTB {BL [] LCb DL} def
/LTb {PL [] LCb DL} def
end
%%EndProlog
%%Page: 1 1
gnudict begin
gsave
doclip
50 50 translate
0.050 0.050 scale
0 setgray
newpath
(Helvetica) findfont 400 scalefont setfont
BackgroundColor 0 lt 3 1 roll 0 lt exch 0 lt or or not {BackgroundColor C 1.000 0 0 20160.00 15120.00 BoxColFill} if
1.000 UL
LTb
LCb setrgbcolor
1960 1280 M
63 0 V
16153 0 R
-63 0 V
stroke
1720 1280 M
[ [(Helvetica) 400.0 0.0 true true 0 ( 0)]
] -133.3 MRshow
1.000 UL
LTb
LCb setrgbcolor
1960 3808 M
63 0 V
16153 0 R
-63 0 V
stroke
1720 3808 M
[ [(Helvetica) 400.0 0.0 true true 0 ( 20)]
] -133.3 MRshow
1.000 UL
LTb
LCb setrgbcolor
1960 6336 M
63 0 V
16153 0 R
-63 0 V
stroke
1720 6336 M
[ [(Helvetica) 400.0 0.0 true true 0 ( 40)]
] -133.3 MRshow
1.000 UL
LTb
LCb setrgbcolor
1960 8863 M
63 0 V
16153 0 R
-63 0 V
stroke
1720 8863 M
[ [(Helvetica) 400.0 0.0 true true 0 ( 60)]
] -133.3 MRshow
1.000 UL
LTb
LCb setrgbcolor
1960 11391 M
63 0 V
16153 0 R
-63 0 V
stroke
1720 11391 M
[ [(Helvetica) 400.0 0.0 true true 0 ( 80)]
] -133.3 MRshow
1.000 UL
LTb
LCb setrgbcolor
1960 13919 M
63 0 V
16153 0 R
-63 0 V
stroke
1720 13919 M
[ [(Helvetica) 400.0 0.0 true true 0 ( 100)]
] -133.3 MRshow
1.000 UL
LTb
LCb setrgbcolor
1960 1280 M
0 63 V
0 12576 R
0 -63 V
stroke
1960 880 M
[ [(Helvetica) 400.0 0.0 true true 0 ( 0)]
] -133.3 MCshow
1.000 UL
LTb
LCb setrgbcolor
5203 1280 M
0 63 V
0 12576 R
0 -63 V
stroke
5203 880 M
[ [(Helvetica) 400.0 0.0 true true 0 ( 0.2)]
] -133.3 MCshow
1.000 UL
LTb
LCb setrgbcolor
8446 1280 M
0 63 V
0 12576 R
0 -63 V
stroke
8446 880 M
[ [(Helvetica) 400.0 0.0 true true 0 ( 0.4)]
] -133.3 MCshow
1.000 UL
LTb
LCb setrgbcolor
11690 1280 M
0 63 V
0 12576 R
0 -63 V
stroke
11690 880 M
[ [(Helvetica) 400.0 0.0 true true 0 ( 0.6)]
] -133.3 MCshow
1.000 UL
LTb
LCb setrgbcolor
14933 1280 M
0 63 V
0 12576 R
0 -63 V
stroke
14933 880 M
[ [(Helvetica) 400.0 0.0 true true 0 ( 0.8)]
] -133.3 MCshow
1.000 UL
LTb
LCb setrgbcolor
18176 1280 M
0 63 V
0 12576 R
0 -63 V
stroke
18176 880 M
[ [(Helvetica) 400.0 0.0 true true 0 ( 1)]
] -133.3 MCshow
1.000 UL
LTb
LCb setrgbcolor
1.000 UL
LTB
LCb setrgbcolor
1960 13919 N
0 -12639 V
16216 0 V
0 12639 V
-16216 0 V
Z stroke
1.000 UP
1.000 UL
LTb
LCb setrgbcolor
LCb setrgbcolor
320 7599 M
currentpoint gsave translate -270 rotate 0 0 moveto
[ [(Helvetica) 400.0 0.0 true true 0 (n\(K\))]
] -133.3 MCshow
grestore
LTb
LCb setrgbcolor
10068 280 M
[ [(Helvetica) 400.0 0.0 true true 0 (p)]
] -133.3 MCshow
LTb
LCb setrgbcolor
10068 14519 M
[ [(Helvetica) 400.0 0.0 true true 0 (K = 8)]
] -133.3 MCshow
LCb setrgbcolor
19287 13819 M
[ [(Helvetica) 200.0 0.0 true true 0 (L)]
] -66.7 MCshow
LTb
% Begin plot #1
1.000 UP
1.000 UL
LTb
0.58 0.00 0.83 C LCb setrgbcolor
19136 13619 M
[ [(Helvetica) 200.0 0.0 true true 0 (5)]
] -66.7 MRshow
1.000 UP
1.000 UL
LTb
0.58 0.00 0.83 C 19256 13619 M
543 0 V
1960 1280 M
324 0 V
325 0 V
324 0 V
324 0 V
325 0 V
324 0 V
324 0 V
325 0 V
324 0 V
324 0 V
325 0 V
324 0 V
324 0 V
324 3 V
325 -2 V
324 -1 V
324 1 V
325 14 V
324 -7 V
324 13 V
325 33 V
324 99 V
324 19 V
325 147 V
324 436 V
324 165 V
325 574 V
324 532 V
324 684 V
325 1289 V
324 852 V
324 1570 V
325 1041 V
324 1208 V
324 981 V
325 1083 V
324 502 V
324 538 V
324 343 V
325 289 V
324 45 V
324 58 V
325 4 V
324 21 V
324 30 V
325 3 V
324 14 V
324 15 V
325 25 V
324 18 V
1960 1280 Pls
2284 1280 Pls
2609 1280 Pls
2933 1280 Pls
3257 1280 Pls
3582 1280 Pls
3906 1280 Pls
4230 1280 Pls
4555 1280 Pls
4879 1280 Pls
5203 1280 Pls
5528 1280 Pls
5852 1280 Pls
6176 1280 Pls
6500 1283 Pls
6825 1281 Pls
7149 1280 Pls
7473 1281 Pls
7798 1295 Pls
8122 1288 Pls
8446 1301 Pls
8771 1334 Pls
9095 1433 Pls
9419 1452 Pls
9744 1599 Pls
10068 2035 Pls
10392 2200 Pls
10717 2774 Pls
11041 3306 Pls
11365 3990 Pls
11690 5279 Pls
12014 6131 Pls
12338 7701 Pls
12663 8742 Pls
12987 9950 Pls
13311 10931 Pls
13636 12014 Pls
13960 12516 Pls
14284 13054 Pls
14608 13397 Pls
14933 13686 Pls
15257 13731 Pls
15581 13789 Pls
15906 13793 Pls
16230 13814 Pls
16554 13844 Pls
16879 13847 Pls
17203 13861 Pls
17527 13876 Pls
17852 13901 Pls
18176 13919 Pls
19527 13619 Pls
% End plot #1
% Begin plot #2
1.000 UP
1.000 UL
LTb
0.00 0.62 0.45 C LCb setrgbcolor
19136 13419 M
[ [(Helvetica) 200.0 0.0 true true 0 (10)]
] -66.7 MRshow
1.000 UP
1.000 UL
LTb
0.00 0.62 0.45 C 19256 13419 M
543 0 V
1960 1280 M
324 0 V
325 0 V
324 0 V
324 0 V
325 0 V
324 0 V
324 0 V
325 0 V
324 0 V
324 0 V
325 0 V
324 0 V
324 0 V
324 0 V
325 1 V
324 13 V
324 38 V
325 14 V
324 215 V
324 129 V
325 260 V
324 703 V
324 562 V
325 1000 V
324 723 V
324 1595 V
325 1357 V
324 1326 V
324 988 V
325 1143 V
324 867 V
324 749 V
325 510 V
324 162 V
324 102 V
325 11 V
324 16 V
324 10 V
324 -5 V
325 8 V
324 12 V
324 2 V
325 9 V
324 17 V
324 11 V
325 13 V
324 17 V
324 26 V
325 12 V
324 23 V
1960 1280 Crs
2284 1280 Crs
2609 1280 Crs
2933 1280 Crs
3257 1280 Crs
3582 1280 Crs
3906 1280 Crs
4230 1280 Crs
4555 1280 Crs
4879 1280 Crs
5203 1280 Crs
5528 1280 Crs
5852 1280 Crs
6176 1280 Crs
6500 1280 Crs
6825 1281 Crs
7149 1294 Crs
7473 1332 Crs
7798 1346 Crs
8122 1561 Crs
8446 1690 Crs
8771 1950 Crs
9095 2653 Crs
9419 3215 Crs
9744 4215 Crs
10068 4938 Crs
10392 6533 Crs
10717 7890 Crs
11041 9216 Crs
11365 10204 Crs
11690 11347 Crs
12014 12214 Crs
12338 12963 Crs
12663 13473 Crs
12987 13635 Crs
13311 13737 Crs
13636 13748 Crs
13960 13764 Crs
14284 13774 Crs
14608 13769 Crs
14933 13777 Crs
15257 13789 Crs
15581 13791 Crs
15906 13800 Crs
16230 13817 Crs
16554 13828 Crs
16879 13841 Crs
17203 13858 Crs
17527 13884 Crs
17852 13896 Crs
18176 13919 Crs
19527 13419 Crs
% End plot #2
% Begin plot #3
1.000 UP
1.000 UL
LTb
0.34 0.71 0.91 C LCb setrgbcolor
19136 13219 M
[ [(Helvetica) 200.0 0.0 true true 0 (20)]
] -66.7 MRshow
1.000 UP
1.000 UL
LTb
0.34 0.71 0.91 C 19256 13219 M
543 0 V
1960 1280 M
324 0 V
325 0 V
324 0 V
324 0 V
325 0 V
324 0 V
324 0 V
325 0 V
324 0 V
324 0 V
325 0 V
324 0 V
324 13 V
324 0 V
325 113 V
324 139 V
324 378 V
325 377 V
324 502 V
324 1417 V
325 1113 V
324 1301 V
324 1523 V
325 1724 V
324 1218 V
324 1294 V
325 750 V
324 469 V
324 120 V
325 11 V
324 15 V
324 7 V
325 -3 V
324 -1 V
324 0 V
325 4 V
324 1 V
324 6 V
324 6 V
325 0 V
324 8 V
324 10 V
325 13 V
324 14 V
324 7 V
325 13 V
324 19 V
324 23 V
325 11 V
324 24 V
1960 1280 Star
2284 1280 Star
2609 1280 Star
2933 1280 Star
3257 1280 Star
3582 1280 Star
3906 1280 Star
4230 1280 Star
4555 1280 Star
4879 1280 Star
5203 1280 Star
5528 1280 Star
5852 1280 Star
6176 1293 Star
6500 1293 Star
6825 1406 Star
7149 1545 Star
7473 1923 Star
7798 2300 Star
8122 2802 Star
8446 4219 Star
8771 5332 Star
9095 6633 Star
9419 8156 Star
9744 9880 Star
10068 11098 Star
10392 12392 Star
10717 13142 Star
11041 13611 Star
11365 13731 Star
11690 13742 Star
12014 13757 Star
12338 13764 Star
12663 13761 Star
12987 13760 Star
13311 13760 Star
13636 13764 Star
13960 13765 Star
14284 13771 Star
14608 13777 Star
14933 13777 Star
15257 13785 Star
15581 13795 Star
15906 13808 Star
16230 13822 Star
16554 13829 Star
16879 13842 Star
17203 13861 Star
17527 13884 Star
17852 13895 Star
18176 13919 Star
19527 13219 Star
% End plot #3
% Begin plot #4
1.000 UP
1.000 UL
LTb
0.90 0.62 0.00 C LCb setrgbcolor
19136 13019 M
[ [(Helvetica) 200.0 0.0 true true 0 (50)]
] -66.7 MRshow
1.000 UP
1.000 UL
LTb
0.90 0.62 0.00 C 19256 13019 M
543 0 V
1960 1280 M
324 0 V
325 0 V
324 0 V
324 0 V
325 0 V
324 0 V
324 0 V
325 0 V
324 0 V
324 0 V
325 51 V
324 126 V
324 139 V
324 542 V
325 819 V
324 1485 V
324 1798 V
325 1820 V
324 1464 V
324 1914 V
325 1346 V
324 631 V
324 330 V
325 15 V
324 33 V
324 -9 V
325 -5 V
324 -7 V
324 -6 V
325 -4 V
324 0 V
324 -2 V
325 0 V
324 -2 V
324 -1 V
325 3 V
324 6 V
324 3 V
324 5 V
325 7 V
324 5 V
324 9 V
325 13 V
324 11 V
324 8 V
325 15 V
324 20 V
324 22 V
325 12 V
324 23 V
1960 1280 Box
2284 1280 Box
2609 1280 Box
2933 1280 Box
3257 1280 Box
3582 1280 Box
3906 1280 Box
4230 1280 Box
4555 1280 Box
4879 1280 Box
5203 1280 Box
5528 1331 Box
5852 1457 Box
6176 1596 Box
6500 2138 Box
6825 2957 Box
7149 4442 Box
7473 6240 Box
7798 8060 Box
8122 9524 Box
8446 11438 Box
8771 12784 Box
9095 13415 Box
9419 13745 Box
9744 13760 Box
10068 13793 Box
10392 13784 Box
10717 13779 Box
11041 13772 Box
11365 13766 Box
11690 13762 Box
12014 13762 Box
12338 13760 Box
12663 13760 Box
12987 13758 Box
13311 13757 Box
13636 13760 Box
13960 13766 Box
14284 13769 Box
14608 13774 Box
14933 13781 Box
15257 13786 Box
15581 13795 Box
15906 13808 Box
16230 13819 Box
16554 13827 Box
16879 13842 Box
17203 13862 Box
17527 13884 Box
17852 13896 Box
18176 13919 Box
19527 13019 Box
% End plot #4
% Begin plot #5
1.000 UP
1.000 UL
LTb
0.94 0.89 0.26 C LCb setrgbcolor
19136 12819 M
[ [(Helvetica) 200.0 0.0 true true 0 (100)]
] -66.7 MRshow
1.000 UP
1.000 UL
LTb
0.94 0.89 0.26 C 19256 12819 M
543 0 V
1960 1280 M
324 0 V
325 0 V
324 0 V
324 0 V
325 0 V
324 0 V
324 0 V
325 0 V
324 63 V
324 76 V
325 316 V
324 657 V
324 1187 V
324 1943 V
325 1863 V
324 2640 V
324 1742 V
325 1348 V
324 580 V
324 115 V
325 14 V
324 -9 V
324 -8 V
325 -9 V
324 -8 V
324 -5 V
325 -8 V
324 -5 V
324 -5 V
325 -2 V
324 -4 V
324 -1 V
325 -2 V
324 0 V
324 0 V
325 4 V
324 3 V
324 4 V
324 3 V
325 7 V
324 7 V
324 9 V
325 13 V
324 10 V
324 10 V
325 14 V
324 20 V
324 20 V
325 13 V
324 24 V
1960 1280 BoxF
2284 1280 BoxF
2609 1280 BoxF
2933 1280 BoxF
3257 1280 BoxF
3582 1280 BoxF
3906 1280 BoxF
4230 1280 BoxF
4555 1280 BoxF
4879 1343 BoxF
5203 1419 BoxF
5528 1735 BoxF
5852 2392 BoxF
6176 3579 BoxF
6500 5522 BoxF
6825 7385 BoxF
7149 10025 BoxF
7473 11767 BoxF
7798 13115 BoxF
8122 13695 BoxF
8446 13810 BoxF
8771 13824 BoxF
9095 13815 BoxF
9419 13807 BoxF
9744 13798 BoxF
10068 13790 BoxF
10392 13785 BoxF
10717 13777 BoxF
11041 13772 BoxF
11365 13767 BoxF
11690 13765 BoxF
12014 13761 BoxF
12338 13760 BoxF
12663 13758 BoxF
12987 13758 BoxF
13311 13758 BoxF
13636 13762 BoxF
13960 13765 BoxF
14284 13769 BoxF
14608 13772 BoxF
14933 13779 BoxF
15257 13786 BoxF
15581 13795 BoxF
15906 13808 BoxF
16230 13818 BoxF
16554 13828 BoxF
16879 13842 BoxF
17203 13862 BoxF
17527 13882 BoxF
17852 13895 BoxF
18176 13919 BoxF
19527 12819 BoxF
% End plot #5
% Begin plot #6
1.000 UP
1.000 UL
LTb
0.00 0.45 0.70 C LCb setrgbcolor
19136 12619 M
[ [(Helvetica) 200.0 0.0 true true 0 (200)]
] -66.7 MRshow
1.000 UP
1.000 UL
LTb
0.00 0.45 0.70 C 19256 12619 M
543 0 V
1960 1280 M
324 0 V
325 0 V
324 0 V
324 0 V
325 0 V
324 0 V
324 0 V
325 0 V
324 0 V
324 506 V
325 2527 V
324 2780 V
324 1513 V
324 2267 V
325 1505 V
324 1504 V
324 -12 V
325 -10 V
324 -13 V
324 -11 V
325 -9 V
324 -13 V
324 -6 V
325 -10 V
324 -7 V
324 -3 V
325 -11 V
324 -3 V
324 -4 V
325 -6 V
324 -4 V
324 0 V
325 -3 V
324 1 V
324 0 V
325 3 V
324 5 V
324 1 V
324 7 V
325 6 V
324 5 V
324 9 V
325 13 V
324 12 V
324 10 V
325 13 V
324 19 V
324 21 V
325 13 V
324 24 V
1960 1280 Circle
2284 1280 Circle
2609 1280 Circle
2933 1280 Circle
3257 1280 Circle
3582 1280 Circle
3906 1280 Circle
4230 1280 Circle
4555 1280 Circle
4879 1280 Circle
5203 1786 Circle
5528 4313 Circle
5852 7093 Circle
6176 8606 Circle
6500 10873 Circle
6825 12378 Circle
7149 13882 Circle
7473 13870 Circle
7798 13860 Circle
8122 13847 Circle
8446 13836 Circle
8771 13827 Circle
9095 13814 Circle
9419 13808 Circle
9744 13798 Circle
10068 13791 Circle
10392 13788 Circle
10717 13777 Circle
11041 13774 Circle
11365 13770 Circle
11690 13764 Circle
12014 13760 Circle
12338 13760 Circle
12663 13757 Circle
12987 13758 Circle
13311 13758 Circle
13636 13761 Circle
13960 13766 Circle
14284 13767 Circle
14608 13774 Circle
14933 13780 Circle
15257 13785 Circle
15581 13794 Circle
15906 13807 Circle
16230 13819 Circle
16554 13829 Circle
16879 13842 Circle
17203 13861 Circle
17527 13882 Circle
17852 13895 Circle
18176 13919 Circle
19527 12619 Circle
% End plot #6
% Begin plot #7
1.000 UP
1.000 UL
LTb
0.90 0.12 0.06 C LCb setrgbcolor
19136 12419 M
[ [(Helvetica) 200.0 0.0 true true 0 (500)]
] -66.7 MRshow
1.000 UP
1.000 UL
LTb
0.90 0.12 0.06 C 19256 12419 M
543 0 V
1960 1280 M
324 0 V
325 0 V
324 0 V
324 0 V
325 0 V
324 0 V
324 506 V
325 1516 V
324 -253 V
324 4803 V
325 3285 V
324 1514 V
324 1259 V
324 -7 V
325 -11 V
324 -11 V
324 -11 V
325 -13 V
324 -10 V
324 -11 V
325 -11 V
324 -10 V
324 -8 V
325 -9 V
324 -8 V
324 -6 V
325 -8 V
324 -5 V
324 -4 V
325 -2 V
324 -4 V
324 -3 V
325 -3 V
324 1 V
324 2 V
325 -1 V
324 4 V
324 6 V
324 5 V
325 4 V
324 9 V
324 9 V
325 10 V
324 10 V
324 13 V
325 11 V
324 20 V
324 23 V
325 10 V
324 28 V
1960 1280 CircleF
2284 1280 CircleF
2609 1280 CircleF
2933 1280 CircleF
3257 1280 CircleF
3582 1280 CircleF
3906 1280 CircleF
4230 1786 CircleF
4555 3302 CircleF
4879 3049 CircleF
5203 7852 CircleF
5528 11137 CircleF
5852 12651 CircleF
6176 13910 CircleF
6500 13903 CircleF
6825 13892 CircleF
7149 13881 CircleF
7473 13870 CircleF
7798 13857 CircleF
8122 13847 CircleF
8446 13836 CircleF
8771 13825 CircleF
9095 13815 CircleF
9419 13807 CircleF
9744 13798 CircleF
10068 13790 CircleF
10392 13784 CircleF
10717 13776 CircleF
11041 13771 CircleF
11365 13767 CircleF
11690 13765 CircleF
12014 13761 CircleF
12338 13758 CircleF
12663 13755 CircleF
12987 13756 CircleF
13311 13758 CircleF
13636 13757 CircleF
13960 13761 CircleF
14284 13767 CircleF
14608 13772 CircleF
14933 13776 CircleF
15257 13785 CircleF
15581 13794 CircleF
15906 13804 CircleF
16230 13814 CircleF
16554 13827 CircleF
16879 13838 CircleF
17203 13858 CircleF
17527 13881 CircleF
17852 13891 CircleF
18176 13919 CircleF
19527 12419 CircleF
% End plot #7
% Begin plot #8
1.000 UP
1.000 UL
LTb
0.00 0.00 0.00 C LCb setrgbcolor
19136 12219 M
[ [(Helvetica) 200.0 0.0 true true 0 (1000)]
] -66.7 MRshow
1.000 UP
1.000 UL
LTb
0.00 0.00 0.00 C 19256 12219 M
543 0 V
1960 1280 M
324 0 V
325 0 V
324 0 V
324 0 V
325 0 V
324 0 V
324 0 V
325 758 V
324 2275 V
324 6320 V
325 2779 V
324 503 V
324 -5 V
324 -7 V
325 -11 V
324 -11 V
324 -11 V
325 -13 V
324 -11 V
324 -10 V
325 -11 V
324 -10 V
324 -8 V
325 -9 V
324 -8 V
324 -6 V
325 -7 V
324 -5 V
324 -5 V
325 -3 V
324 -3 V
324 -3 V
325 -1 V
324 1 V
324 -1 V
325 4 V
324 1 V
324 7 V
324 3 V
325 5 V
324 8 V
324 9 V
325 11 V
324 12 V
324 11 V
325 13 V
324 20 V
324 19 V
325 14 V
324 25 V
1960 1280 TriU
2284 1280 TriU
2609 1280 TriU
2933 1280 TriU
3257 1280 TriU
3582 1280 TriU
3906 1280 TriU
4230 1280 TriU
4555 2038 TriU
4879 4313 TriU
5203 10633 TriU
5528 13412 TriU
5852 13915 TriU
6176 13910 TriU
6500 13903 TriU
6825 13892 TriU
7149 13881 TriU
7473 13870 TriU
7798 13857 TriU
8122 13846 TriU
8446 13836 TriU
8771 13825 TriU
9095 13815 TriU
9419 13807 TriU
9744 13798 TriU
10068 13790 TriU
10392 13784 TriU
10717 13777 TriU
11041 13772 TriU
11365 13767 TriU
11690 13764 TriU
12014 13761 TriU
12338 13758 TriU
12663 13757 TriU
12987 13758 TriU
13311 13757 TriU
13636 13761 TriU
13960 13762 TriU
14284 13769 TriU
14608 13772 TriU
14933 13777 TriU
15257 13785 TriU
15581 13794 TriU
15906 13805 TriU
16230 13817 TriU
16554 13828 TriU
16879 13841 TriU
17203 13861 TriU
17527 13880 TriU
17852 13894 TriU
18176 13919 TriU
19527 12219 TriU
% End plot #8
2.000 UL
LTb
LCb setrgbcolor
1.000 UL
LTB
LCb setrgbcolor
1960 13919 N
0 -12639 V
16216 0 V
0 12639 V
-16216 0 V
Z stroke
1.000 UP
1.000 UL
LTb
LCb setrgbcolor
stroke
grestore
end
showpage
%%Trailer
%%DocumentFonts: Helvetica
