#p			L=5  		L=10 		L=20 		L=50 		L=100		L=200		L=500		L=1000		
0.00		0.0000		0.0000		0.0000		0.0000		0.0000		0.0000		0.0000		0.0000		
0.02		0.0000		0.0000		0.0000		0.0000		0.0020		0.0100		0.0000		0.0000		
0.04		0.0000		0.0000		0.0000		0.0050		0.0300		0.1200		0.1500		0.0000		
0.06		0.0000		0.0000		0.0030		0.0160		0.1440		0.3500		0.8000		0.7600		
0.08		0.0000		0.0011		0.0070		0.1060		0.3350		0.8100		1.0000		1.0000		
0.10		0.0011		0.0031		0.0290		0.2300		0.6610		0.9700		1.0000		1.0000		
0.12		0.0011		0.0111		0.0710		0.3790		0.8760		1.0000		1.0000		1.0000		
0.14		0.0015		0.0241		0.1240		0.6300		0.9819		1.0000		1.0000		1.0000		
0.16		0.0043		0.0452		0.2490		0.7999		0.9989		0.9999		0.9999		0.9999		
0.18		0.0074		0.0781		0.3149		0.9317		0.9998		0.9997		0.9997		0.9997		
0.20		0.0159		0.1341		0.4598		0.9795		0.9995		0.9995		0.9995		0.9995		
0.22		0.0353		0.2040		0.5966		0.9982		0.9992		0.9992		0.9992		0.9992		
0.24		0.0536		0.2657		0.7290		0.9967		0.9987		0.9987		0.9987		0.9987		
0.26		0.0790		0.3662		0.8233		0.9979		0.9980		0.9980		0.9979		0.9980		
0.28		0.1083		0.4635		0.8981		0.9970		0.9970		0.9970		0.9970		0.9970		
0.30		0.1520		0.5378		0.9490		0.9958		0.9959		0.9959		0.9959		0.9958		
0.32		0.2102		0.6554		0.9775		0.9945		0.9945		0.9945		0.9945		0.9945		
0.34		0.2505		0.7206		0.9883		0.9930		0.9929		0.9930		0.9929		0.9929		
0.36		0.3286		0.7974		0.9910		0.9912		0.9912		0.9912		0.9912		0.9912		
0.38		0.4055		0.8873		0.9895		0.9894		0.9894		0.9894		0.9894		0.9894		
0.40		0.4866		0.9103		0.9873		0.9876		0.9875		0.9877		0.9876		0.9876		
0.42		0.5370		0.9483		0.9856		0.9857		0.9858		0.9858		0.9858		0.9858		
0.44		0.6050		0.9605		0.9841		0.9840		0.9841		0.9841		0.9840		0.9840		
0.46		0.6388		0.9661		0.9829		0.9825		0.9825		0.9825		0.9824		0.9825		
0.48		0.7248		0.9763		0.9804		0.9810		0.9810		0.9811		0.9810		0.9809		
0.50		0.7972		0.9779		0.9794		0.9799		0.9796		0.9797		0.9796		0.9797		
0.52		0.8106		0.9778		0.9786		0.9786		0.9785		0.9786		0.9786		0.9785		
0.54		0.8682		0.9770		0.9774		0.9775		0.9775		0.9775		0.9776		0.9775		
0.56		0.9096		0.9769		0.9767		0.9768		0.9767		0.9766		0.9766		0.9766		
0.58		0.9430		0.9750		0.9761		0.9761		0.9759		0.9759		0.9759		0.9759		
0.60		0.9466		0.9755		0.9750		0.9753		0.9754		0.9753		0.9753		0.9754		
0.62		0.9572		0.9750		0.9746		0.9749		0.9749		0.9750		0.9749		0.9750		
0.64		0.9663		0.9751		0.9744		0.9747		0.9746		0.9749		0.9747		0.9747		
0.66		0.9685		0.9750		0.9744		0.9746		0.9747		0.9746		0.9746		0.9746		
0.68		0.9693		0.9748		0.9746		0.9747		0.9748		0.9747		0.9747		0.9747		
0.70		0.9755		0.9750		0.9751		0.9753		0.9751		0.9750		0.9750		0.9751		
0.72		0.9739		0.9762		0.9757		0.9755		0.9754		0.9757		0.9755		0.9755		
0.74		0.9745		0.9767		0.9768		0.9763		0.9762		0.9763		0.9762		0.9763		
0.76		0.9779		0.9769		0.9768		0.9770		0.9772		0.9772		0.9772		0.9772		
0.78		0.9774		0.9787		0.9785		0.9780		0.9782		0.9782		0.9782		0.9782		
0.80		0.9797		0.9784		0.9793		0.9793		0.9794		0.9794		0.9794		0.9793		
0.82		0.9813		0.9802		0.9806		0.9804		0.9806		0.9807		0.9806		0.9806		
0.84		0.9814		0.9811		0.9819		0.9819		0.9819		0.9819		0.9818		0.9819		
0.86		0.9832		0.9836		0.9830		0.9832		0.9833		0.9834		0.9833		0.9833		
0.88		0.9831		0.9852		0.9853		0.9848		0.9849		0.9850		0.9848		0.9849		
0.90		0.9875		0.9868		0.9867		0.9867		0.9867		0.9868		0.9867		0.9867		
0.92		0.9891		0.9887		0.9890		0.9889		0.9890		0.9889		0.9889		0.9889		
0.94		0.9911		0.9918		0.9917		0.9917		0.9917		0.9917		0.9917		0.9917		
0.96		0.9959		0.9949		0.9949		0.9950		0.9950		0.9950		0.9950		0.9950		
0.98		0.9980		0.9983		0.9983		0.9982		0.9983		0.9983		0.9983		0.9983		
1.00		1.0000		1.0000		1.0000		1.0000		1.0000		1.0000		1.0000		1.0000		
