%!PS-Adobe-2.0 EPSF-2.0
%%Title: VonNeumann_K4.eps
%%Creator: gnuplot 5.0 patchlevel 3
%%CreationDate: Sun May 07 21:11:33 2017
%%DocumentFonts: (atend)
%%BoundingBox: 50 50 1058 806
%%EndComments
%%BeginProlog
/gnudict 256 dict def
gnudict begin
%
% The following true/false flags may be edited by hand if desired.
% The unit line width and grayscale image gamma correction may also be changed.
%
/Color true def
/Blacktext false def
/Solid false def
/Dashlength 1 def
/Landscape false def
/Level1 false def
/Level3 false def
/Rounded false def
/ClipToBoundingBox false def
/SuppressPDFMark false def
/TransparentPatterns false def
/gnulinewidth 5.000 def
/userlinewidth gnulinewidth def
/Gamma 1.0 def
/BackgroundColor {-1.000 -1.000 -1.000} def
%
/vshift -133 def
/dl1 {
  10.0 Dashlength userlinewidth gnulinewidth div mul mul mul
  Rounded { currentlinewidth 0.75 mul sub dup 0 le { pop 0.01 } if } if
} def
/dl2 {
  10.0 Dashlength userlinewidth gnulinewidth div mul mul mul
  Rounded { currentlinewidth 0.75 mul add } if
} def
/hpt_ 31.5 def
/vpt_ 31.5 def
/hpt hpt_ def
/vpt vpt_ def
/doclip {
  ClipToBoundingBox {
    newpath 50 50 moveto 1058 50 lineto 1058 806 lineto 50 806 lineto closepath
    clip
  } if
} def
%
% Gnuplot Prolog Version 5.1 (Oct 2015)
%
%/SuppressPDFMark true def
%
/M {moveto} bind def
/L {lineto} bind def
/R {rmoveto} bind def
/V {rlineto} bind def
/N {newpath moveto} bind def
/Z {closepath} bind def
/C {setrgbcolor} bind def
/f {rlineto fill} bind def
/g {setgray} bind def
/Gshow {show} def   % May be redefined later in the file to support UTF-8
/vpt2 vpt 2 mul def
/hpt2 hpt 2 mul def
/Lshow {currentpoint stroke M 0 vshift R 
	Blacktext {gsave 0 setgray textshow grestore} {textshow} ifelse} def
/Rshow {currentpoint stroke M dup stringwidth pop neg vshift R
	Blacktext {gsave 0 setgray textshow grestore} {textshow} ifelse} def
/Cshow {currentpoint stroke M dup stringwidth pop -2 div vshift R 
	Blacktext {gsave 0 setgray textshow grestore} {textshow} ifelse} def
/UP {dup vpt_ mul /vpt exch def hpt_ mul /hpt exch def
  /hpt2 hpt 2 mul def /vpt2 vpt 2 mul def} def
/DL {Color {setrgbcolor Solid {pop []} if 0 setdash}
 {pop pop pop 0 setgray Solid {pop []} if 0 setdash} ifelse} def
/BL {stroke userlinewidth 2 mul setlinewidth
	Rounded {1 setlinejoin 1 setlinecap} if} def
/AL {stroke userlinewidth 2 div setlinewidth
	Rounded {1 setlinejoin 1 setlinecap} if} def
/UL {dup gnulinewidth mul /userlinewidth exch def
	dup 1 lt {pop 1} if 10 mul /udl exch def} def
/PL {stroke userlinewidth setlinewidth
	Rounded {1 setlinejoin 1 setlinecap} if} def
3.8 setmiterlimit
% Classic Line colors (version 5.0)
/LCw {1 1 1} def
/LCb {0 0 0} def
/LCa {0 0 0} def
/LC0 {1 0 0} def
/LC1 {0 1 0} def
/LC2 {0 0 1} def
/LC3 {1 0 1} def
/LC4 {0 1 1} def
/LC5 {1 1 0} def
/LC6 {0 0 0} def
/LC7 {1 0.3 0} def
/LC8 {0.5 0.5 0.5} def
% Default dash patterns (version 5.0)
/LTB {BL [] LCb DL} def
/LTw {PL [] 1 setgray} def
/LTb {PL [] LCb DL} def
/LTa {AL [1 udl mul 2 udl mul] 0 setdash LCa setrgbcolor} def
/LT0 {PL [] LC0 DL} def
/LT1 {PL [2 dl1 3 dl2] LC1 DL} def
/LT2 {PL [1 dl1 1.5 dl2] LC2 DL} def
/LT3 {PL [6 dl1 2 dl2 1 dl1 2 dl2] LC3 DL} def
/LT4 {PL [1 dl1 2 dl2 6 dl1 2 dl2 1 dl1 2 dl2] LC4 DL} def
/LT5 {PL [4 dl1 2 dl2] LC5 DL} def
/LT6 {PL [1.5 dl1 1.5 dl2 1.5 dl1 1.5 dl2 1.5 dl1 6 dl2] LC6 DL} def
/LT7 {PL [3 dl1 3 dl2 1 dl1 3 dl2] LC7 DL} def
/LT8 {PL [2 dl1 2 dl2 2 dl1 6 dl2] LC8 DL} def
/SL {[] 0 setdash} def
/Pnt {stroke [] 0 setdash gsave 1 setlinecap M 0 0 V stroke grestore} def
/Dia {stroke [] 0 setdash 2 copy vpt add M
  hpt neg vpt neg V hpt vpt neg V
  hpt vpt V hpt neg vpt V closepath stroke
  Pnt} def
/Pls {stroke [] 0 setdash vpt sub M 0 vpt2 V
  currentpoint stroke M
  hpt neg vpt neg R hpt2 0 V stroke
 } def
/Box {stroke [] 0 setdash 2 copy exch hpt sub exch vpt add M
  0 vpt2 neg V hpt2 0 V 0 vpt2 V
  hpt2 neg 0 V closepath stroke
  Pnt} def
/Crs {stroke [] 0 setdash exch hpt sub exch vpt add M
  hpt2 vpt2 neg V currentpoint stroke M
  hpt2 neg 0 R hpt2 vpt2 V stroke} def
/TriU {stroke [] 0 setdash 2 copy vpt 1.12 mul add M
  hpt neg vpt -1.62 mul V
  hpt 2 mul 0 V
  hpt neg vpt 1.62 mul V closepath stroke
  Pnt} def
/Star {2 copy Pls Crs} def
/BoxF {stroke [] 0 setdash exch hpt sub exch vpt add M
  0 vpt2 neg V hpt2 0 V 0 vpt2 V
  hpt2 neg 0 V closepath fill} def
/TriUF {stroke [] 0 setdash vpt 1.12 mul add M
  hpt neg vpt -1.62 mul V
  hpt 2 mul 0 V
  hpt neg vpt 1.62 mul V closepath fill} def
/TriD {stroke [] 0 setdash 2 copy vpt 1.12 mul sub M
  hpt neg vpt 1.62 mul V
  hpt 2 mul 0 V
  hpt neg vpt -1.62 mul V closepath stroke
  Pnt} def
/TriDF {stroke [] 0 setdash vpt 1.12 mul sub M
  hpt neg vpt 1.62 mul V
  hpt 2 mul 0 V
  hpt neg vpt -1.62 mul V closepath fill} def
/DiaF {stroke [] 0 setdash vpt add M
  hpt neg vpt neg V hpt vpt neg V
  hpt vpt V hpt neg vpt V closepath fill} def
/Pent {stroke [] 0 setdash 2 copy gsave
  translate 0 hpt M 4 {72 rotate 0 hpt L} repeat
  closepath stroke grestore Pnt} def
/PentF {stroke [] 0 setdash gsave
  translate 0 hpt M 4 {72 rotate 0 hpt L} repeat
  closepath fill grestore} def
/Circle {stroke [] 0 setdash 2 copy
  hpt 0 360 arc stroke Pnt} def
/CircleF {stroke [] 0 setdash hpt 0 360 arc fill} def
/C0 {BL [] 0 setdash 2 copy moveto vpt 90 450 arc} bind def
/C1 {BL [] 0 setdash 2 copy moveto
	2 copy vpt 0 90 arc closepath fill
	vpt 0 360 arc closepath} bind def
/C2 {BL [] 0 setdash 2 copy moveto
	2 copy vpt 90 180 arc closepath fill
	vpt 0 360 arc closepath} bind def
/C3 {BL [] 0 setdash 2 copy moveto
	2 copy vpt 0 180 arc closepath fill
	vpt 0 360 arc closepath} bind def
/C4 {BL [] 0 setdash 2 copy moveto
	2 copy vpt 180 270 arc closepath fill
	vpt 0 360 arc closepath} bind def
/C5 {BL [] 0 setdash 2 copy moveto
	2 copy vpt 0 90 arc
	2 copy moveto
	2 copy vpt 180 270 arc closepath fill
	vpt 0 360 arc} bind def
/C6 {BL [] 0 setdash 2 copy moveto
	2 copy vpt 90 270 arc closepath fill
	vpt 0 360 arc closepath} bind def
/C7 {BL [] 0 setdash 2 copy moveto
	2 copy vpt 0 270 arc closepath fill
	vpt 0 360 arc closepath} bind def
/C8 {BL [] 0 setdash 2 copy moveto
	2 copy vpt 270 360 arc closepath fill
	vpt 0 360 arc closepath} bind def
/C9 {BL [] 0 setdash 2 copy moveto
	2 copy vpt 270 450 arc closepath fill
	vpt 0 360 arc closepath} bind def
/C10 {BL [] 0 setdash 2 copy 2 copy moveto vpt 270 360 arc closepath fill
	2 copy moveto
	2 copy vpt 90 180 arc closepath fill
	vpt 0 360 arc closepath} bind def
/C11 {BL [] 0 setdash 2 copy moveto
	2 copy vpt 0 180 arc closepath fill
	2 copy moveto
	2 copy vpt 270 360 arc closepath fill
	vpt 0 360 arc closepath} bind def
/C12 {BL [] 0 setdash 2 copy moveto
	2 copy vpt 180 360 arc closepath fill
	vpt 0 360 arc closepath} bind def
/C13 {BL [] 0 setdash 2 copy moveto
	2 copy vpt 0 90 arc closepath fill
	2 copy moveto
	2 copy vpt 180 360 arc closepath fill
	vpt 0 360 arc closepath} bind def
/C14 {BL [] 0 setdash 2 copy moveto
	2 copy vpt 90 360 arc closepath fill
	vpt 0 360 arc} bind def
/C15 {BL [] 0 setdash 2 copy vpt 0 360 arc closepath fill
	vpt 0 360 arc closepath} bind def
/Rec {newpath 4 2 roll moveto 1 index 0 rlineto 0 exch rlineto
	neg 0 rlineto closepath} bind def
/Square {dup Rec} bind def
/Bsquare {vpt sub exch vpt sub exch vpt2 Square} bind def
/S0 {BL [] 0 setdash 2 copy moveto 0 vpt rlineto BL Bsquare} bind def
/S1 {BL [] 0 setdash 2 copy vpt Square fill Bsquare} bind def
/S2 {BL [] 0 setdash 2 copy exch vpt sub exch vpt Square fill Bsquare} bind def
/S3 {BL [] 0 setdash 2 copy exch vpt sub exch vpt2 vpt Rec fill Bsquare} bind def
/S4 {BL [] 0 setdash 2 copy exch vpt sub exch vpt sub vpt Square fill Bsquare} bind def
/S5 {BL [] 0 setdash 2 copy 2 copy vpt Square fill
	exch vpt sub exch vpt sub vpt Square fill Bsquare} bind def
/S6 {BL [] 0 setdash 2 copy exch vpt sub exch vpt sub vpt vpt2 Rec fill Bsquare} bind def
/S7 {BL [] 0 setdash 2 copy exch vpt sub exch vpt sub vpt vpt2 Rec fill
	2 copy vpt Square fill Bsquare} bind def
/S8 {BL [] 0 setdash 2 copy vpt sub vpt Square fill Bsquare} bind def
/S9 {BL [] 0 setdash 2 copy vpt sub vpt vpt2 Rec fill Bsquare} bind def
/S10 {BL [] 0 setdash 2 copy vpt sub vpt Square fill 2 copy exch vpt sub exch vpt Square fill
	Bsquare} bind def
/S11 {BL [] 0 setdash 2 copy vpt sub vpt Square fill 2 copy exch vpt sub exch vpt2 vpt Rec fill
	Bsquare} bind def
/S12 {BL [] 0 setdash 2 copy exch vpt sub exch vpt sub vpt2 vpt Rec fill Bsquare} bind def
/S13 {BL [] 0 setdash 2 copy exch vpt sub exch vpt sub vpt2 vpt Rec fill
	2 copy vpt Square fill Bsquare} bind def
/S14 {BL [] 0 setdash 2 copy exch vpt sub exch vpt sub vpt2 vpt Rec fill
	2 copy exch vpt sub exch vpt Square fill Bsquare} bind def
/S15 {BL [] 0 setdash 2 copy Bsquare fill Bsquare} bind def
/D0 {gsave translate 45 rotate 0 0 S0 stroke grestore} bind def
/D1 {gsave translate 45 rotate 0 0 S1 stroke grestore} bind def
/D2 {gsave translate 45 rotate 0 0 S2 stroke grestore} bind def
/D3 {gsave translate 45 rotate 0 0 S3 stroke grestore} bind def
/D4 {gsave translate 45 rotate 0 0 S4 stroke grestore} bind def
/D5 {gsave translate 45 rotate 0 0 S5 stroke grestore} bind def
/D6 {gsave translate 45 rotate 0 0 S6 stroke grestore} bind def
/D7 {gsave translate 45 rotate 0 0 S7 stroke grestore} bind def
/D8 {gsave translate 45 rotate 0 0 S8 stroke grestore} bind def
/D9 {gsave translate 45 rotate 0 0 S9 stroke grestore} bind def
/D10 {gsave translate 45 rotate 0 0 S10 stroke grestore} bind def
/D11 {gsave translate 45 rotate 0 0 S11 stroke grestore} bind def
/D12 {gsave translate 45 rotate 0 0 S12 stroke grestore} bind def
/D13 {gsave translate 45 rotate 0 0 S13 stroke grestore} bind def
/D14 {gsave translate 45 rotate 0 0 S14 stroke grestore} bind def
/D15 {gsave translate 45 rotate 0 0 S15 stroke grestore} bind def
/DiaE {stroke [] 0 setdash vpt add M
  hpt neg vpt neg V hpt vpt neg V
  hpt vpt V hpt neg vpt V closepath stroke} def
/BoxE {stroke [] 0 setdash exch hpt sub exch vpt add M
  0 vpt2 neg V hpt2 0 V 0 vpt2 V
  hpt2 neg 0 V closepath stroke} def
/TriUE {stroke [] 0 setdash vpt 1.12 mul add M
  hpt neg vpt -1.62 mul V
  hpt 2 mul 0 V
  hpt neg vpt 1.62 mul V closepath stroke} def
/TriDE {stroke [] 0 setdash vpt 1.12 mul sub M
  hpt neg vpt 1.62 mul V
  hpt 2 mul 0 V
  hpt neg vpt -1.62 mul V closepath stroke} def
/PentE {stroke [] 0 setdash gsave
  translate 0 hpt M 4 {72 rotate 0 hpt L} repeat
  closepath stroke grestore} def
/CircE {stroke [] 0 setdash 
  hpt 0 360 arc stroke} def
/Opaque {gsave closepath 1 setgray fill grestore 0 setgray closepath} def
/DiaW {stroke [] 0 setdash vpt add M
  hpt neg vpt neg V hpt vpt neg V
  hpt vpt V hpt neg vpt V Opaque stroke} def
/BoxW {stroke [] 0 setdash exch hpt sub exch vpt add M
  0 vpt2 neg V hpt2 0 V 0 vpt2 V
  hpt2 neg 0 V Opaque stroke} def
/TriUW {stroke [] 0 setdash vpt 1.12 mul add M
  hpt neg vpt -1.62 mul V
  hpt 2 mul 0 V
  hpt neg vpt 1.62 mul V Opaque stroke} def
/TriDW {stroke [] 0 setdash vpt 1.12 mul sub M
  hpt neg vpt 1.62 mul V
  hpt 2 mul 0 V
  hpt neg vpt -1.62 mul V Opaque stroke} def
/PentW {stroke [] 0 setdash gsave
  translate 0 hpt M 4 {72 rotate 0 hpt L} repeat
  Opaque stroke grestore} def
/CircW {stroke [] 0 setdash 
  hpt 0 360 arc Opaque stroke} def
/BoxFill {gsave Rec 1 setgray fill grestore} def
/Density {
  /Fillden exch def
  currentrgbcolor
  /ColB exch def /ColG exch def /ColR exch def
  /ColR ColR Fillden mul Fillden sub 1 add def
  /ColG ColG Fillden mul Fillden sub 1 add def
  /ColB ColB Fillden mul Fillden sub 1 add def
  ColR ColG ColB setrgbcolor} def
/BoxColFill {gsave Rec PolyFill} def
/PolyFill {gsave Density fill grestore grestore} def
/h {rlineto rlineto rlineto gsave closepath fill grestore} bind def
%
% PostScript Level 1 Pattern Fill routine for rectangles
% Usage: x y w h s a XX PatternFill
%	x,y = lower left corner of box to be filled
%	w,h = width and height of box
%	  a = angle in degrees between lines and x-axis
%	 XX = 0/1 for no/yes cross-hatch
%
/PatternFill {gsave /PFa [ 9 2 roll ] def
  PFa 0 get PFa 2 get 2 div add PFa 1 get PFa 3 get 2 div add translate
  PFa 2 get -2 div PFa 3 get -2 div PFa 2 get PFa 3 get Rec
  TransparentPatterns {} {gsave 1 setgray fill grestore} ifelse
  clip
  currentlinewidth 0.5 mul setlinewidth
  /PFs PFa 2 get dup mul PFa 3 get dup mul add sqrt def
  0 0 M PFa 5 get rotate PFs -2 div dup translate
  0 1 PFs PFa 4 get div 1 add floor cvi
	{PFa 4 get mul 0 M 0 PFs V} for
  0 PFa 6 get ne {
	0 1 PFs PFa 4 get div 1 add floor cvi
	{PFa 4 get mul 0 2 1 roll M PFs 0 V} for
 } if
  stroke grestore} def
%
/languagelevel where
 {pop languagelevel} {1} ifelse
dup 2 lt
	{/InterpretLevel1 true def
	 /InterpretLevel3 false def}
	{/InterpretLevel1 Level1 def
	 2 gt
	    {/InterpretLevel3 Level3 def}
	    {/InterpretLevel3 false def}
	 ifelse }
 ifelse
%
% PostScript level 2 pattern fill definitions
%
/Level2PatternFill {
/Tile8x8 {/PaintType 2 /PatternType 1 /TilingType 1 /BBox [0 0 8 8] /XStep 8 /YStep 8}
	bind def
/KeepColor {currentrgbcolor [/Pattern /DeviceRGB] setcolorspace} bind def
<< Tile8x8
 /PaintProc {0.5 setlinewidth pop 0 0 M 8 8 L 0 8 M 8 0 L stroke} 
>> matrix makepattern
/Pat1 exch def
<< Tile8x8
 /PaintProc {0.5 setlinewidth pop 0 0 M 8 8 L 0 8 M 8 0 L stroke
	0 4 M 4 8 L 8 4 L 4 0 L 0 4 L stroke}
>> matrix makepattern
/Pat2 exch def
<< Tile8x8
 /PaintProc {0.5 setlinewidth pop 0 0 M 0 8 L
	8 8 L 8 0 L 0 0 L fill}
>> matrix makepattern
/Pat3 exch def
<< Tile8x8
 /PaintProc {0.5 setlinewidth pop -4 8 M 8 -4 L
	0 12 M 12 0 L stroke}
>> matrix makepattern
/Pat4 exch def
<< Tile8x8
 /PaintProc {0.5 setlinewidth pop -4 0 M 8 12 L
	0 -4 M 12 8 L stroke}
>> matrix makepattern
/Pat5 exch def
<< Tile8x8
 /PaintProc {0.5 setlinewidth pop -2 8 M 4 -4 L
	0 12 M 8 -4 L 4 12 M 10 0 L stroke}
>> matrix makepattern
/Pat6 exch def
<< Tile8x8
 /PaintProc {0.5 setlinewidth pop -2 0 M 4 12 L
	0 -4 M 8 12 L 4 -4 M 10 8 L stroke}
>> matrix makepattern
/Pat7 exch def
<< Tile8x8
 /PaintProc {0.5 setlinewidth pop 8 -2 M -4 4 L
	12 0 M -4 8 L 12 4 M 0 10 L stroke}
>> matrix makepattern
/Pat8 exch def
<< Tile8x8
 /PaintProc {0.5 setlinewidth pop 0 -2 M 12 4 L
	-4 0 M 12 8 L -4 4 M 8 10 L stroke}
>> matrix makepattern
/Pat9 exch def
/Pattern1 {PatternBgnd KeepColor Pat1 setpattern} bind def
/Pattern2 {PatternBgnd KeepColor Pat2 setpattern} bind def
/Pattern3 {PatternBgnd KeepColor Pat3 setpattern} bind def
/Pattern4 {PatternBgnd KeepColor Landscape {Pat5} {Pat4} ifelse setpattern} bind def
/Pattern5 {PatternBgnd KeepColor Landscape {Pat4} {Pat5} ifelse setpattern} bind def
/Pattern6 {PatternBgnd KeepColor Landscape {Pat9} {Pat6} ifelse setpattern} bind def
/Pattern7 {PatternBgnd KeepColor Landscape {Pat8} {Pat7} ifelse setpattern} bind def
} def
%
%
%End of PostScript Level 2 code
%
/PatternBgnd {
  TransparentPatterns {} {gsave 1 setgray fill grestore} ifelse
} def
%
% Substitute for Level 2 pattern fill codes with
% grayscale if Level 2 support is not selected.
%
/Level1PatternFill {
/Pattern1 {0.250 Density} bind def
/Pattern2 {0.500 Density} bind def
/Pattern3 {0.750 Density} bind def
/Pattern4 {0.125 Density} bind def
/Pattern5 {0.375 Density} bind def
/Pattern6 {0.625 Density} bind def
/Pattern7 {0.875 Density} bind def
} def
%
% Now test for support of Level 2 code
%
Level1 {Level1PatternFill} {Level2PatternFill} ifelse
%
/Symbol-Oblique /Symbol findfont [1 0 .167 1 0 0] makefont
dup length dict begin {1 index /FID eq {pop pop} {def} ifelse} forall
currentdict end definefont pop
%
/MFshow {
   { dup 5 get 3 ge
     { 5 get 3 eq {gsave} {grestore} ifelse }
     {dup dup 0 get findfont exch 1 get scalefont setfont
     [ currentpoint ] exch dup 2 get 0 exch R dup 5 get 2 ne {dup dup 6
     get exch 4 get {textshow} {stringwidth pop 0 R} ifelse }if dup 5 get 0 eq
     {dup 3 get {2 get neg 0 exch R pop} {pop aload pop M} ifelse} {dup 5
     get 1 eq {dup 2 get exch dup 3 get exch 6 get stringwidth pop -2 div
     dup 0 R} {dup 6 get stringwidth pop -2 div 0 R 6 get
     textshow 2 index {aload pop M neg 3 -1 roll neg R pop pop} {pop pop pop
     pop aload pop M} ifelse }ifelse }ifelse }
     ifelse }
   forall} def
/Gswidth {dup type /stringtype eq {stringwidth} {pop (n) stringwidth} ifelse} def
/MFwidth {0 exch { dup 5 get 3 ge { 5 get 3 eq { 0 } { pop } ifelse }
 {dup 3 get{dup dup 0 get findfont exch 1 get scalefont setfont
     6 get Gswidth pop add} {pop} ifelse} ifelse} forall} def
/MLshow { currentpoint stroke M
  0 exch R
  Blacktext {gsave 0 setgray MFshow grestore} {MFshow} ifelse } bind def
/MRshow { currentpoint stroke M
  exch dup MFwidth neg 3 -1 roll R
  Blacktext {gsave 0 setgray MFshow grestore} {MFshow} ifelse } bind def
/MCshow { currentpoint stroke M
  exch dup MFwidth -2 div 3 -1 roll R
  Blacktext {gsave 0 setgray MFshow grestore} {MFshow} ifelse } bind def
/XYsave    { [( ) 1 2 true false 3 ()] } bind def
/XYrestore { [( ) 1 2 true false 4 ()] } bind def
Level1 SuppressPDFMark or 
{} {
/SDict 10 dict def
systemdict /pdfmark known not {
  userdict /pdfmark systemdict /cleartomark get put
} if
SDict begin [
  /Title (VonNeumann_K4.eps)
  /Subject (gnuplot plot)
  /Creator (gnuplot 5.0 patchlevel 3)
  /Author (kamil)
%  /Producer (gnuplot)
%  /Keywords ()
  /CreationDate (Sun May 07 21:11:33 2017)
  /DOCINFO pdfmark
end
} ifelse
%
% Support for boxed text - Ethan A Merritt May 2005
%
/InitTextBox { userdict /TBy2 3 -1 roll put userdict /TBx2 3 -1 roll put
           userdict /TBy1 3 -1 roll put userdict /TBx1 3 -1 roll put
	   /Boxing true def } def
/ExtendTextBox { Boxing
    { gsave dup false charpath pathbbox
      dup TBy2 gt {userdict /TBy2 3 -1 roll put} {pop} ifelse
      dup TBx2 gt {userdict /TBx2 3 -1 roll put} {pop} ifelse
      dup TBy1 lt {userdict /TBy1 3 -1 roll put} {pop} ifelse
      dup TBx1 lt {userdict /TBx1 3 -1 roll put} {pop} ifelse
      grestore } if } def
/PopTextBox { newpath TBx1 TBxmargin sub TBy1 TBymargin sub M
               TBx1 TBxmargin sub TBy2 TBymargin add L
	       TBx2 TBxmargin add TBy2 TBymargin add L
	       TBx2 TBxmargin add TBy1 TBymargin sub L closepath } def
/DrawTextBox { PopTextBox stroke /Boxing false def} def
/FillTextBox { gsave PopTextBox 1 1 1 setrgbcolor fill grestore /Boxing false def} def
0 0 0 0 InitTextBox
/TBxmargin 20 def
/TBymargin 20 def
/Boxing false def
/textshow { ExtendTextBox Gshow } def
%
% redundant definitions for compatibility with prologue.ps older than 5.0.2
/LTB {BL [] LCb DL} def
/LTb {PL [] LCb DL} def
end
%%EndProlog
%%Page: 1 1
gnudict begin
gsave
doclip
50 50 translate
0.050 0.050 scale
0 setgray
newpath
(Helvetica) findfont 400 scalefont setfont
BackgroundColor 0 lt 3 1 roll 0 lt exch 0 lt or or not {BackgroundColor C 1.000 0 0 20160.00 15120.00 BoxColFill} if
1.000 UL
LTb
LCb setrgbcolor
1960 1280 M
63 0 V
16153 0 R
-63 0 V
stroke
1720 1280 M
[ [(Helvetica) 400.0 0.0 true true 0 ( 0)]
] -133.3 MRshow
1.000 UL
LTb
LCb setrgbcolor
1960 3808 M
63 0 V
16153 0 R
-63 0 V
stroke
1720 3808 M
[ [(Helvetica) 400.0 0.0 true true 0 ( 20)]
] -133.3 MRshow
1.000 UL
LTb
LCb setrgbcolor
1960 6336 M
63 0 V
16153 0 R
-63 0 V
stroke
1720 6336 M
[ [(Helvetica) 400.0 0.0 true true 0 ( 40)]
] -133.3 MRshow
1.000 UL
LTb
LCb setrgbcolor
1960 8863 M
63 0 V
16153 0 R
-63 0 V
stroke
1720 8863 M
[ [(Helvetica) 400.0 0.0 true true 0 ( 60)]
] -133.3 MRshow
1.000 UL
LTb
LCb setrgbcolor
1960 11391 M
63 0 V
16153 0 R
-63 0 V
stroke
1720 11391 M
[ [(Helvetica) 400.0 0.0 true true 0 ( 80)]
] -133.3 MRshow
1.000 UL
LTb
LCb setrgbcolor
1960 13919 M
63 0 V
16153 0 R
-63 0 V
stroke
1720 13919 M
[ [(Helvetica) 400.0 0.0 true true 0 ( 100)]
] -133.3 MRshow
1.000 UL
LTb
LCb setrgbcolor
1960 1280 M
0 63 V
0 12576 R
0 -63 V
stroke
1960 880 M
[ [(Helvetica) 400.0 0.0 true true 0 ( 0)]
] -133.3 MCshow
1.000 UL
LTb
LCb setrgbcolor
5203 1280 M
0 63 V
0 12576 R
0 -63 V
stroke
5203 880 M
[ [(Helvetica) 400.0 0.0 true true 0 ( 0.2)]
] -133.3 MCshow
1.000 UL
LTb
LCb setrgbcolor
8446 1280 M
0 63 V
0 12576 R
0 -63 V
stroke
8446 880 M
[ [(Helvetica) 400.0 0.0 true true 0 ( 0.4)]
] -133.3 MCshow
1.000 UL
LTb
LCb setrgbcolor
11690 1280 M
0 63 V
0 12576 R
0 -63 V
stroke
11690 880 M
[ [(Helvetica) 400.0 0.0 true true 0 ( 0.6)]
] -133.3 MCshow
1.000 UL
LTb
LCb setrgbcolor
14933 1280 M
0 63 V
0 12576 R
0 -63 V
stroke
14933 880 M
[ [(Helvetica) 400.0 0.0 true true 0 ( 0.8)]
] -133.3 MCshow
1.000 UL
LTb
LCb setrgbcolor
18176 1280 M
0 63 V
0 12576 R
0 -63 V
stroke
18176 880 M
[ [(Helvetica) 400.0 0.0 true true 0 ( 1)]
] -133.3 MCshow
1.000 UL
LTb
LCb setrgbcolor
1.000 UL
LTB
LCb setrgbcolor
1960 13919 N
0 -12639 V
16216 0 V
0 12639 V
-16216 0 V
Z stroke
1.000 UP
1.000 UL
LTb
LCb setrgbcolor
LCb setrgbcolor
320 7599 M
currentpoint gsave translate -270 rotate 0 0 moveto
[ [(Helvetica) 400.0 0.0 true true 0 (n\(K\))]
] -133.3 MCshow
grestore
LTb
LCb setrgbcolor
10068 280 M
[ [(Helvetica) 400.0 0.0 true true 0 (p)]
] -133.3 MCshow
LTb
LCb setrgbcolor
10068 14519 M
[ [(Helvetica) 400.0 0.0 true true 0 (K = 4)]
] -133.3 MCshow
LCb setrgbcolor
19287 13819 M
[ [(Helvetica) 200.0 0.0 true true 0 (L)]
] -66.7 MCshow
LTb
% Begin plot #1
1.000 UP
1.000 UL
LTb
0.58 0.00 0.83 C LCb setrgbcolor
19136 13619 M
[ [(Helvetica) 200.0 0.0 true true 0 (5)]
] -66.7 MRshow
1.000 UP
1.000 UL
LTb
0.58 0.00 0.83 C 19256 13619 M
543 0 V
1960 1280 M
324 0 V
325 0 V
324 0 V
324 0 V
325 14 V
324 0 V
324 5 V
325 35 V
324 40 V
324 107 V
325 245 V
324 231 V
324 321 V
324 371 V
325 552 V
324 736 V
324 509 V
325 987 V
324 972 V
324 1025 V
325 637 V
324 860 V
324 427 V
325 1087 V
324 915 V
324 169 V
325 728 V
324 523 V
324 423 V
325 45 V
324 134 V
324 115 V
325 28 V
324 10 V
324 78 V
325 -20 V
324 8 V
324 43 V
324 -7 V
325 29 V
324 21 V
324 1 V
325 23 V
324 -2 V
324 56 V
325 20 V
324 26 V
324 60 V
325 27 V
324 25 V
1960 1280 Pls
2284 1280 Pls
2609 1280 Pls
2933 1280 Pls
3257 1280 Pls
3582 1294 Pls
3906 1294 Pls
4230 1299 Pls
4555 1334 Pls
4879 1374 Pls
5203 1481 Pls
5528 1726 Pls
5852 1957 Pls
6176 2278 Pls
6500 2649 Pls
6825 3201 Pls
7149 3937 Pls
7473 4446 Pls
7798 5433 Pls
8122 6405 Pls
8446 7430 Pls
8771 8067 Pls
9095 8927 Pls
9419 9354 Pls
9744 10441 Pls
10068 11356 Pls
10392 11525 Pls
10717 12253 Pls
11041 12776 Pls
11365 13199 Pls
11690 13244 Pls
12014 13378 Pls
12338 13493 Pls
12663 13521 Pls
12987 13531 Pls
13311 13609 Pls
13636 13589 Pls
13960 13597 Pls
14284 13640 Pls
14608 13633 Pls
14933 13662 Pls
15257 13683 Pls
15581 13684 Pls
15906 13707 Pls
16230 13705 Pls
16554 13761 Pls
16879 13781 Pls
17203 13807 Pls
17527 13867 Pls
17852 13894 Pls
18176 13919 Pls
19527 13619 Pls
% End plot #1
% Begin plot #2
1.000 UP
1.000 UL
LTb
0.00 0.62 0.45 C LCb setrgbcolor
19136 13419 M
[ [(Helvetica) 200.0 0.0 true true 0 (10)]
] -66.7 MRshow
1.000 UP
1.000 UL
LTb
0.00 0.62 0.45 C 19256 13419 M
543 0 V
1960 1280 M
324 0 V
325 0 V
324 0 V
324 14 V
325 25 V
324 101 V
324 165 V
325 266 V
324 416 V
324 708 V
325 883 V
324 780 V
324 1270 V
324 1230 V
325 939 V
324 1487 V
324 824 V
325 970 V
324 1137 V
324 290 V
325 481 V
324 154 V
324 71 V
325 128 V
324 21 V
324 -2 V
325 -10 V
324 -1 V
324 -24 V
325 6 V
324 -6 V
324 1 V
325 -1 V
324 -3 V
324 3 V
325 15 V
324 7 V
324 2 V
324 23 V
325 -4 V
324 23 V
324 11 V
325 32 V
324 20 V
324 20 V
325 24 V
324 39 V
324 40 V
325 43 V
324 21 V
1960 1280 Crs
2284 1280 Crs
2609 1280 Crs
2933 1280 Crs
3257 1294 Crs
3582 1319 Crs
3906 1420 Crs
4230 1585 Crs
4555 1851 Crs
4879 2267 Crs
5203 2975 Crs
5528 3858 Crs
5852 4638 Crs
6176 5908 Crs
6500 7138 Crs
6825 8077 Crs
7149 9564 Crs
7473 10388 Crs
7798 11358 Crs
8122 12495 Crs
8446 12785 Crs
8771 13266 Crs
9095 13420 Crs
9419 13491 Crs
9744 13619 Crs
10068 13640 Crs
10392 13638 Crs
10717 13628 Crs
11041 13627 Crs
11365 13603 Crs
11690 13609 Crs
12014 13603 Crs
12338 13604 Crs
12663 13603 Crs
12987 13600 Crs
13311 13603 Crs
13636 13618 Crs
13960 13625 Crs
14284 13627 Crs
14608 13650 Crs
14933 13646 Crs
15257 13669 Crs
15581 13680 Crs
15906 13712 Crs
16230 13732 Crs
16554 13752 Crs
16879 13776 Crs
17203 13815 Crs
17527 13855 Crs
17852 13898 Crs
18176 13919 Crs
19527 13419 Crs
% End plot #2
% Begin plot #3
1.000 UP
1.000 UL
LTb
0.34 0.71 0.91 C LCb setrgbcolor
19136 13219 M
[ [(Helvetica) 200.0 0.0 true true 0 (20)]
] -66.7 MRshow
1.000 UP
1.000 UL
LTb
0.34 0.71 0.91 C 19256 13219 M
543 0 V
1960 1280 M
324 0 V
325 0 V
324 38 V
324 50 V
325 279 V
324 530 V
324 670 V
325 1580 V
324 833 V
324 1831 V
325 1729 V
324 1674 V
324 1192 V
324 945 V
325 643 V
324 361 V
324 136 V
325 34 V
324 -19 V
324 -28 V
325 -21 V
324 -19 V
324 -15 V
325 -32 V
324 -12 V
324 -10 V
325 -16 V
324 -8 V
324 -8 V
325 -14 V
324 -5 V
324 -3 V
325 0 V
324 3 V
324 6 V
325 8 V
324 14 V
324 0 V
324 21 V
325 10 V
324 17 V
324 16 V
325 14 V
324 29 V
324 18 V
325 29 V
324 34 V
324 41 V
325 43 V
324 21 V
1960 1280 Star
2284 1280 Star
2609 1280 Star
2933 1318 Star
3257 1368 Star
3582 1647 Star
3906 2177 Star
4230 2847 Star
4555 4427 Star
4879 5260 Star
5203 7091 Star
5528 8820 Star
5852 10494 Star
6176 11686 Star
6500 12631 Star
6825 13274 Star
7149 13635 Star
7473 13771 Star
7798 13805 Star
8122 13786 Star
8446 13758 Star
8771 13737 Star
9095 13718 Star
9419 13703 Star
9744 13671 Star
10068 13659 Star
10392 13649 Star
10717 13633 Star
11041 13625 Star
11365 13617 Star
11690 13603 Star
12014 13598 Star
12338 13595 Star
12663 13595 Star
12987 13598 Star
13311 13604 Star
13636 13612 Star
13960 13626 Star
14284 13626 Star
14608 13647 Star
14933 13657 Star
15257 13674 Star
15581 13690 Star
15906 13704 Star
16230 13733 Star
16554 13751 Star
16879 13780 Star
17203 13814 Star
17527 13855 Star
17852 13898 Star
18176 13919 Star
19527 13219 Star
% End plot #3
% Begin plot #4
1.000 UP
1.000 UL
LTb
0.90 0.62 0.00 C LCb setrgbcolor
19136 13019 M
[ [(Helvetica) 200.0 0.0 true true 0 (50)]
] -66.7 MRshow
1.000 UP
1.000 UL
LTb
0.90 0.62 0.00 C 19256 13019 M
543 0 V
1960 1280 M
324 0 V
325 63 V
324 139 V
324 1138 V
325 1567 V
324 1883 V
324 3173 V
325 2147 V
324 1666 V
324 604 V
325 236 V
324 -19 V
324 15 V
324 -11 V
325 -15 V
324 -17 V
324 -18 V
325 -23 V
324 -23 V
324 -23 V
325 -24 V
324 -21 V
324 -19 V
325 -19 V
324 -14 V
324 -16 V
325 -14 V
324 -9 V
324 -9 V
325 -10 V
324 -5 V
324 -3 V
325 -1 V
324 1 V
324 8 V
325 2 V
324 10 V
324 9 V
324 13 V
325 16 V
324 14 V
324 19 V
325 17 V
324 20 V
324 24 V
325 28 V
324 35 V
324 42 V
325 40 V
324 23 V
1960 1280 Box
2284 1280 Box
2609 1343 Box
2933 1482 Box
3257 2620 Box
3582 4187 Box
3906 6070 Box
4230 9243 Box
4555 11390 Box
4879 13056 Box
5203 13660 Box
5528 13896 Box
5852 13877 Box
6176 13892 Box
6500 13881 Box
6825 13866 Box
7149 13849 Box
7473 13831 Box
7798 13808 Box
8122 13785 Box
8446 13762 Box
8771 13738 Box
9095 13717 Box
9419 13698 Box
9744 13679 Box
10068 13665 Box
10392 13649 Box
10717 13635 Box
11041 13626 Box
11365 13617 Box
11690 13607 Box
12014 13602 Box
12338 13599 Box
12663 13598 Box
12987 13599 Box
13311 13607 Box
13636 13609 Box
13960 13619 Box
14284 13628 Box
14608 13641 Box
14933 13657 Box
15257 13671 Box
15581 13690 Box
15906 13707 Box
16230 13727 Box
16554 13751 Box
16879 13779 Box
17203 13814 Box
17527 13856 Box
17852 13896 Box
18176 13919 Box
19527 13019 Box
% End plot #4
% Begin plot #5
1.000 UP
1.000 UL
LTb
0.94 0.89 0.26 C LCb setrgbcolor
19136 12819 M
[ [(Helvetica) 200.0 0.0 true true 0 (100)]
] -66.7 MRshow
1.000 UP
1.000 UL
LTb
0.94 0.89 0.26 C 19256 12819 M
543 0 V
1960 1280 M
324 25 V
325 354 V
324 1441 V
324 2414 V
325 4120 V
324 2718 V
324 1338 V
325 215 V
324 11 V
324 -3 V
325 -4 V
324 -6 V
324 -9 V
324 -13 V
325 -14 V
324 -18 V
324 -20 V
325 -21 V
324 -23 V
324 -24 V
325 -21 V
324 -22 V
324 -20 V
325 -19 V
324 -18 V
324 -14 V
325 -12 V
324 -10 V
324 -11 V
325 -6 V
324 -6 V
324 -4 V
325 1 V
324 1 V
324 4 V
325 4 V
324 10 V
324 13 V
324 12 V
325 16 V
324 15 V
324 16 V
325 18 V
324 20 V
324 23 V
325 29 V
324 34 V
324 42 V
325 42 V
324 21 V
1960 1280 BoxF
2284 1305 BoxF
2609 1659 BoxF
2933 3100 BoxF
3257 5514 BoxF
3582 9634 BoxF
3906 12352 BoxF
4230 13690 BoxF
4555 13905 BoxF
4879 13916 BoxF
5203 13913 BoxF
5528 13909 BoxF
5852 13903 BoxF
6176 13894 BoxF
6500 13881 BoxF
6825 13867 BoxF
7149 13849 BoxF
7473 13829 BoxF
7798 13808 BoxF
8122 13785 BoxF
8446 13761 BoxF
8771 13740 BoxF
9095 13718 BoxF
9419 13698 BoxF
9744 13679 BoxF
10068 13661 BoxF
10392 13647 BoxF
10717 13635 BoxF
11041 13625 BoxF
11365 13614 BoxF
11690 13608 BoxF
12014 13602 BoxF
12338 13598 BoxF
12663 13599 BoxF
12987 13600 BoxF
13311 13604 BoxF
13636 13608 BoxF
13960 13618 BoxF
14284 13631 BoxF
14608 13643 BoxF
14933 13659 BoxF
15257 13674 BoxF
15581 13690 BoxF
15906 13708 BoxF
16230 13728 BoxF
16554 13751 BoxF
16879 13780 BoxF
17203 13814 BoxF
17527 13856 BoxF
17852 13898 BoxF
18176 13919 BoxF
19527 12819 BoxF
% End plot #5
% Begin plot #6
1.000 UP
1.000 UL
LTb
0.00 0.45 0.70 C LCb setrgbcolor
19136 12619 M
[ [(Helvetica) 200.0 0.0 true true 0 (200)]
] -66.7 MRshow
1.000 UP
1.000 UL
LTb
0.00 0.45 0.70 C 19256 12619 M
543 0 V
1960 1280 M
324 126 V
325 1391 V
324 2907 V
324 5814 V
325 2022 V
324 379 V
324 0 V
325 -1 V
324 -3 V
324 -2 V
325 -4 V
324 -6 V
324 -9 V
324 -13 V
325 -14 V
324 -18 V
324 -18 V
325 -23 V
324 -23 V
324 -21 V
325 -24 V
324 -22 V
324 -20 V
325 -18 V
324 -18 V
324 -13 V
325 -14 V
324 -12 V
324 -9 V
325 -7 V
324 -4 V
324 -1 V
325 -4 V
324 1 V
324 4 V
325 9 V
324 7 V
324 12 V
324 12 V
325 16 V
324 16 V
324 15 V
325 19 V
324 20 V
324 23 V
325 27 V
324 35 V
324 42 V
325 42 V
324 21 V
1960 1280 Circle
2284 1406 Circle
2609 2797 Circle
2933 5704 Circle
3257 11518 Circle
3582 13540 Circle
3906 13919 Circle
4230 13919 Circle
4555 13918 Circle
4879 13915 Circle
5203 13913 Circle
5528 13909 Circle
5852 13903 Circle
6176 13894 Circle
6500 13881 Circle
6825 13867 Circle
7149 13849 Circle
7473 13831 Circle
7798 13808 Circle
8122 13785 Circle
8446 13764 Circle
8771 13740 Circle
9095 13718 Circle
9419 13698 Circle
9744 13680 Circle
10068 13662 Circle
10392 13649 Circle
10717 13635 Circle
11041 13623 Circle
11365 13614 Circle
11690 13607 Circle
12014 13603 Circle
12338 13602 Circle
12663 13598 Circle
12987 13599 Circle
13311 13603 Circle
13636 13612 Circle
13960 13619 Circle
14284 13631 Circle
14608 13643 Circle
14933 13659 Circle
15257 13675 Circle
15581 13690 Circle
15906 13709 Circle
16230 13729 Circle
16554 13752 Circle
16879 13779 Circle
17203 13814 Circle
17527 13856 Circle
17852 13898 Circle
18176 13919 Circle
19527 12619 Circle
% End plot #6
% Begin plot #7
1.000 UP
1.000 UL
LTb
0.90 0.12 0.06 C LCb setrgbcolor
19136 12419 M
[ [(Helvetica) 200.0 0.0 true true 0 (500)]
] -66.7 MRshow
1.000 UP
1.000 UL
LTb
0.90 0.12 0.06 C 19256 12419 M
543 0 V
1960 1280 M
324 0 V
325 1896 V
324 8215 V
324 2528 V
325 0 V
324 0 V
324 0 V
325 -1 V
324 -3 V
324 -2 V
325 -4 V
324 -6 V
324 -11 V
324 -11 V
325 -14 V
324 -18 V
324 -20 V
325 -21 V
324 -23 V
324 -23 V
325 -22 V
324 -23 V
324 -20 V
325 -18 V
324 -18 V
324 -12 V
325 -13 V
324 -13 V
324 -9 V
325 -7 V
324 -5 V
324 -3 V
325 -1 V
324 1 V
324 4 V
325 6 V
324 9 V
324 13 V
324 12 V
325 16 V
324 15 V
324 15 V
325 19 V
324 19 V
324 24 V
325 28 V
324 35 V
324 42 V
325 42 V
324 21 V
1960 1280 CircleF
2284 1280 CircleF
2609 3176 CircleF
2933 11391 CircleF
3257 13919 CircleF
3582 13919 CircleF
3906 13919 CircleF
4230 13919 CircleF
4555 13918 CircleF
4879 13915 CircleF
5203 13913 CircleF
5528 13909 CircleF
5852 13903 CircleF
6176 13892 CircleF
6500 13881 CircleF
6825 13867 CircleF
7149 13849 CircleF
7473 13829 CircleF
7798 13808 CircleF
8122 13785 CircleF
8446 13762 CircleF
8771 13740 CircleF
9095 13717 CircleF
9419 13697 CircleF
9744 13679 CircleF
10068 13661 CircleF
10392 13649 CircleF
10717 13636 CircleF
11041 13623 CircleF
11365 13614 CircleF
11690 13607 CircleF
12014 13602 CircleF
12338 13599 CircleF
12663 13598 CircleF
12987 13599 CircleF
13311 13603 CircleF
13636 13609 CircleF
13960 13618 CircleF
14284 13631 CircleF
14608 13643 CircleF
14933 13659 CircleF
15257 13674 CircleF
15581 13689 CircleF
15906 13708 CircleF
16230 13727 CircleF
16554 13751 CircleF
16879 13779 CircleF
17203 13814 CircleF
17527 13856 CircleF
17852 13898 CircleF
18176 13919 CircleF
19527 12419 CircleF
% End plot #7
% Begin plot #8
1.000 UP
1.000 UL
LTb
0.00 0.00 0.00 C LCb setrgbcolor
19136 12219 M
[ [(Helvetica) 200.0 0.0 true true 0 (1000)]
] -66.7 MRshow
1.000 UP
1.000 UL
LTb
0.00 0.00 0.00 C 19256 12219 M
543 0 V
1960 1280 M
324 0 V
325 0 V
324 9606 V
324 3033 V
325 0 V
324 0 V
324 0 V
325 -1 V
324 -3 V
324 -2 V
325 -4 V
324 -6 V
324 -9 V
324 -13 V
325 -15 V
324 -17 V
324 -20 V
325 -21 V
324 -23 V
324 -23 V
325 -22 V
324 -23 V
324 -19 V
325 -20 V
324 -16 V
324 -15 V
325 -12 V
324 -12 V
324 -9 V
325 -6 V
324 -5 V
324 -4 V
325 -1 V
324 1 V
324 5 V
325 5 V
324 10 V
324 12 V
324 12 V
325 14 V
324 17 V
324 16 V
325 18 V
324 20 V
324 23 V
325 28 V
324 35 V
324 42 V
325 42 V
324 21 V
1960 1280 TriU
2284 1280 TriU
2609 1280 TriU
2933 10886 TriU
3257 13919 TriU
3582 13919 TriU
3906 13919 TriU
4230 13919 TriU
4555 13918 TriU
4879 13915 TriU
5203 13913 TriU
5528 13909 TriU
5852 13903 TriU
6176 13894 TriU
6500 13881 TriU
6825 13866 TriU
7149 13849 TriU
7473 13829 TriU
7798 13808 TriU
8122 13785 TriU
8446 13762 TriU
8771 13740 TriU
9095 13717 TriU
9419 13698 TriU
9744 13678 TriU
10068 13662 TriU
10392 13647 TriU
10717 13635 TriU
11041 13623 TriU
11365 13614 TriU
11690 13608 TriU
12014 13603 TriU
12338 13599 TriU
12663 13598 TriU
12987 13599 TriU
13311 13604 TriU
13636 13609 TriU
13960 13619 TriU
14284 13631 TriU
14608 13643 TriU
14933 13657 TriU
15257 13674 TriU
15581 13690 TriU
15906 13708 TriU
16230 13728 TriU
16554 13751 TriU
16879 13779 TriU
17203 13814 TriU
17527 13856 TriU
17852 13898 TriU
18176 13919 TriU
19527 12219 TriU
% End plot #8
2.000 UL
LTb
LCb setrgbcolor
1.000 UL
LTB
LCb setrgbcolor
1960 13919 N
0 -12639 V
16216 0 V
0 12639 V
-16216 0 V
Z stroke
1.000 UP
1.000 UL
LTb
LCb setrgbcolor
stroke
grestore
end
showpage
%%Trailer
%%DocumentFonts: Helvetica
