%!PS-Adobe-2.0 EPSF-2.0
%%Title: VonNeumann_K8_zoom.eps
%%Creator: gnuplot 5.0 patchlevel 3
%%CreationDate: Sun May 07 21:11:34 2017
%%DocumentFonts: (atend)
%%BoundingBox: 50 50 1058 806
%%EndComments
%%BeginProlog
/gnudict 256 dict def
gnudict begin
%
% The following true/false flags may be edited by hand if desired.
% The unit line width and grayscale image gamma correction may also be changed.
%
/Color true def
/Blacktext false def
/Solid false def
/Dashlength 1 def
/Landscape false def
/Level1 false def
/Level3 false def
/Rounded false def
/ClipToBoundingBox false def
/SuppressPDFMark false def
/TransparentPatterns false def
/gnulinewidth 5.000 def
/userlinewidth gnulinewidth def
/Gamma 1.0 def
/BackgroundColor {-1.000 -1.000 -1.000} def
%
/vshift -133 def
/dl1 {
  10.0 Dashlength userlinewidth gnulinewidth div mul mul mul
  Rounded { currentlinewidth 0.75 mul sub dup 0 le { pop 0.01 } if } if
} def
/dl2 {
  10.0 Dashlength userlinewidth gnulinewidth div mul mul mul
  Rounded { currentlinewidth 0.75 mul add } if
} def
/hpt_ 31.5 def
/vpt_ 31.5 def
/hpt hpt_ def
/vpt vpt_ def
/doclip {
  ClipToBoundingBox {
    newpath 50 50 moveto 1058 50 lineto 1058 806 lineto 50 806 lineto closepath
    clip
  } if
} def
%
% Gnuplot Prolog Version 5.1 (Oct 2015)
%
%/SuppressPDFMark true def
%
/M {moveto} bind def
/L {lineto} bind def
/R {rmoveto} bind def
/V {rlineto} bind def
/N {newpath moveto} bind def
/Z {closepath} bind def
/C {setrgbcolor} bind def
/f {rlineto fill} bind def
/g {setgray} bind def
/Gshow {show} def   % May be redefined later in the file to support UTF-8
/vpt2 vpt 2 mul def
/hpt2 hpt 2 mul def
/Lshow {currentpoint stroke M 0 vshift R 
	Blacktext {gsave 0 setgray textshow grestore} {textshow} ifelse} def
/Rshow {currentpoint stroke M dup stringwidth pop neg vshift R
	Blacktext {gsave 0 setgray textshow grestore} {textshow} ifelse} def
/Cshow {currentpoint stroke M dup stringwidth pop -2 div vshift R 
	Blacktext {gsave 0 setgray textshow grestore} {textshow} ifelse} def
/UP {dup vpt_ mul /vpt exch def hpt_ mul /hpt exch def
  /hpt2 hpt 2 mul def /vpt2 vpt 2 mul def} def
/DL {Color {setrgbcolor Solid {pop []} if 0 setdash}
 {pop pop pop 0 setgray Solid {pop []} if 0 setdash} ifelse} def
/BL {stroke userlinewidth 2 mul setlinewidth
	Rounded {1 setlinejoin 1 setlinecap} if} def
/AL {stroke userlinewidth 2 div setlinewidth
	Rounded {1 setlinejoin 1 setlinecap} if} def
/UL {dup gnulinewidth mul /userlinewidth exch def
	dup 1 lt {pop 1} if 10 mul /udl exch def} def
/PL {stroke userlinewidth setlinewidth
	Rounded {1 setlinejoin 1 setlinecap} if} def
3.8 setmiterlimit
% Classic Line colors (version 5.0)
/LCw {1 1 1} def
/LCb {0 0 0} def
/LCa {0 0 0} def
/LC0 {1 0 0} def
/LC1 {0 1 0} def
/LC2 {0 0 1} def
/LC3 {1 0 1} def
/LC4 {0 1 1} def
/LC5 {1 1 0} def
/LC6 {0 0 0} def
/LC7 {1 0.3 0} def
/LC8 {0.5 0.5 0.5} def
% Default dash patterns (version 5.0)
/LTB {BL [] LCb DL} def
/LTw {PL [] 1 setgray} def
/LTb {PL [] LCb DL} def
/LTa {AL [1 udl mul 2 udl mul] 0 setdash LCa setrgbcolor} def
/LT0 {PL [] LC0 DL} def
/LT1 {PL [2 dl1 3 dl2] LC1 DL} def
/LT2 {PL [1 dl1 1.5 dl2] LC2 DL} def
/LT3 {PL [6 dl1 2 dl2 1 dl1 2 dl2] LC3 DL} def
/LT4 {PL [1 dl1 2 dl2 6 dl1 2 dl2 1 dl1 2 dl2] LC4 DL} def
/LT5 {PL [4 dl1 2 dl2] LC5 DL} def
/LT6 {PL [1.5 dl1 1.5 dl2 1.5 dl1 1.5 dl2 1.5 dl1 6 dl2] LC6 DL} def
/LT7 {PL [3 dl1 3 dl2 1 dl1 3 dl2] LC7 DL} def
/LT8 {PL [2 dl1 2 dl2 2 dl1 6 dl2] LC8 DL} def
/SL {[] 0 setdash} def
/Pnt {stroke [] 0 setdash gsave 1 setlinecap M 0 0 V stroke grestore} def
/Dia {stroke [] 0 setdash 2 copy vpt add M
  hpt neg vpt neg V hpt vpt neg V
  hpt vpt V hpt neg vpt V closepath stroke
  Pnt} def
/Pls {stroke [] 0 setdash vpt sub M 0 vpt2 V
  currentpoint stroke M
  hpt neg vpt neg R hpt2 0 V stroke
 } def
/Box {stroke [] 0 setdash 2 copy exch hpt sub exch vpt add M
  0 vpt2 neg V hpt2 0 V 0 vpt2 V
  hpt2 neg 0 V closepath stroke
  Pnt} def
/Crs {stroke [] 0 setdash exch hpt sub exch vpt add M
  hpt2 vpt2 neg V currentpoint stroke M
  hpt2 neg 0 R hpt2 vpt2 V stroke} def
/TriU {stroke [] 0 setdash 2 copy vpt 1.12 mul add M
  hpt neg vpt -1.62 mul V
  hpt 2 mul 0 V
  hpt neg vpt 1.62 mul V closepath stroke
  Pnt} def
/Star {2 copy Pls Crs} def
/BoxF {stroke [] 0 setdash exch hpt sub exch vpt add M
  0 vpt2 neg V hpt2 0 V 0 vpt2 V
  hpt2 neg 0 V closepath fill} def
/TriUF {stroke [] 0 setdash vpt 1.12 mul add M
  hpt neg vpt -1.62 mul V
  hpt 2 mul 0 V
  hpt neg vpt 1.62 mul V closepath fill} def
/TriD {stroke [] 0 setdash 2 copy vpt 1.12 mul sub M
  hpt neg vpt 1.62 mul V
  hpt 2 mul 0 V
  hpt neg vpt -1.62 mul V closepath stroke
  Pnt} def
/TriDF {stroke [] 0 setdash vpt 1.12 mul sub M
  hpt neg vpt 1.62 mul V
  hpt 2 mul 0 V
  hpt neg vpt -1.62 mul V closepath fill} def
/DiaF {stroke [] 0 setdash vpt add M
  hpt neg vpt neg V hpt vpt neg V
  hpt vpt V hpt neg vpt V closepath fill} def
/Pent {stroke [] 0 setdash 2 copy gsave
  translate 0 hpt M 4 {72 rotate 0 hpt L} repeat
  closepath stroke grestore Pnt} def
/PentF {stroke [] 0 setdash gsave
  translate 0 hpt M 4 {72 rotate 0 hpt L} repeat
  closepath fill grestore} def
/Circle {stroke [] 0 setdash 2 copy
  hpt 0 360 arc stroke Pnt} def
/CircleF {stroke [] 0 setdash hpt 0 360 arc fill} def
/C0 {BL [] 0 setdash 2 copy moveto vpt 90 450 arc} bind def
/C1 {BL [] 0 setdash 2 copy moveto
	2 copy vpt 0 90 arc closepath fill
	vpt 0 360 arc closepath} bind def
/C2 {BL [] 0 setdash 2 copy moveto
	2 copy vpt 90 180 arc closepath fill
	vpt 0 360 arc closepath} bind def
/C3 {BL [] 0 setdash 2 copy moveto
	2 copy vpt 0 180 arc closepath fill
	vpt 0 360 arc closepath} bind def
/C4 {BL [] 0 setdash 2 copy moveto
	2 copy vpt 180 270 arc closepath fill
	vpt 0 360 arc closepath} bind def
/C5 {BL [] 0 setdash 2 copy moveto
	2 copy vpt 0 90 arc
	2 copy moveto
	2 copy vpt 180 270 arc closepath fill
	vpt 0 360 arc} bind def
/C6 {BL [] 0 setdash 2 copy moveto
	2 copy vpt 90 270 arc closepath fill
	vpt 0 360 arc closepath} bind def
/C7 {BL [] 0 setdash 2 copy moveto
	2 copy vpt 0 270 arc closepath fill
	vpt 0 360 arc closepath} bind def
/C8 {BL [] 0 setdash 2 copy moveto
	2 copy vpt 270 360 arc closepath fill
	vpt 0 360 arc closepath} bind def
/C9 {BL [] 0 setdash 2 copy moveto
	2 copy vpt 270 450 arc closepath fill
	vpt 0 360 arc closepath} bind def
/C10 {BL [] 0 setdash 2 copy 2 copy moveto vpt 270 360 arc closepath fill
	2 copy moveto
	2 copy vpt 90 180 arc closepath fill
	vpt 0 360 arc closepath} bind def
/C11 {BL [] 0 setdash 2 copy moveto
	2 copy vpt 0 180 arc closepath fill
	2 copy moveto
	2 copy vpt 270 360 arc closepath fill
	vpt 0 360 arc closepath} bind def
/C12 {BL [] 0 setdash 2 copy moveto
	2 copy vpt 180 360 arc closepath fill
	vpt 0 360 arc closepath} bind def
/C13 {BL [] 0 setdash 2 copy moveto
	2 copy vpt 0 90 arc closepath fill
	2 copy moveto
	2 copy vpt 180 360 arc closepath fill
	vpt 0 360 arc closepath} bind def
/C14 {BL [] 0 setdash 2 copy moveto
	2 copy vpt 90 360 arc closepath fill
	vpt 0 360 arc} bind def
/C15 {BL [] 0 setdash 2 copy vpt 0 360 arc closepath fill
	vpt 0 360 arc closepath} bind def
/Rec {newpath 4 2 roll moveto 1 index 0 rlineto 0 exch rlineto
	neg 0 rlineto closepath} bind def
/Square {dup Rec} bind def
/Bsquare {vpt sub exch vpt sub exch vpt2 Square} bind def
/S0 {BL [] 0 setdash 2 copy moveto 0 vpt rlineto BL Bsquare} bind def
/S1 {BL [] 0 setdash 2 copy vpt Square fill Bsquare} bind def
/S2 {BL [] 0 setdash 2 copy exch vpt sub exch vpt Square fill Bsquare} bind def
/S3 {BL [] 0 setdash 2 copy exch vpt sub exch vpt2 vpt Rec fill Bsquare} bind def
/S4 {BL [] 0 setdash 2 copy exch vpt sub exch vpt sub vpt Square fill Bsquare} bind def
/S5 {BL [] 0 setdash 2 copy 2 copy vpt Square fill
	exch vpt sub exch vpt sub vpt Square fill Bsquare} bind def
/S6 {BL [] 0 setdash 2 copy exch vpt sub exch vpt sub vpt vpt2 Rec fill Bsquare} bind def
/S7 {BL [] 0 setdash 2 copy exch vpt sub exch vpt sub vpt vpt2 Rec fill
	2 copy vpt Square fill Bsquare} bind def
/S8 {BL [] 0 setdash 2 copy vpt sub vpt Square fill Bsquare} bind def
/S9 {BL [] 0 setdash 2 copy vpt sub vpt vpt2 Rec fill Bsquare} bind def
/S10 {BL [] 0 setdash 2 copy vpt sub vpt Square fill 2 copy exch vpt sub exch vpt Square fill
	Bsquare} bind def
/S11 {BL [] 0 setdash 2 copy vpt sub vpt Square fill 2 copy exch vpt sub exch vpt2 vpt Rec fill
	Bsquare} bind def
/S12 {BL [] 0 setdash 2 copy exch vpt sub exch vpt sub vpt2 vpt Rec fill Bsquare} bind def
/S13 {BL [] 0 setdash 2 copy exch vpt sub exch vpt sub vpt2 vpt Rec fill
	2 copy vpt Square fill Bsquare} bind def
/S14 {BL [] 0 setdash 2 copy exch vpt sub exch vpt sub vpt2 vpt Rec fill
	2 copy exch vpt sub exch vpt Square fill Bsquare} bind def
/S15 {BL [] 0 setdash 2 copy Bsquare fill Bsquare} bind def
/D0 {gsave translate 45 rotate 0 0 S0 stroke grestore} bind def
/D1 {gsave translate 45 rotate 0 0 S1 stroke grestore} bind def
/D2 {gsave translate 45 rotate 0 0 S2 stroke grestore} bind def
/D3 {gsave translate 45 rotate 0 0 S3 stroke grestore} bind def
/D4 {gsave translate 45 rotate 0 0 S4 stroke grestore} bind def
/D5 {gsave translate 45 rotate 0 0 S5 stroke grestore} bind def
/D6 {gsave translate 45 rotate 0 0 S6 stroke grestore} bind def
/D7 {gsave translate 45 rotate 0 0 S7 stroke grestore} bind def
/D8 {gsave translate 45 rotate 0 0 S8 stroke grestore} bind def
/D9 {gsave translate 45 rotate 0 0 S9 stroke grestore} bind def
/D10 {gsave translate 45 rotate 0 0 S10 stroke grestore} bind def
/D11 {gsave translate 45 rotate 0 0 S11 stroke grestore} bind def
/D12 {gsave translate 45 rotate 0 0 S12 stroke grestore} bind def
/D13 {gsave translate 45 rotate 0 0 S13 stroke grestore} bind def
/D14 {gsave translate 45 rotate 0 0 S14 stroke grestore} bind def
/D15 {gsave translate 45 rotate 0 0 S15 stroke grestore} bind def
/DiaE {stroke [] 0 setdash vpt add M
  hpt neg vpt neg V hpt vpt neg V
  hpt vpt V hpt neg vpt V closepath stroke} def
/BoxE {stroke [] 0 setdash exch hpt sub exch vpt add M
  0 vpt2 neg V hpt2 0 V 0 vpt2 V
  hpt2 neg 0 V closepath stroke} def
/TriUE {stroke [] 0 setdash vpt 1.12 mul add M
  hpt neg vpt -1.62 mul V
  hpt 2 mul 0 V
  hpt neg vpt 1.62 mul V closepath stroke} def
/TriDE {stroke [] 0 setdash vpt 1.12 mul sub M
  hpt neg vpt 1.62 mul V
  hpt 2 mul 0 V
  hpt neg vpt -1.62 mul V closepath stroke} def
/PentE {stroke [] 0 setdash gsave
  translate 0 hpt M 4 {72 rotate 0 hpt L} repeat
  closepath stroke grestore} def
/CircE {stroke [] 0 setdash 
  hpt 0 360 arc stroke} def
/Opaque {gsave closepath 1 setgray fill grestore 0 setgray closepath} def
/DiaW {stroke [] 0 setdash vpt add M
  hpt neg vpt neg V hpt vpt neg V
  hpt vpt V hpt neg vpt V Opaque stroke} def
/BoxW {stroke [] 0 setdash exch hpt sub exch vpt add M
  0 vpt2 neg V hpt2 0 V 0 vpt2 V
  hpt2 neg 0 V Opaque stroke} def
/TriUW {stroke [] 0 setdash vpt 1.12 mul add M
  hpt neg vpt -1.62 mul V
  hpt 2 mul 0 V
  hpt neg vpt 1.62 mul V Opaque stroke} def
/TriDW {stroke [] 0 setdash vpt 1.12 mul sub M
  hpt neg vpt 1.62 mul V
  hpt 2 mul 0 V
  hpt neg vpt -1.62 mul V Opaque stroke} def
/PentW {stroke [] 0 setdash gsave
  translate 0 hpt M 4 {72 rotate 0 hpt L} repeat
  Opaque stroke grestore} def
/CircW {stroke [] 0 setdash 
  hpt 0 360 arc Opaque stroke} def
/BoxFill {gsave Rec 1 setgray fill grestore} def
/Density {
  /Fillden exch def
  currentrgbcolor
  /ColB exch def /ColG exch def /ColR exch def
  /ColR ColR Fillden mul Fillden sub 1 add def
  /ColG ColG Fillden mul Fillden sub 1 add def
  /ColB ColB Fillden mul Fillden sub 1 add def
  ColR ColG ColB setrgbcolor} def
/BoxColFill {gsave Rec PolyFill} def
/PolyFill {gsave Density fill grestore grestore} def
/h {rlineto rlineto rlineto gsave closepath fill grestore} bind def
%
% PostScript Level 1 Pattern Fill routine for rectangles
% Usage: x y w h s a XX PatternFill
%	x,y = lower left corner of box to be filled
%	w,h = width and height of box
%	  a = angle in degrees between lines and x-axis
%	 XX = 0/1 for no/yes cross-hatch
%
/PatternFill {gsave /PFa [ 9 2 roll ] def
  PFa 0 get PFa 2 get 2 div add PFa 1 get PFa 3 get 2 div add translate
  PFa 2 get -2 div PFa 3 get -2 div PFa 2 get PFa 3 get Rec
  TransparentPatterns {} {gsave 1 setgray fill grestore} ifelse
  clip
  currentlinewidth 0.5 mul setlinewidth
  /PFs PFa 2 get dup mul PFa 3 get dup mul add sqrt def
  0 0 M PFa 5 get rotate PFs -2 div dup translate
  0 1 PFs PFa 4 get div 1 add floor cvi
	{PFa 4 get mul 0 M 0 PFs V} for
  0 PFa 6 get ne {
	0 1 PFs PFa 4 get div 1 add floor cvi
	{PFa 4 get mul 0 2 1 roll M PFs 0 V} for
 } if
  stroke grestore} def
%
/languagelevel where
 {pop languagelevel} {1} ifelse
dup 2 lt
	{/InterpretLevel1 true def
	 /InterpretLevel3 false def}
	{/InterpretLevel1 Level1 def
	 2 gt
	    {/InterpretLevel3 Level3 def}
	    {/InterpretLevel3 false def}
	 ifelse }
 ifelse
%
% PostScript level 2 pattern fill definitions
%
/Level2PatternFill {
/Tile8x8 {/PaintType 2 /PatternType 1 /TilingType 1 /BBox [0 0 8 8] /XStep 8 /YStep 8}
	bind def
/KeepColor {currentrgbcolor [/Pattern /DeviceRGB] setcolorspace} bind def
<< Tile8x8
 /PaintProc {0.5 setlinewidth pop 0 0 M 8 8 L 0 8 M 8 0 L stroke} 
>> matrix makepattern
/Pat1 exch def
<< Tile8x8
 /PaintProc {0.5 setlinewidth pop 0 0 M 8 8 L 0 8 M 8 0 L stroke
	0 4 M 4 8 L 8 4 L 4 0 L 0 4 L stroke}
>> matrix makepattern
/Pat2 exch def
<< Tile8x8
 /PaintProc {0.5 setlinewidth pop 0 0 M 0 8 L
	8 8 L 8 0 L 0 0 L fill}
>> matrix makepattern
/Pat3 exch def
<< Tile8x8
 /PaintProc {0.5 setlinewidth pop -4 8 M 8 -4 L
	0 12 M 12 0 L stroke}
>> matrix makepattern
/Pat4 exch def
<< Tile8x8
 /PaintProc {0.5 setlinewidth pop -4 0 M 8 12 L
	0 -4 M 12 8 L stroke}
>> matrix makepattern
/Pat5 exch def
<< Tile8x8
 /PaintProc {0.5 setlinewidth pop -2 8 M 4 -4 L
	0 12 M 8 -4 L 4 12 M 10 0 L stroke}
>> matrix makepattern
/Pat6 exch def
<< Tile8x8
 /PaintProc {0.5 setlinewidth pop -2 0 M 4 12 L
	0 -4 M 8 12 L 4 -4 M 10 8 L stroke}
>> matrix makepattern
/Pat7 exch def
<< Tile8x8
 /PaintProc {0.5 setlinewidth pop 8 -2 M -4 4 L
	12 0 M -4 8 L 12 4 M 0 10 L stroke}
>> matrix makepattern
/Pat8 exch def
<< Tile8x8
 /PaintProc {0.5 setlinewidth pop 0 -2 M 12 4 L
	-4 0 M 12 8 L -4 4 M 8 10 L stroke}
>> matrix makepattern
/Pat9 exch def
/Pattern1 {PatternBgnd KeepColor Pat1 setpattern} bind def
/Pattern2 {PatternBgnd KeepColor Pat2 setpattern} bind def
/Pattern3 {PatternBgnd KeepColor Pat3 setpattern} bind def
/Pattern4 {PatternBgnd KeepColor Landscape {Pat5} {Pat4} ifelse setpattern} bind def
/Pattern5 {PatternBgnd KeepColor Landscape {Pat4} {Pat5} ifelse setpattern} bind def
/Pattern6 {PatternBgnd KeepColor Landscape {Pat9} {Pat6} ifelse setpattern} bind def
/Pattern7 {PatternBgnd KeepColor Landscape {Pat8} {Pat7} ifelse setpattern} bind def
} def
%
%
%End of PostScript Level 2 code
%
/PatternBgnd {
  TransparentPatterns {} {gsave 1 setgray fill grestore} ifelse
} def
%
% Substitute for Level 2 pattern fill codes with
% grayscale if Level 2 support is not selected.
%
/Level1PatternFill {
/Pattern1 {0.250 Density} bind def
/Pattern2 {0.500 Density} bind def
/Pattern3 {0.750 Density} bind def
/Pattern4 {0.125 Density} bind def
/Pattern5 {0.375 Density} bind def
/Pattern6 {0.625 Density} bind def
/Pattern7 {0.875 Density} bind def
} def
%
% Now test for support of Level 2 code
%
Level1 {Level1PatternFill} {Level2PatternFill} ifelse
%
/Symbol-Oblique /Symbol findfont [1 0 .167 1 0 0] makefont
dup length dict begin {1 index /FID eq {pop pop} {def} ifelse} forall
currentdict end definefont pop
%
/MFshow {
   { dup 5 get 3 ge
     { 5 get 3 eq {gsave} {grestore} ifelse }
     {dup dup 0 get findfont exch 1 get scalefont setfont
     [ currentpoint ] exch dup 2 get 0 exch R dup 5 get 2 ne {dup dup 6
     get exch 4 get {textshow} {stringwidth pop 0 R} ifelse }if dup 5 get 0 eq
     {dup 3 get {2 get neg 0 exch R pop} {pop aload pop M} ifelse} {dup 5
     get 1 eq {dup 2 get exch dup 3 get exch 6 get stringwidth pop -2 div
     dup 0 R} {dup 6 get stringwidth pop -2 div 0 R 6 get
     textshow 2 index {aload pop M neg 3 -1 roll neg R pop pop} {pop pop pop
     pop aload pop M} ifelse }ifelse }ifelse }
     ifelse }
   forall} def
/Gswidth {dup type /stringtype eq {stringwidth} {pop (n) stringwidth} ifelse} def
/MFwidth {0 exch { dup 5 get 3 ge { 5 get 3 eq { 0 } { pop } ifelse }
 {dup 3 get{dup dup 0 get findfont exch 1 get scalefont setfont
     6 get Gswidth pop add} {pop} ifelse} ifelse} forall} def
/MLshow { currentpoint stroke M
  0 exch R
  Blacktext {gsave 0 setgray MFshow grestore} {MFshow} ifelse } bind def
/MRshow { currentpoint stroke M
  exch dup MFwidth neg 3 -1 roll R
  Blacktext {gsave 0 setgray MFshow grestore} {MFshow} ifelse } bind def
/MCshow { currentpoint stroke M
  exch dup MFwidth -2 div 3 -1 roll R
  Blacktext {gsave 0 setgray MFshow grestore} {MFshow} ifelse } bind def
/XYsave    { [( ) 1 2 true false 3 ()] } bind def
/XYrestore { [( ) 1 2 true false 4 ()] } bind def
Level1 SuppressPDFMark or 
{} {
/SDict 10 dict def
systemdict /pdfmark known not {
  userdict /pdfmark systemdict /cleartomark get put
} if
SDict begin [
  /Title (VonNeumann_K8_zoom.eps)
  /Subject (gnuplot plot)
  /Creator (gnuplot 5.0 patchlevel 3)
  /Author (kamil)
%  /Producer (gnuplot)
%  /Keywords ()
  /CreationDate (Sun May 07 21:11:34 2017)
  /DOCINFO pdfmark
end
} ifelse
%
% Support for boxed text - Ethan A Merritt May 2005
%
/InitTextBox { userdict /TBy2 3 -1 roll put userdict /TBx2 3 -1 roll put
           userdict /TBy1 3 -1 roll put userdict /TBx1 3 -1 roll put
	   /Boxing true def } def
/ExtendTextBox { Boxing
    { gsave dup false charpath pathbbox
      dup TBy2 gt {userdict /TBy2 3 -1 roll put} {pop} ifelse
      dup TBx2 gt {userdict /TBx2 3 -1 roll put} {pop} ifelse
      dup TBy1 lt {userdict /TBy1 3 -1 roll put} {pop} ifelse
      dup TBx1 lt {userdict /TBx1 3 -1 roll put} {pop} ifelse
      grestore } if } def
/PopTextBox { newpath TBx1 TBxmargin sub TBy1 TBymargin sub M
               TBx1 TBxmargin sub TBy2 TBymargin add L
	       TBx2 TBxmargin add TBy2 TBymargin add L
	       TBx2 TBxmargin add TBy1 TBymargin sub L closepath } def
/DrawTextBox { PopTextBox stroke /Boxing false def} def
/FillTextBox { gsave PopTextBox 1 1 1 setrgbcolor fill grestore /Boxing false def} def
0 0 0 0 InitTextBox
/TBxmargin 20 def
/TBymargin 20 def
/Boxing false def
/textshow { ExtendTextBox Gshow } def
%
% redundant definitions for compatibility with prologue.ps older than 5.0.2
/LTB {BL [] LCb DL} def
/LTb {PL [] LCb DL} def
end
%%EndProlog
%%Page: 1 1
gnudict begin
gsave
doclip
50 50 translate
0.050 0.050 scale
0 setgray
newpath
(Helvetica) findfont 400 scalefont setfont
BackgroundColor 0 lt 3 1 roll 0 lt exch 0 lt or or not {BackgroundColor C 1.000 0 0 20160.00 15120.00 BoxColFill} if
1.000 UL
LTb
LCb setrgbcolor
1960 1280 M
63 0 V
16153 0 R
-63 0 V
stroke
1720 1280 M
[ [(Helvetica) 400.0 0.0 true true 0 ( 90)]
] -133.3 MRshow
1.000 UL
LTb
LCb setrgbcolor
1960 3808 M
63 0 V
16153 0 R
-63 0 V
stroke
1720 3808 M
[ [(Helvetica) 400.0 0.0 true true 0 ( 92)]
] -133.3 MRshow
1.000 UL
LTb
LCb setrgbcolor
1960 6336 M
63 0 V
16153 0 R
-63 0 V
stroke
1720 6336 M
[ [(Helvetica) 400.0 0.0 true true 0 ( 94)]
] -133.3 MRshow
1.000 UL
LTb
LCb setrgbcolor
1960 8863 M
63 0 V
16153 0 R
-63 0 V
stroke
1720 8863 M
[ [(Helvetica) 400.0 0.0 true true 0 ( 96)]
] -133.3 MRshow
1.000 UL
LTb
LCb setrgbcolor
1960 11391 M
63 0 V
16153 0 R
-63 0 V
stroke
1720 11391 M
[ [(Helvetica) 400.0 0.0 true true 0 ( 98)]
] -133.3 MRshow
1.000 UL
LTb
LCb setrgbcolor
1960 13919 M
63 0 V
16153 0 R
-63 0 V
stroke
1720 13919 M
[ [(Helvetica) 400.0 0.0 true true 0 ( 100)]
] -133.3 MRshow
1.000 UL
LTb
LCb setrgbcolor
1960 1280 M
0 63 V
0 12576 R
0 -63 V
stroke
1960 880 M
[ [(Helvetica) 400.0 0.0 true true 0 ( 0)]
] -133.3 MCshow
1.000 UL
LTb
LCb setrgbcolor
5203 1280 M
0 63 V
0 12576 R
0 -63 V
stroke
5203 880 M
[ [(Helvetica) 400.0 0.0 true true 0 ( 0.2)]
] -133.3 MCshow
1.000 UL
LTb
LCb setrgbcolor
8446 1280 M
0 63 V
0 12576 R
0 -63 V
stroke
8446 880 M
[ [(Helvetica) 400.0 0.0 true true 0 ( 0.4)]
] -133.3 MCshow
1.000 UL
LTb
LCb setrgbcolor
11690 1280 M
0 63 V
0 12576 R
0 -63 V
stroke
11690 880 M
[ [(Helvetica) 400.0 0.0 true true 0 ( 0.6)]
] -133.3 MCshow
1.000 UL
LTb
LCb setrgbcolor
14933 1280 M
0 63 V
0 12576 R
0 -63 V
stroke
14933 880 M
[ [(Helvetica) 400.0 0.0 true true 0 ( 0.8)]
] -133.3 MCshow
1.000 UL
LTb
LCb setrgbcolor
18176 1280 M
0 63 V
0 12576 R
0 -63 V
stroke
18176 880 M
[ [(Helvetica) 400.0 0.0 true true 0 ( 1)]
] -133.3 MCshow
1.000 UL
LTb
LCb setrgbcolor
1.000 UL
LTB
LCb setrgbcolor
1960 13919 N
0 -12639 V
16216 0 V
0 12639 V
-16216 0 V
Z stroke
1.000 UP
1.000 UL
LTb
LCb setrgbcolor
LCb setrgbcolor
320 7599 M
currentpoint gsave translate -270 rotate 0 0 moveto
[ [(Helvetica) 400.0 0.0 true true 0 (n\(K\))]
] -133.3 MCshow
grestore
LTb
LCb setrgbcolor
10068 280 M
[ [(Helvetica) 400.0 0.0 true true 0 (p)]
] -133.3 MCshow
LTb
LCb setrgbcolor
10068 14519 M
[ [(Helvetica) 400.0 0.0 true true 0 (K = 8)]
] -133.3 MCshow
LCb setrgbcolor
19287 13819 M
[ [(Helvetica) 200.0 0.0 true true 0 (L)]
] -66.7 MCshow
LTb
% Begin plot #1
1.000 UP
1.000 UL
LTb
0.58 0.00 0.83 C LCb setrgbcolor
19136 13619 M
[ [(Helvetica) 200.0 0.0 true true 0 (5)]
] -66.7 MRshow
1.000 UP
1.000 UL
LTb
0.58 0.00 0.83 C 19256 13619 M
543 0 V
14371 1280 M
237 2199 V
325 2124 V
324 1263 V
324 1264 V
325 695 V
324 342 V
324 998 V
325 544 V
324 745 V
324 797 V
325 985 V
324 683 V
14608 3479 Pls
14933 5603 Pls
15257 6866 Pls
15581 8130 Pls
15906 8825 Pls
16230 9167 Pls
16554 10165 Pls
16879 10709 Pls
17203 11454 Pls
17527 12251 Pls
17852 13236 Pls
18176 13919 Pls
19527 13619 Pls
% End plot #1
% Begin plot #2
1.000 UP
1.000 UL
LTb
0.00 0.62 0.45 C LCb setrgbcolor
19136 13419 M
[ [(Helvetica) 200.0 0.0 true true 0 (10)]
] -66.7 MRshow
1.000 UP
1.000 UL
LTb
0.00 0.62 0.45 C 19256 13419 M
543 0 V
12538 1280 M
125 1719 V
324 847 V
324 1011 V
325 771 V
324 695 V
324 240 V
324 177 V
325 771 V
324 228 V
324 682 V
325 455 V
324 607 V
324 543 V
325 923 V
324 467 V
324 759 V
325 973 V
324 771 V
12663 2999 Crs
12987 3846 Crs
13311 4857 Crs
13636 5628 Crs
13960 6323 Crs
14284 6563 Crs
14608 6740 Crs
14933 7511 Crs
15257 7739 Crs
15581 8421 Crs
15906 8876 Crs
16230 9483 Crs
16554 10026 Crs
16879 10949 Crs
17203 11416 Crs
17527 12175 Crs
17852 13148 Crs
18176 13919 Crs
19527 13419 Crs
% End plot #2
% Begin plot #3
1.000 UP
1.000 UL
LTb
0.34 0.71 0.91 C LCb setrgbcolor
19136 13219 M
[ [(Helvetica) 200.0 0.0 true true 0 (20)]
] -66.7 MRshow
1.000 UP
1.000 UL
LTb
0.34 0.71 0.91 C 19256 13219 M
543 0 V
10875 1280 M
166 1302 V
324 2060 V
325 404 V
324 64 V
324 38 V
325 101 V
324 278 V
324 139 V
325 278 V
324 278 V
324 417 V
324 341 V
325 379 V
324 430 V
324 581 V
325 493 V
324 696 V
324 518 V
325 682 V
324 708 V
324 796 V
325 936 V
324 720 V
11041 2582 Star
11365 4642 Star
11690 5046 Star
12014 5110 Star
12338 5148 Star
12663 5249 Star
12987 5527 Star
13311 5666 Star
13636 5944 Star
13960 6222 Star
14284 6639 Star
14608 6980 Star
14933 7359 Star
15257 7789 Star
15581 8370 Star
15906 8863 Star
16230 9559 Star
16554 10077 Star
16879 10759 Star
17203 11467 Star
17527 12263 Star
17852 13199 Star
18176 13919 Star
19527 13219 Star
% End plot #3
% Begin plot #4
1.000 UP
1.000 UL
LTb
0.90 0.62 0.00 C LCb setrgbcolor
19136 13019 M
[ [(Helvetica) 200.0 0.0 true true 0 (50)]
] -66.7 MRshow
1.000 UP
1.000 UL
LTb
0.90 0.62 0.00 C 19256 13019 M
543 0 V
9009 1280 M
86 1807 V
324 2313 V
325 101 V
324 -88 V
324 -114 V
325 -76 V
324 -139 V
324 0 V
325 38 V
324 0 V
324 76 V
325 139 V
324 152 V
324 215 V
325 240 V
324 303 V
324 329 V
324 404 V
325 405 V
324 467 V
324 481 V
325 581 V
324 594 V
324 632 V
325 682 V
324 658 V
324 745 V
325 974 V
324 720 V
9095 3087 Box
9419 5400 Box
9744 5501 Box
10068 5413 Box
10392 5299 Box
10717 5223 Box
11041 5084 Box
11365 5084 Box
11690 5122 Box
12014 5122 Box
12338 5198 Box
12663 5337 Box
12987 5489 Box
13311 5704 Box
13636 5944 Box
13960 6247 Box
14284 6576 Box
14608 6980 Box
14933 7385 Box
15257 7852 Box
15581 8333 Box
15906 8914 Box
16230 9508 Box
16554 10140 Box
16879 10822 Box
17203 11480 Box
17527 12225 Box
17852 13199 Box
18176 13919 Box
19527 13019 Box
% End plot #4
% Begin plot #5
1.000 UP
1.000 UL
LTb
0.94 0.89 0.26 C LCb setrgbcolor
19136 12819 M
[ [(Helvetica) 200.0 0.0 true true 0 (100)]
] -66.7 MRshow
1.000 UP
1.000 UL
LTb
0.94 0.89 0.26 C 19256 12819 M
543 0 V
7791 1280 M
7 265 V
324 3666 V
324 1377 V
325 -88 V
324 -316 V
324 -303 V
325 -215 V
324 -202 V
324 -177 V
325 -127 V
324 -50 V
324 -38 V
325 25 V
324 25 V
324 89 V
325 113 V
324 177 V
324 215 V
325 240 V
324 291 V
324 316 V
324 379 V
325 417 V
324 481 V
324 505 V
325 556 V
324 594 V
324 632 V
325 683 V
324 682 V
324 746 V
325 948 V
324 733 V
7798 1545 BoxF
8122 5211 BoxF
8446 6588 BoxF
8771 6500 BoxF
9095 6184 BoxF
9419 5881 BoxF
9744 5666 BoxF
10068 5464 BoxF
10392 5287 BoxF
10717 5160 BoxF
11041 5110 BoxF
11365 5072 BoxF
11690 5097 BoxF
12014 5122 BoxF
12338 5211 BoxF
12663 5324 BoxF
12987 5501 BoxF
13311 5716 BoxF
13636 5956 BoxF
13960 6247 BoxF
14284 6563 BoxF
14608 6942 BoxF
14933 7359 BoxF
15257 7840 BoxF
15581 8345 BoxF
15906 8901 BoxF
16230 9495 BoxF
16554 10127 BoxF
16879 10810 BoxF
17203 11492 BoxF
17527 12238 BoxF
17852 13186 BoxF
18176 13919 BoxF
19527 12819 BoxF
% End plot #5
% Begin plot #6
1.000 UP
1.000 UL
LTb
0.00 0.45 0.70 C LCb setrgbcolor
19136 12619 M
[ [(Helvetica) 200.0 0.0 true true 0 (200)]
] -66.7 MRshow
1.000 UP
1.000 UL
LTb
0.00 0.45 0.70 C 19256 12619 M
543 0 V
6817 1280 M
8 607 V
324 3134 V
324 3109 V
325 -480 V
324 -392 V
324 -366 V
325 -379 V
324 -342 V
324 -252 V
325 -291 V
324 -139 V
324 -240 V
325 -38 V
324 -89 V
324 -25 V
325 -38 V
324 89 V
324 50 V
325 139 V
324 164 V
324 203 V
325 265 V
324 278 V
324 316 V
324 392 V
325 417 V
324 468 V
324 518 V
325 543 V
324 620 V
324 632 V
325 644 V
324 695 V
324 746 V
325 961 V
324 720 V
6825 1887 Circle
7149 5021 Circle
7473 8130 Circle
7798 7650 Circle
8122 7258 Circle
8446 6892 Circle
8771 6513 Circle
9095 6171 Circle
9419 5919 Circle
9744 5628 Circle
10068 5489 Circle
10392 5249 Circle
10717 5211 Circle
11041 5122 Circle
11365 5097 Circle
11690 5059 Circle
12014 5148 Circle
12338 5198 Circle
12663 5337 Circle
12987 5501 Circle
13311 5704 Circle
13636 5969 Circle
13960 6247 Circle
14284 6563 Circle
14608 6955 Circle
14933 7372 Circle
15257 7840 Circle
15581 8358 Circle
15906 8901 Circle
16230 9521 Circle
16554 10153 Circle
16879 10797 Circle
17203 11492 Circle
17527 12238 Circle
17852 13199 Circle
18176 13919 Circle
19527 12619 Circle
% End plot #6
% Begin plot #7
1.000 UP
1.000 UL
LTb
0.90 0.12 0.06 C LCb setrgbcolor
19136 12419 M
[ [(Helvetica) 200.0 0.0 true true 0 (500)]
] -66.7 MRshow
1.000 UP
1.000 UL
LTb
0.90 0.12 0.06 C 19256 12419 M
543 0 V
6100 1280 M
76 5384 V
324 3084 V
325 -556 V
324 -531 V
324 -518 V
325 -468 V
324 -429 V
324 -405 V
325 -354 V
324 -328 V
324 -266 V
325 -227 V
324 -215 V
324 -152 V
325 -114 V
324 -63 V
324 -76 V
325 13 V
324 51 V
324 88 V
325 139 V
324 152 V
324 215 V
325 240 V
324 303 V
324 329 V
324 379 V
325 417 V
324 468 V
324 493 V
325 568 V
324 607 V
324 645 V
325 644 V
324 683 V
324 758 V
325 948 V
324 733 V
6176 6664 CircleF
6500 9748 CircleF
6825 9192 CircleF
7149 8661 CircleF
7473 8143 CircleF
7798 7675 CircleF
8122 7246 CircleF
8446 6841 CircleF
8771 6487 CircleF
9095 6159 CircleF
9419 5893 CircleF
9744 5666 CircleF
10068 5451 CircleF
10392 5299 CircleF
10717 5185 CircleF
11041 5122 CircleF
11365 5046 CircleF
11690 5059 CircleF
12014 5110 CircleF
12338 5198 CircleF
12663 5337 CircleF
12987 5489 CircleF
13311 5704 CircleF
13636 5944 CircleF
13960 6247 CircleF
14284 6576 CircleF
14608 6955 CircleF
14933 7372 CircleF
15257 7840 CircleF
15581 8333 CircleF
15906 8901 CircleF
16230 9508 CircleF
16554 10153 CircleF
16879 10797 CircleF
17203 11480 CircleF
17527 12238 CircleF
17852 13186 CircleF
18176 13919 CircleF
19527 12419 CircleF
% End plot #7
% Begin plot #8
1.000 UP
1.000 UL
LTb
0.00 0.00 0.00 C LCb setrgbcolor
19136 12219 M
[ [(Helvetica) 200.0 0.0 true true 0 (1000)]
] -66.7 MRshow
1.000 UP
1.000 UL
LTb
0.00 0.00 0.00 C 19256 12219 M
543 0 V
6152 1280 M
24 4171 V
324 4310 V
325 -569 V
324 -531 V
324 -518 V
325 -468 V
324 -442 V
324 -392 V
325 -354 V
324 -316 V
324 -278 V
325 -227 V
324 -202 V
324 -165 V
325 -126 V
324 -63 V
324 -26 V
325 -12 V
324 38 V
324 88 V
325 126 V
324 165 V
324 215 V
325 252 V
324 291 V
324 329 V
324 379 V
325 404 V
324 481 V
324 493 V
325 568 V
324 607 V
324 645 V
325 644 V
324 683 V
324 758 V
325 948 V
324 733 V
6176 5451 TriU
6500 9761 TriU
6825 9192 TriU
7149 8661 TriU
7473 8143 TriU
7798 7675 TriU
8122 7233 TriU
8446 6841 TriU
8771 6487 TriU
9095 6171 TriU
9419 5893 TriU
9744 5666 TriU
10068 5464 TriU
10392 5299 TriU
10717 5173 TriU
11041 5110 TriU
11365 5084 TriU
11690 5072 TriU
12014 5110 TriU
12338 5198 TriU
12663 5324 TriU
12987 5489 TriU
13311 5704 TriU
13636 5956 TriU
13960 6247 TriU
14284 6576 TriU
14608 6955 TriU
14933 7359 TriU
15257 7840 TriU
15581 8333 TriU
15906 8901 TriU
16230 9508 TriU
16554 10153 TriU
16879 10797 TriU
17203 11480 TriU
17527 12238 TriU
17852 13186 TriU
18176 13919 TriU
19527 12219 TriU
% End plot #8
2.000 UL
LTb
LCb setrgbcolor
1.000 UL
LTB
LCb setrgbcolor
1960 13919 N
0 -12639 V
16216 0 V
0 12639 V
-16216 0 V
Z stroke
1.000 UP
1.000 UL
LTb
LCb setrgbcolor
stroke
grestore
end
showpage
%%Trailer
%%DocumentFonts: Helvetica
