%!PS-Adobe-2.0 EPSF-2.0
%%Title: exp1_L20K8_n(K).eps
%%Creator: gnuplot 5.0 patchlevel 3
%%CreationDate: Sun Sep 10 23:24:01 2017
%%DocumentFonts: (atend)
%%BoundingBox: 50 50 1058 806
%%EndComments
%%BeginProlog
/gnudict 256 dict def
gnudict begin
%
% The following true/false flags may be edited by hand if desired.
% The unit line width and grayscale image gamma correction may also be changed.
%
/Color true def
/Blacktext false def
/Solid false def
/Dashlength 1 def
/Landscape false def
/Level1 false def
/Level3 false def
/Rounded false def
/ClipToBoundingBox false def
/SuppressPDFMark false def
/TransparentPatterns false def
/gnulinewidth 5.000 def
/userlinewidth gnulinewidth def
/Gamma 1.0 def
/BackgroundColor {-1.000 -1.000 -1.000} def
%
/vshift -316 def
/dl1 {
  10.0 Dashlength userlinewidth gnulinewidth div mul mul mul
  Rounded { currentlinewidth 0.75 mul sub dup 0 le { pop 0.01 } if } if
} def
/dl2 {
  10.0 Dashlength userlinewidth gnulinewidth div mul mul mul
  Rounded { currentlinewidth 0.75 mul add } if
} def
/hpt_ 31.5 def
/vpt_ 31.5 def
/hpt hpt_ def
/vpt vpt_ def
/doclip {
  ClipToBoundingBox {
    newpath 50 50 moveto 1058 50 lineto 1058 806 lineto 50 806 lineto closepath
    clip
  } if
} def
%
% Gnuplot Prolog Version 5.1 (Oct 2015)
%
%/SuppressPDFMark true def
%
/M {moveto} bind def
/L {lineto} bind def
/R {rmoveto} bind def
/V {rlineto} bind def
/N {newpath moveto} bind def
/Z {closepath} bind def
/C {setrgbcolor} bind def
/f {rlineto fill} bind def
/g {setgray} bind def
/Gshow {show} def   % May be redefined later in the file to support UTF-8
/vpt2 vpt 2 mul def
/hpt2 hpt 2 mul def
/Lshow {currentpoint stroke M 0 vshift R 
	Blacktext {gsave 0 setgray textshow grestore} {textshow} ifelse} def
/Rshow {currentpoint stroke M dup stringwidth pop neg vshift R
	Blacktext {gsave 0 setgray textshow grestore} {textshow} ifelse} def
/Cshow {currentpoint stroke M dup stringwidth pop -2 div vshift R 
	Blacktext {gsave 0 setgray textshow grestore} {textshow} ifelse} def
/UP {dup vpt_ mul /vpt exch def hpt_ mul /hpt exch def
  /hpt2 hpt 2 mul def /vpt2 vpt 2 mul def} def
/DL {Color {setrgbcolor Solid {pop []} if 0 setdash}
 {pop pop pop 0 setgray Solid {pop []} if 0 setdash} ifelse} def
/BL {stroke userlinewidth 2 mul setlinewidth
	Rounded {1 setlinejoin 1 setlinecap} if} def
/AL {stroke userlinewidth 2 div setlinewidth
	Rounded {1 setlinejoin 1 setlinecap} if} def
/UL {dup gnulinewidth mul /userlinewidth exch def
	dup 1 lt {pop 1} if 10 mul /udl exch def} def
/PL {stroke userlinewidth setlinewidth
	Rounded {1 setlinejoin 1 setlinecap} if} def
3.8 setmiterlimit
% Classic Line colors (version 5.0)
/LCw {1 1 1} def
/LCb {0 0 0} def
/LCa {0 0 0} def
/LC0 {1 0 0} def
/LC1 {0 1 0} def
/LC2 {0 0 1} def
/LC3 {1 0 1} def
/LC4 {0 1 1} def
/LC5 {1 1 0} def
/LC6 {0 0 0} def
/LC7 {1 0.3 0} def
/LC8 {0.5 0.5 0.5} def
% Default dash patterns (version 5.0)
/LTB {BL [] LCb DL} def
/LTw {PL [] 1 setgray} def
/LTb {PL [] LCb DL} def
/LTa {AL [1 udl mul 2 udl mul] 0 setdash LCa setrgbcolor} def
/LT0 {PL [] LC0 DL} def
/LT1 {PL [2 dl1 3 dl2] LC1 DL} def
/LT2 {PL [1 dl1 1.5 dl2] LC2 DL} def
/LT3 {PL [6 dl1 2 dl2 1 dl1 2 dl2] LC3 DL} def
/LT4 {PL [1 dl1 2 dl2 6 dl1 2 dl2 1 dl1 2 dl2] LC4 DL} def
/LT5 {PL [4 dl1 2 dl2] LC5 DL} def
/LT6 {PL [1.5 dl1 1.5 dl2 1.5 dl1 1.5 dl2 1.5 dl1 6 dl2] LC6 DL} def
/LT7 {PL [3 dl1 3 dl2 1 dl1 3 dl2] LC7 DL} def
/LT8 {PL [2 dl1 2 dl2 2 dl1 6 dl2] LC8 DL} def
/SL {[] 0 setdash} def
/Pnt {stroke [] 0 setdash gsave 1 setlinecap M 0 0 V stroke grestore} def
/Dia {stroke [] 0 setdash 2 copy vpt add M
  hpt neg vpt neg V hpt vpt neg V
  hpt vpt V hpt neg vpt V closepath stroke
  Pnt} def
/Pls {stroke [] 0 setdash vpt sub M 0 vpt2 V
  currentpoint stroke M
  hpt neg vpt neg R hpt2 0 V stroke
 } def
/Box {stroke [] 0 setdash 2 copy exch hpt sub exch vpt add M
  0 vpt2 neg V hpt2 0 V 0 vpt2 V
  hpt2 neg 0 V closepath stroke
  Pnt} def
/Crs {stroke [] 0 setdash exch hpt sub exch vpt add M
  hpt2 vpt2 neg V currentpoint stroke M
  hpt2 neg 0 R hpt2 vpt2 V stroke} def
/TriU {stroke [] 0 setdash 2 copy vpt 1.12 mul add M
  hpt neg vpt -1.62 mul V
  hpt 2 mul 0 V
  hpt neg vpt 1.62 mul V closepath stroke
  Pnt} def
/Star {2 copy Pls Crs} def
/BoxF {stroke [] 0 setdash exch hpt sub exch vpt add M
  0 vpt2 neg V hpt2 0 V 0 vpt2 V
  hpt2 neg 0 V closepath fill} def
/TriUF {stroke [] 0 setdash vpt 1.12 mul add M
  hpt neg vpt -1.62 mul V
  hpt 2 mul 0 V
  hpt neg vpt 1.62 mul V closepath fill} def
/TriD {stroke [] 0 setdash 2 copy vpt 1.12 mul sub M
  hpt neg vpt 1.62 mul V
  hpt 2 mul 0 V
  hpt neg vpt -1.62 mul V closepath stroke
  Pnt} def
/TriDF {stroke [] 0 setdash vpt 1.12 mul sub M
  hpt neg vpt 1.62 mul V
  hpt 2 mul 0 V
  hpt neg vpt -1.62 mul V closepath fill} def
/DiaF {stroke [] 0 setdash vpt add M
  hpt neg vpt neg V hpt vpt neg V
  hpt vpt V hpt neg vpt V closepath fill} def
/Pent {stroke [] 0 setdash 2 copy gsave
  translate 0 hpt M 4 {72 rotate 0 hpt L} repeat
  closepath stroke grestore Pnt} def
/PentF {stroke [] 0 setdash gsave
  translate 0 hpt M 4 {72 rotate 0 hpt L} repeat
  closepath fill grestore} def
/Circle {stroke [] 0 setdash 2 copy
  hpt 0 360 arc stroke Pnt} def
/CircleF {stroke [] 0 setdash hpt 0 360 arc fill} def
/C0 {BL [] 0 setdash 2 copy moveto vpt 90 450 arc} bind def
/C1 {BL [] 0 setdash 2 copy moveto
	2 copy vpt 0 90 arc closepath fill
	vpt 0 360 arc closepath} bind def
/C2 {BL [] 0 setdash 2 copy moveto
	2 copy vpt 90 180 arc closepath fill
	vpt 0 360 arc closepath} bind def
/C3 {BL [] 0 setdash 2 copy moveto
	2 copy vpt 0 180 arc closepath fill
	vpt 0 360 arc closepath} bind def
/C4 {BL [] 0 setdash 2 copy moveto
	2 copy vpt 180 270 arc closepath fill
	vpt 0 360 arc closepath} bind def
/C5 {BL [] 0 setdash 2 copy moveto
	2 copy vpt 0 90 arc
	2 copy moveto
	2 copy vpt 180 270 arc closepath fill
	vpt 0 360 arc} bind def
/C6 {BL [] 0 setdash 2 copy moveto
	2 copy vpt 90 270 arc closepath fill
	vpt 0 360 arc closepath} bind def
/C7 {BL [] 0 setdash 2 copy moveto
	2 copy vpt 0 270 arc closepath fill
	vpt 0 360 arc closepath} bind def
/C8 {BL [] 0 setdash 2 copy moveto
	2 copy vpt 270 360 arc closepath fill
	vpt 0 360 arc closepath} bind def
/C9 {BL [] 0 setdash 2 copy moveto
	2 copy vpt 270 450 arc closepath fill
	vpt 0 360 arc closepath} bind def
/C10 {BL [] 0 setdash 2 copy 2 copy moveto vpt 270 360 arc closepath fill
	2 copy moveto
	2 copy vpt 90 180 arc closepath fill
	vpt 0 360 arc closepath} bind def
/C11 {BL [] 0 setdash 2 copy moveto
	2 copy vpt 0 180 arc closepath fill
	2 copy moveto
	2 copy vpt 270 360 arc closepath fill
	vpt 0 360 arc closepath} bind def
/C12 {BL [] 0 setdash 2 copy moveto
	2 copy vpt 180 360 arc closepath fill
	vpt 0 360 arc closepath} bind def
/C13 {BL [] 0 setdash 2 copy moveto
	2 copy vpt 0 90 arc closepath fill
	2 copy moveto
	2 copy vpt 180 360 arc closepath fill
	vpt 0 360 arc closepath} bind def
/C14 {BL [] 0 setdash 2 copy moveto
	2 copy vpt 90 360 arc closepath fill
	vpt 0 360 arc} bind def
/C15 {BL [] 0 setdash 2 copy vpt 0 360 arc closepath fill
	vpt 0 360 arc closepath} bind def
/Rec {newpath 4 2 roll moveto 1 index 0 rlineto 0 exch rlineto
	neg 0 rlineto closepath} bind def
/Square {dup Rec} bind def
/Bsquare {vpt sub exch vpt sub exch vpt2 Square} bind def
/S0 {BL [] 0 setdash 2 copy moveto 0 vpt rlineto BL Bsquare} bind def
/S1 {BL [] 0 setdash 2 copy vpt Square fill Bsquare} bind def
/S2 {BL [] 0 setdash 2 copy exch vpt sub exch vpt Square fill Bsquare} bind def
/S3 {BL [] 0 setdash 2 copy exch vpt sub exch vpt2 vpt Rec fill Bsquare} bind def
/S4 {BL [] 0 setdash 2 copy exch vpt sub exch vpt sub vpt Square fill Bsquare} bind def
/S5 {BL [] 0 setdash 2 copy 2 copy vpt Square fill
	exch vpt sub exch vpt sub vpt Square fill Bsquare} bind def
/S6 {BL [] 0 setdash 2 copy exch vpt sub exch vpt sub vpt vpt2 Rec fill Bsquare} bind def
/S7 {BL [] 0 setdash 2 copy exch vpt sub exch vpt sub vpt vpt2 Rec fill
	2 copy vpt Square fill Bsquare} bind def
/S8 {BL [] 0 setdash 2 copy vpt sub vpt Square fill Bsquare} bind def
/S9 {BL [] 0 setdash 2 copy vpt sub vpt vpt2 Rec fill Bsquare} bind def
/S10 {BL [] 0 setdash 2 copy vpt sub vpt Square fill 2 copy exch vpt sub exch vpt Square fill
	Bsquare} bind def
/S11 {BL [] 0 setdash 2 copy vpt sub vpt Square fill 2 copy exch vpt sub exch vpt2 vpt Rec fill
	Bsquare} bind def
/S12 {BL [] 0 setdash 2 copy exch vpt sub exch vpt sub vpt2 vpt Rec fill Bsquare} bind def
/S13 {BL [] 0 setdash 2 copy exch vpt sub exch vpt sub vpt2 vpt Rec fill
	2 copy vpt Square fill Bsquare} bind def
/S14 {BL [] 0 setdash 2 copy exch vpt sub exch vpt sub vpt2 vpt Rec fill
	2 copy exch vpt sub exch vpt Square fill Bsquare} bind def
/S15 {BL [] 0 setdash 2 copy Bsquare fill Bsquare} bind def
/D0 {gsave translate 45 rotate 0 0 S0 stroke grestore} bind def
/D1 {gsave translate 45 rotate 0 0 S1 stroke grestore} bind def
/D2 {gsave translate 45 rotate 0 0 S2 stroke grestore} bind def
/D3 {gsave translate 45 rotate 0 0 S3 stroke grestore} bind def
/D4 {gsave translate 45 rotate 0 0 S4 stroke grestore} bind def
/D5 {gsave translate 45 rotate 0 0 S5 stroke grestore} bind def
/D6 {gsave translate 45 rotate 0 0 S6 stroke grestore} bind def
/D7 {gsave translate 45 rotate 0 0 S7 stroke grestore} bind def
/D8 {gsave translate 45 rotate 0 0 S8 stroke grestore} bind def
/D9 {gsave translate 45 rotate 0 0 S9 stroke grestore} bind def
/D10 {gsave translate 45 rotate 0 0 S10 stroke grestore} bind def
/D11 {gsave translate 45 rotate 0 0 S11 stroke grestore} bind def
/D12 {gsave translate 45 rotate 0 0 S12 stroke grestore} bind def
/D13 {gsave translate 45 rotate 0 0 S13 stroke grestore} bind def
/D14 {gsave translate 45 rotate 0 0 S14 stroke grestore} bind def
/D15 {gsave translate 45 rotate 0 0 S15 stroke grestore} bind def
/DiaE {stroke [] 0 setdash vpt add M
  hpt neg vpt neg V hpt vpt neg V
  hpt vpt V hpt neg vpt V closepath stroke} def
/BoxE {stroke [] 0 setdash exch hpt sub exch vpt add M
  0 vpt2 neg V hpt2 0 V 0 vpt2 V
  hpt2 neg 0 V closepath stroke} def
/TriUE {stroke [] 0 setdash vpt 1.12 mul add M
  hpt neg vpt -1.62 mul V
  hpt 2 mul 0 V
  hpt neg vpt 1.62 mul V closepath stroke} def
/TriDE {stroke [] 0 setdash vpt 1.12 mul sub M
  hpt neg vpt 1.62 mul V
  hpt 2 mul 0 V
  hpt neg vpt -1.62 mul V closepath stroke} def
/PentE {stroke [] 0 setdash gsave
  translate 0 hpt M 4 {72 rotate 0 hpt L} repeat
  closepath stroke grestore} def
/CircE {stroke [] 0 setdash 
  hpt 0 360 arc stroke} def
/Opaque {gsave closepath 1 setgray fill grestore 0 setgray closepath} def
/DiaW {stroke [] 0 setdash vpt add M
  hpt neg vpt neg V hpt vpt neg V
  hpt vpt V hpt neg vpt V Opaque stroke} def
/BoxW {stroke [] 0 setdash exch hpt sub exch vpt add M
  0 vpt2 neg V hpt2 0 V 0 vpt2 V
  hpt2 neg 0 V Opaque stroke} def
/TriUW {stroke [] 0 setdash vpt 1.12 mul add M
  hpt neg vpt -1.62 mul V
  hpt 2 mul 0 V
  hpt neg vpt 1.62 mul V Opaque stroke} def
/TriDW {stroke [] 0 setdash vpt 1.12 mul sub M
  hpt neg vpt 1.62 mul V
  hpt 2 mul 0 V
  hpt neg vpt -1.62 mul V Opaque stroke} def
/PentW {stroke [] 0 setdash gsave
  translate 0 hpt M 4 {72 rotate 0 hpt L} repeat
  Opaque stroke grestore} def
/CircW {stroke [] 0 setdash 
  hpt 0 360 arc Opaque stroke} def
/BoxFill {gsave Rec 1 setgray fill grestore} def
/Density {
  /Fillden exch def
  currentrgbcolor
  /ColB exch def /ColG exch def /ColR exch def
  /ColR ColR Fillden mul Fillden sub 1 add def
  /ColG ColG Fillden mul Fillden sub 1 add def
  /ColB ColB Fillden mul Fillden sub 1 add def
  ColR ColG ColB setrgbcolor} def
/BoxColFill {gsave Rec PolyFill} def
/PolyFill {gsave Density fill grestore grestore} def
/h {rlineto rlineto rlineto gsave closepath fill grestore} bind def
%
% PostScript Level 1 Pattern Fill routine for rectangles
% Usage: x y w h s a XX PatternFill
%	x,y = lower left corner of box to be filled
%	w,h = width and height of box
%	  a = angle in degrees between lines and x-axis
%	 XX = 0/1 for no/yes cross-hatch
%
/PatternFill {gsave /PFa [ 9 2 roll ] def
  PFa 0 get PFa 2 get 2 div add PFa 1 get PFa 3 get 2 div add translate
  PFa 2 get -2 div PFa 3 get -2 div PFa 2 get PFa 3 get Rec
  TransparentPatterns {} {gsave 1 setgray fill grestore} ifelse
  clip
  currentlinewidth 0.5 mul setlinewidth
  /PFs PFa 2 get dup mul PFa 3 get dup mul add sqrt def
  0 0 M PFa 5 get rotate PFs -2 div dup translate
  0 1 PFs PFa 4 get div 1 add floor cvi
	{PFa 4 get mul 0 M 0 PFs V} for
  0 PFa 6 get ne {
	0 1 PFs PFa 4 get div 1 add floor cvi
	{PFa 4 get mul 0 2 1 roll M PFs 0 V} for
 } if
  stroke grestore} def
%
/languagelevel where
 {pop languagelevel} {1} ifelse
dup 2 lt
	{/InterpretLevel1 true def
	 /InterpretLevel3 false def}
	{/InterpretLevel1 Level1 def
	 2 gt
	    {/InterpretLevel3 Level3 def}
	    {/InterpretLevel3 false def}
	 ifelse }
 ifelse
%
% PostScript level 2 pattern fill definitions
%
/Level2PatternFill {
/Tile8x8 {/PaintType 2 /PatternType 1 /TilingType 1 /BBox [0 0 8 8] /XStep 8 /YStep 8}
	bind def
/KeepColor {currentrgbcolor [/Pattern /DeviceRGB] setcolorspace} bind def
<< Tile8x8
 /PaintProc {0.5 setlinewidth pop 0 0 M 8 8 L 0 8 M 8 0 L stroke} 
>> matrix makepattern
/Pat1 exch def
<< Tile8x8
 /PaintProc {0.5 setlinewidth pop 0 0 M 8 8 L 0 8 M 8 0 L stroke
	0 4 M 4 8 L 8 4 L 4 0 L 0 4 L stroke}
>> matrix makepattern
/Pat2 exch def
<< Tile8x8
 /PaintProc {0.5 setlinewidth pop 0 0 M 0 8 L
	8 8 L 8 0 L 0 0 L fill}
>> matrix makepattern
/Pat3 exch def
<< Tile8x8
 /PaintProc {0.5 setlinewidth pop -4 8 M 8 -4 L
	0 12 M 12 0 L stroke}
>> matrix makepattern
/Pat4 exch def
<< Tile8x8
 /PaintProc {0.5 setlinewidth pop -4 0 M 8 12 L
	0 -4 M 12 8 L stroke}
>> matrix makepattern
/Pat5 exch def
<< Tile8x8
 /PaintProc {0.5 setlinewidth pop -2 8 M 4 -4 L
	0 12 M 8 -4 L 4 12 M 10 0 L stroke}
>> matrix makepattern
/Pat6 exch def
<< Tile8x8
 /PaintProc {0.5 setlinewidth pop -2 0 M 4 12 L
	0 -4 M 8 12 L 4 -4 M 10 8 L stroke}
>> matrix makepattern
/Pat7 exch def
<< Tile8x8
 /PaintProc {0.5 setlinewidth pop 8 -2 M -4 4 L
	12 0 M -4 8 L 12 4 M 0 10 L stroke}
>> matrix makepattern
/Pat8 exch def
<< Tile8x8
 /PaintProc {0.5 setlinewidth pop 0 -2 M 12 4 L
	-4 0 M 12 8 L -4 4 M 8 10 L stroke}
>> matrix makepattern
/Pat9 exch def
/Pattern1 {PatternBgnd KeepColor Pat1 setpattern} bind def
/Pattern2 {PatternBgnd KeepColor Pat2 setpattern} bind def
/Pattern3 {PatternBgnd KeepColor Pat3 setpattern} bind def
/Pattern4 {PatternBgnd KeepColor Landscape {Pat5} {Pat4} ifelse setpattern} bind def
/Pattern5 {PatternBgnd KeepColor Landscape {Pat4} {Pat5} ifelse setpattern} bind def
/Pattern6 {PatternBgnd KeepColor Landscape {Pat9} {Pat6} ifelse setpattern} bind def
/Pattern7 {PatternBgnd KeepColor Landscape {Pat8} {Pat7} ifelse setpattern} bind def
} def
%
%
%End of PostScript Level 2 code
%
/PatternBgnd {
  TransparentPatterns {} {gsave 1 setgray fill grestore} ifelse
} def
%
% Substitute for Level 2 pattern fill codes with
% grayscale if Level 2 support is not selected.
%
/Level1PatternFill {
/Pattern1 {0.250 Density} bind def
/Pattern2 {0.500 Density} bind def
/Pattern3 {0.750 Density} bind def
/Pattern4 {0.125 Density} bind def
/Pattern5 {0.375 Density} bind def
/Pattern6 {0.625 Density} bind def
/Pattern7 {0.875 Density} bind def
} def
%
% Now test for support of Level 2 code
%
Level1 {Level1PatternFill} {Level2PatternFill} ifelse
%
/Symbol-Oblique /Symbol findfont [1 0 .167 1 0 0] makefont
dup length dict begin {1 index /FID eq {pop pop} {def} ifelse} forall
currentdict end definefont pop
%
/MFshow {
   { dup 5 get 3 ge
     { 5 get 3 eq {gsave} {grestore} ifelse }
     {dup dup 0 get findfont exch 1 get scalefont setfont
     [ currentpoint ] exch dup 2 get 0 exch R dup 5 get 2 ne {dup dup 6
     get exch 4 get {textshow} {stringwidth pop 0 R} ifelse }if dup 5 get 0 eq
     {dup 3 get {2 get neg 0 exch R pop} {pop aload pop M} ifelse} {dup 5
     get 1 eq {dup 2 get exch dup 3 get exch 6 get stringwidth pop -2 div
     dup 0 R} {dup 6 get stringwidth pop -2 div 0 R 6 get
     textshow 2 index {aload pop M neg 3 -1 roll neg R pop pop} {pop pop pop
     pop aload pop M} ifelse }ifelse }ifelse }
     ifelse }
   forall} def
/Gswidth {dup type /stringtype eq {stringwidth} {pop (n) stringwidth} ifelse} def
/MFwidth {0 exch { dup 5 get 3 ge { 5 get 3 eq { 0 } { pop } ifelse }
 {dup 3 get{dup dup 0 get findfont exch 1 get scalefont setfont
     6 get Gswidth pop add} {pop} ifelse} ifelse} forall} def
/MLshow { currentpoint stroke M
  0 exch R
  Blacktext {gsave 0 setgray MFshow grestore} {MFshow} ifelse } bind def
/MRshow { currentpoint stroke M
  exch dup MFwidth neg 3 -1 roll R
  Blacktext {gsave 0 setgray MFshow grestore} {MFshow} ifelse } bind def
/MCshow { currentpoint stroke M
  exch dup MFwidth -2 div 3 -1 roll R
  Blacktext {gsave 0 setgray MFshow grestore} {MFshow} ifelse } bind def
/XYsave    { [( ) 1 2 true false 3 ()] } bind def
/XYrestore { [( ) 1 2 true false 4 ()] } bind def
Level1 SuppressPDFMark or 
{} {
/SDict 10 dict def
systemdict /pdfmark known not {
  userdict /pdfmark systemdict /cleartomark get put
} if
SDict begin [
  /Title (exp1_L20K8_n\(K\).eps)
  /Subject (gnuplot plot)
  /Creator (gnuplot 5.0 patchlevel 3)
  /Author (parada)
%  /Producer (gnuplot)
%  /Keywords ()
  /CreationDate (Sun Sep 10 23:24:01 2017)
  /DOCINFO pdfmark
end
} ifelse
%
% Support for boxed text - Ethan A Merritt May 2005
%
/InitTextBox { userdict /TBy2 3 -1 roll put userdict /TBx2 3 -1 roll put
           userdict /TBy1 3 -1 roll put userdict /TBx1 3 -1 roll put
	   /Boxing true def } def
/ExtendTextBox { Boxing
    { gsave dup false charpath pathbbox
      dup TBy2 gt {userdict /TBy2 3 -1 roll put} {pop} ifelse
      dup TBx2 gt {userdict /TBx2 3 -1 roll put} {pop} ifelse
      dup TBy1 lt {userdict /TBy1 3 -1 roll put} {pop} ifelse
      dup TBx1 lt {userdict /TBx1 3 -1 roll put} {pop} ifelse
      grestore } if } def
/PopTextBox { newpath TBx1 TBxmargin sub TBy1 TBymargin sub M
               TBx1 TBxmargin sub TBy2 TBymargin add L
	       TBx2 TBxmargin add TBy2 TBymargin add L
	       TBx2 TBxmargin add TBy1 TBymargin sub L closepath } def
/DrawTextBox { PopTextBox stroke /Boxing false def} def
/FillTextBox { gsave PopTextBox 1 1 1 setrgbcolor fill grestore /Boxing false def} def
0 0 0 0 InitTextBox
/TBxmargin 20 def
/TBymargin 20 def
/Boxing false def
/textshow { ExtendTextBox Gshow } def
%
% redundant definitions for compatibility with prologue.ps older than 5.0.2
/LTB {BL [] LCb DL} def
/LTb {PL [] LCb DL} def
end
%%EndProlog
%%Page: 1 1
gnudict begin
gsave
doclip
50 50 translate
0.050 0.050 scale
0 setgray
newpath
(Times-Roman) findfont 950 scalefont setfont
BackgroundColor 0 lt 3 1 roll 0 lt exch 0 lt or or not {BackgroundColor C 1.000 0 0 20160.00 15120.00 BoxColFill} if
1.000 UL
LTb
LCb setrgbcolor
2.000 UL
LTb
0.75 0.75 0.75 C 3705 2090 M
11801 0 V
stroke
1.000 UL
LTb
LCb setrgbcolor
3705 2090 M
63 0 V
11738 0 R
-63 0 V
stroke
3135 2090 M
[ [(Times-Roman) 700.0 0.0 true true 0 ( 0)]
] -233.3 MRshow
1.000 UL
LTb
LCb setrgbcolor
2.000 UL
LTb
0.75 0.75 0.75 C 3705 4221 M
11801 0 V
stroke
1.000 UL
LTb
LCb setrgbcolor
3705 4221 M
63 0 V
11738 0 R
-63 0 V
stroke
3135 4221 M
[ [(Times-Roman) 700.0 0.0 true true 0 ( 20)]
] -233.3 MRshow
1.000 UL
LTb
LCb setrgbcolor
2.000 UL
LTb
0.75 0.75 0.75 C 3705 6352 M
11801 0 V
stroke
1.000 UL
LTb
LCb setrgbcolor
3705 6352 M
63 0 V
11738 0 R
-63 0 V
stroke
3135 6352 M
[ [(Times-Roman) 700.0 0.0 true true 0 ( 40)]
] -233.3 MRshow
1.000 UL
LTb
LCb setrgbcolor
2.000 UL
LTb
0.75 0.75 0.75 C 3705 8482 M
11801 0 V
stroke
1.000 UL
LTb
LCb setrgbcolor
3705 8482 M
63 0 V
11738 0 R
-63 0 V
stroke
3135 8482 M
[ [(Times-Roman) 700.0 0.0 true true 0 ( 60)]
] -233.3 MRshow
1.000 UL
LTb
LCb setrgbcolor
2.000 UL
LTb
0.75 0.75 0.75 C 3705 10613 M
11801 0 V
stroke
1.000 UL
LTb
LCb setrgbcolor
3705 10613 M
63 0 V
11738 0 R
-63 0 V
stroke
3135 10613 M
[ [(Times-Roman) 700.0 0.0 true true 0 ( 80)]
] -233.3 MRshow
1.000 UL
LTb
LCb setrgbcolor
2.000 UL
LTb
0.75 0.75 0.75 C 3705 12744 M
11801 0 V
stroke
1.000 UL
LTb
LCb setrgbcolor
3705 12744 M
63 0 V
11738 0 R
-63 0 V
stroke
3135 12744 M
[ [(Times-Roman) 700.0 0.0 true true 0 ( 100)]
] -233.3 MRshow
1.000 UL
LTb
LCb setrgbcolor
2.000 UL
LTb
0.75 0.75 0.75 C 3705 2090 M
0 10654 V
stroke
1.000 UL
LTb
LCb setrgbcolor
3705 2090 M
0 63 V
0 10591 R
0 -63 V
stroke
3705 1140 M
[ [(Times-Roman) 700.0 0.0 true true 0 ( 0)]
] -233.3 MCshow
1.000 UL
LTb
LCb setrgbcolor
2.000 UL
LTb
0.75 0.75 0.75 C 6019 2090 M
0 10654 V
stroke
1.000 UL
LTb
LCb setrgbcolor
6019 2090 M
0 63 V
0 10591 R
0 -63 V
stroke
6019 1140 M
[ [(Times-Roman) 700.0 0.0 true true 0 ( 10)]
] -233.3 MCshow
1.000 UL
LTb
LCb setrgbcolor
2.000 UL
LTb
0.75 0.75 0.75 C 8333 2090 M
0 10654 V
stroke
1.000 UL
LTb
LCb setrgbcolor
8333 2090 M
0 63 V
0 10591 R
0 -63 V
stroke
8333 1140 M
[ [(Times-Roman) 700.0 0.0 true true 0 ( 20)]
] -233.3 MCshow
1.000 UL
LTb
LCb setrgbcolor
2.000 UL
LTb
0.75 0.75 0.75 C 10647 2090 M
0 10654 V
stroke
1.000 UL
LTb
LCb setrgbcolor
10647 2090 M
0 63 V
0 10591 R
0 -63 V
stroke
10647 1140 M
[ [(Times-Roman) 700.0 0.0 true true 0 ( 30)]
] -233.3 MCshow
1.000 UL
LTb
LCb setrgbcolor
2.000 UL
LTb
0.75 0.75 0.75 C 12961 2090 M
0 10654 V
stroke
1.000 UL
LTb
LCb setrgbcolor
12961 2090 M
0 63 V
0 10591 R
0 -63 V
stroke
12961 1140 M
[ [(Times-Roman) 700.0 0.0 true true 0 ( 40)]
] -233.3 MCshow
1.000 UL
LTb
LCb setrgbcolor
2.000 UL
LTb
0.75 0.75 0.75 C 15275 2090 M
0 10654 V
stroke
1.000 UL
LTb
LCb setrgbcolor
15275 2090 M
0 63 V
0 10591 R
0 -63 V
stroke
15275 1140 M
[ [(Times-Roman) 700.0 0.0 true true 0 ( 50)]
] -233.3 MCshow
1.000 UL
LTb
LCb setrgbcolor
1.000 UL
LTB
LCb setrgbcolor
3705 12744 N
0 -10654 V
11801 0 V
0 10654 V
-11801 0 V
Z stroke
1.000 UP
1.000 UL
LTb
LCb setrgbcolor
LCb setrgbcolor
1520 7417 M
currentpoint gsave translate -270 rotate 0 0 moveto
[ [(Times-Italic) 950.0 0.0 true true 0 (n\(K\) )]
[(Times-Roman) 950.0 0.0 true true 0 ([%])]
] -316.7 MCshow
grestore
LTb
LCb setrgbcolor
9605 665 M
[ [(Times-Italic) 950.0 0.0 true true 0 (t)]
] -316.7 MCshow
LTb
LCb setrgbcolor
9605 13694 M
[ [(Times-Italic) 950.0 0.0 true true 0 (L = 20; K = 8)]
] -316.7 MCshow
LCb setrgbcolor
18117 12474 M
[ [(Times-Italic) 600.0 0.0 true true 0 (p=)]
] -200.0 MCshow
LTb
% Begin plot #1
4.000 UP
4.000 UL
LTb
LC0 setrgbcolor
LCb setrgbcolor
17726 11874 M
[ [(Times-Roman) 600.0 0.0 true true 0 (0.1)]
] -200.0 MRshow
4.000 UP
4.000 UL
LTb
LC0 setrgbcolor
18086 11874 M
1143 0 V
3705 2090 M
231 0 V
232 0 V
231 0 V
232 0 V
231 0 V
231 0 V
232 0 V
231 0 V
232 0 V
231 0 V
231 0 V
232 0 V
231 0 V
231 0 V
232 0 V
231 0 V
232 0 V
231 0 V
231 0 V
232 0 V
231 0 V
232 0 V
231 0 V
231 0 V
232 0 V
231 0 V
232 0 V
231 0 V
231 0 V
232 0 V
231 0 V
232 0 V
231 0 V
231 0 V
232 0 V
231 0 V
232 0 V
231 0 V
231 0 V
232 0 V
231 0 V
231 0 V
232 0 V
231 0 V
232 0 V
231 0 V
231 0 V
232 0 V
231 0 V
232 0 V
231 0 V
3705 2090 Pls
3936 2090 Pls
4168 2090 Pls
4399 2090 Pls
4631 2090 Pls
4862 2090 Pls
5093 2090 Pls
5325 2090 Pls
5556 2090 Pls
5788 2090 Pls
6019 2090 Pls
6250 2090 Pls
6482 2090 Pls
6713 2090 Pls
6944 2090 Pls
7176 2090 Pls
7407 2090 Pls
7639 2090 Pls
7870 2090 Pls
8101 2090 Pls
8333 2090 Pls
8564 2090 Pls
8796 2090 Pls
9027 2090 Pls
9258 2090 Pls
9490 2090 Pls
9721 2090 Pls
9953 2090 Pls
10184 2090 Pls
10415 2090 Pls
10647 2090 Pls
10878 2090 Pls
11110 2090 Pls
11341 2090 Pls
11572 2090 Pls
11804 2090 Pls
12035 2090 Pls
12267 2090 Pls
12498 2090 Pls
12729 2090 Pls
12961 2090 Pls
13192 2090 Pls
13423 2090 Pls
13655 2090 Pls
13886 2090 Pls
14118 2090 Pls
14349 2090 Pls
14580 2090 Pls
14812 2090 Pls
15043 2090 Pls
15275 2090 Pls
15506 2090 Pls
18657 11874 Pls
% End plot #1
% Begin plot #2
4.000 UP
4.000 UL
LTb
LC1 setrgbcolor
LCb setrgbcolor
17726 11334 M
[ [(Times-Roman) 600.0 0.0 true true 0 (0.2)]
] -200.0 MRshow
4.000 UP
4.000 UL
LTb
LC1 setrgbcolor
18086 11334 M
1143 0 V
3705 2090 M
231 0 V
232 0 V
231 0 V
232 0 V
231 0 V
231 0 V
232 0 V
231 0 V
232 0 V
231 0 V
231 0 V
232 0 V
231 0 V
231 0 V
232 0 V
231 0 V
232 0 V
231 0 V
231 0 V
232 0 V
231 0 V
232 0 V
231 0 V
231 0 V
232 0 V
231 0 V
232 0 V
231 0 V
231 0 V
232 0 V
231 0 V
232 0 V
231 0 V
231 0 V
232 0 V
231 0 V
232 0 V
231 0 V
231 0 V
232 0 V
231 0 V
231 0 V
232 0 V
231 0 V
232 0 V
231 0 V
231 0 V
232 0 V
231 0 V
232 0 V
231 0 V
3705 2090 Crs
3936 2090 Crs
4168 2090 Crs
4399 2090 Crs
4631 2090 Crs
4862 2090 Crs
5093 2090 Crs
5325 2090 Crs
5556 2090 Crs
5788 2090 Crs
6019 2090 Crs
6250 2090 Crs
6482 2090 Crs
6713 2090 Crs
6944 2090 Crs
7176 2090 Crs
7407 2090 Crs
7639 2090 Crs
7870 2090 Crs
8101 2090 Crs
8333 2090 Crs
8564 2090 Crs
8796 2090 Crs
9027 2090 Crs
9258 2090 Crs
9490 2090 Crs
9721 2090 Crs
9953 2090 Crs
10184 2090 Crs
10415 2090 Crs
10647 2090 Crs
10878 2090 Crs
11110 2090 Crs
11341 2090 Crs
11572 2090 Crs
11804 2090 Crs
12035 2090 Crs
12267 2090 Crs
12498 2090 Crs
12729 2090 Crs
12961 2090 Crs
13192 2090 Crs
13423 2090 Crs
13655 2090 Crs
13886 2090 Crs
14118 2090 Crs
14349 2090 Crs
14580 2090 Crs
14812 2090 Crs
15043 2090 Crs
15275 2090 Crs
15506 2090 Crs
18657 11334 Crs
% End plot #2
% Begin plot #3
4.000 UP
4.000 UL
LTb
LC2 setrgbcolor
LCb setrgbcolor
17726 10794 M
[ [(Times-Roman) 600.0 0.0 true true 0 (0.3)]
] -200.0 MRshow
4.000 UP
4.000 UL
LTb
LC2 setrgbcolor
18086 10794 M
1143 0 V
3705 2091 M
231 0 V
232 0 V
231 0 V
232 0 V
231 0 V
231 0 V
232 0 V
231 0 V
232 0 V
231 0 V
231 0 V
232 0 V
231 0 V
231 0 V
232 0 V
231 0 V
232 0 V
231 1 V
231 1 V
232 1 V
231 2 V
232 2 V
231 2 V
231 4 V
232 3 V
231 4 V
232 4 V
231 5 V
231 5 V
232 5 V
231 5 V
232 4 V
231 5 V
231 4 V
232 4 V
231 4 V
232 3 V
231 3 V
231 2 V
232 2 V
231 2 V
231 1 V
232 1 V
231 1 V
232 0 V
231 1 V
231 0 V
232 0 V
231 0 V
232 0 V
231 0 V
3705 2091 Star
3936 2091 Star
4168 2091 Star
4399 2091 Star
4631 2091 Star
4862 2091 Star
5093 2091 Star
5325 2091 Star
5556 2091 Star
5788 2091 Star
6019 2091 Star
6250 2091 Star
6482 2091 Star
6713 2091 Star
6944 2091 Star
7176 2091 Star
7407 2091 Star
7639 2091 Star
7870 2092 Star
8101 2093 Star
8333 2094 Star
8564 2096 Star
8796 2098 Star
9027 2100 Star
9258 2104 Star
9490 2107 Star
9721 2111 Star
9953 2115 Star
10184 2120 Star
10415 2125 Star
10647 2130 Star
10878 2135 Star
11110 2139 Star
11341 2144 Star
11572 2148 Star
11804 2152 Star
12035 2156 Star
12267 2159 Star
12498 2162 Star
12729 2164 Star
12961 2166 Star
13192 2168 Star
13423 2169 Star
13655 2170 Star
13886 2171 Star
14118 2171 Star
14349 2172 Star
14580 2172 Star
14812 2172 Star
15043 2172 Star
15275 2172 Star
15506 2172 Star
18657 10794 Star
% End plot #3
% Begin plot #4
4.000 UP
4.000 UL
LTb
LC3 setrgbcolor
LCb setrgbcolor
17726 10254 M
[ [(Times-Roman) 600.0 0.0 true true 0 (0.4)]
] -200.0 MRshow
4.000 UP
4.000 UL
LTb
LC3 setrgbcolor
18086 10254 M
1143 0 V
3705 2097 M
231 0 V
232 0 V
231 0 V
232 0 V
231 1 V
231 0 V
232 1 V
231 2 V
232 6 V
231 11 V
231 19 V
232 29 V
231 44 V
231 59 V
232 78 V
231 96 V
232 114 V
231 132 V
231 147 V
232 158 V
231 164 V
232 163 V
231 157 V
231 148 V
232 134 V
231 118 V
232 102 V
231 83 V
231 68 V
232 52 V
231 39 V
232 28 V
231 20 V
231 14 V
232 9 V
231 6 V
232 4 V
231 3 V
231 1 V
232 1 V
231 0 V
231 1 V
232 0 V
231 0 V
232 0 V
231 0 V
231 0 V
232 0 V
231 0 V
232 0 V
231 0 V
3705 2097 Box
3936 2097 Box
4168 2097 Box
4399 2097 Box
4631 2097 Box
4862 2098 Box
5093 2098 Box
5325 2099 Box
5556 2101 Box
5788 2107 Box
6019 2118 Box
6250 2137 Box
6482 2166 Box
6713 2210 Box
6944 2269 Box
7176 2347 Box
7407 2443 Box
7639 2557 Box
7870 2689 Box
8101 2836 Box
8333 2994 Box
8564 3158 Box
8796 3321 Box
9027 3478 Box
9258 3626 Box
9490 3760 Box
9721 3878 Box
9953 3980 Box
10184 4063 Box
10415 4131 Box
10647 4183 Box
10878 4222 Box
11110 4250 Box
11341 4270 Box
11572 4284 Box
11804 4293 Box
12035 4299 Box
12267 4303 Box
12498 4306 Box
12729 4307 Box
12961 4308 Box
13192 4308 Box
13423 4309 Box
13655 4309 Box
13886 4309 Box
14118 4309 Box
14349 4309 Box
14580 4309 Box
14812 4309 Box
15043 4309 Box
15275 4309 Box
15506 4309 Box
18657 10254 Box
% End plot #4
% Begin plot #5
4.000 UP
4.000 UL
LTb
LC4 setrgbcolor
LCb setrgbcolor
17726 9714 M
[ [(Times-Roman) 600.0 0.0 true true 0 (0.5)]
] -200.0 MRshow
4.000 UP
4.000 UL
LTb
LC4 setrgbcolor
18086 9714 M
1143 0 V
3705 2132 M
231 5 V
232 4 V
231 6 V
232 14 V
231 30 V
231 71 V
232 141 V
231 243 V
232 358 V
231 473 V
231 569 V
232 644 V
231 695 V
231 717 V
232 703 V
231 653 V
232 577 V
231 483 V
231 389 V
232 304 V
231 233 V
232 175 V
231 126 V
231 87 V
232 55 V
231 31 V
232 16 V
231 7 V
231 3 V
232 1 V
231 1 V
232 0 V
231 0 V
231 0 V
232 0 V
231 0 V
232 0 V
231 0 V
231 0 V
232 0 V
231 0 V
231 0 V
232 0 V
231 0 V
232 0 V
231 0 V
231 0 V
232 0 V
231 0 V
232 0 V
231 0 V
3705 2132 BoxF
3936 2137 BoxF
4168 2141 BoxF
4399 2147 BoxF
4631 2161 BoxF
4862 2191 BoxF
5093 2262 BoxF
5325 2403 BoxF
5556 2646 BoxF
5788 3004 BoxF
6019 3477 BoxF
6250 4046 BoxF
6482 4690 BoxF
6713 5385 BoxF
6944 6102 BoxF
7176 6805 BoxF
7407 7458 BoxF
7639 8035 BoxF
7870 8518 BoxF
8101 8907 BoxF
8333 9211 BoxF
8564 9444 BoxF
8796 9619 BoxF
9027 9745 BoxF
9258 9832 BoxF
9490 9887 BoxF
9721 9918 BoxF
9953 9934 BoxF
10184 9941 BoxF
10415 9944 BoxF
10647 9945 BoxF
10878 9946 BoxF
11110 9946 BoxF
11341 9946 BoxF
11572 9946 BoxF
11804 9946 BoxF
12035 9946 BoxF
12267 9946 BoxF
12498 9946 BoxF
12729 9946 BoxF
12961 9946 BoxF
13192 9946 BoxF
13423 9946 BoxF
13655 9946 BoxF
13886 9946 BoxF
14118 9946 BoxF
14349 9946 BoxF
14580 9946 BoxF
14812 9946 BoxF
15043 9946 BoxF
15275 9946 BoxF
15506 9946 BoxF
18657 9714 BoxF
% End plot #5
% Begin plot #6
4.000 UP
4.000 UL
LTb
LC5 setrgbcolor
LCb setrgbcolor
17726 9174 M
[ [(Times-Roman) 600.0 0.0 true true 0 (0.6)]
] -200.0 MRshow
4.000 UP
4.000 UL
LTb
LC5 setrgbcolor
18086 9174 M
1143 0 V
3705 2269 M
231 63 V
232 88 V
231 188 V
232 404 V
231 776 V
231 1192 V
232 1453 V
231 1463 V
232 1279 V
231 1003 V
231 721 V
232 475 V
231 288 V
231 157 V
232 80 V
231 39 V
232 20 V
231 11 V
231 6 V
232 4 V
231 2 V
232 1 V
231 1 V
231 0 V
232 0 V
231 0 V
232 0 V
231 0 V
231 0 V
232 0 V
231 0 V
232 0 V
231 0 V
231 0 V
232 0 V
231 0 V
232 0 V
231 0 V
231 0 V
232 0 V
231 0 V
231 0 V
232 0 V
231 0 V
232 0 V
231 0 V
231 0 V
232 0 V
231 0 V
232 0 V
231 0 V
3705 2269 Circle
3936 2332 Circle
4168 2420 Circle
4399 2608 Circle
4631 3012 Circle
4862 3788 Circle
5093 4980 Circle
5325 6433 Circle
5556 7896 Circle
5788 9175 Circle
6019 10178 Circle
6250 10899 Circle
6482 11374 Circle
6713 11662 Circle
6944 11819 Circle
7176 11899 Circle
7407 11938 Circle
7639 11958 Circle
7870 11969 Circle
8101 11975 Circle
8333 11979 Circle
8564 11981 Circle
8796 11982 Circle
9027 11983 Circle
9258 11983 Circle
9490 11983 Circle
9721 11983 Circle
9953 11983 Circle
10184 11983 Circle
10415 11983 Circle
10647 11983 Circle
10878 11983 Circle
11110 11983 Circle
11341 11983 Circle
11572 11983 Circle
11804 11983 Circle
12035 11983 Circle
12267 11983 Circle
12498 11983 Circle
12729 11983 Circle
12961 11983 Circle
13192 11983 Circle
13423 11983 Circle
13655 11983 Circle
13886 11983 Circle
14118 11983 Circle
14349 11983 Circle
14580 11983 Circle
14812 11983 Circle
15043 11983 Circle
15275 11983 Circle
15506 11983 Circle
18657 9174 Circle
% End plot #6
% Begin plot #7
4.000 UP
4.000 UL
LTb
LC6 setrgbcolor
LCb setrgbcolor
17726 8634 M
[ [(Times-Roman) 600.0 0.0 true true 0 (0.7)]
] -200.0 MRshow
4.000 UP
4.000 UL
LTb
LC6 setrgbcolor
18086 8634 M
1143 0 V
3705 2705 M
231 447 V
232 844 V
231 1600 V
232 2256 V
231 2118 V
231 1294 V
232 551 V
231 178 V
232 46 V
231 10 V
231 2 V
232 1 V
231 0 V
231 0 V
232 0 V
231 0 V
232 0 V
231 0 V
231 0 V
232 0 V
231 0 V
232 0 V
231 0 V
231 0 V
232 0 V
231 0 V
232 0 V
231 0 V
231 0 V
232 0 V
231 0 V
232 0 V
231 0 V
231 0 V
232 0 V
231 0 V
232 0 V
231 0 V
231 0 V
232 0 V
231 0 V
231 0 V
232 0 V
231 0 V
232 0 V
231 0 V
231 0 V
232 0 V
231 0 V
232 0 V
231 0 V
3705 2705 CircleF
3936 3152 CircleF
4168 3996 CircleF
4399 5596 CircleF
4631 7852 CircleF
4862 9970 CircleF
5093 11264 CircleF
5325 11815 CircleF
5556 11993 CircleF
5788 12039 CircleF
6019 12049 CircleF
6250 12051 CircleF
6482 12052 CircleF
6713 12052 CircleF
6944 12052 CircleF
7176 12052 CircleF
7407 12052 CircleF
7639 12052 CircleF
7870 12052 CircleF
8101 12052 CircleF
8333 12052 CircleF
8564 12052 CircleF
8796 12052 CircleF
9027 12052 CircleF
9258 12052 CircleF
9490 12052 CircleF
9721 12052 CircleF
9953 12052 CircleF
10184 12052 CircleF
10415 12052 CircleF
10647 12052 CircleF
10878 12052 CircleF
11110 12052 CircleF
11341 12052 CircleF
11572 12052 CircleF
11804 12052 CircleF
12035 12052 CircleF
12267 12052 CircleF
12498 12052 CircleF
12729 12052 CircleF
12961 12052 CircleF
13192 12052 CircleF
13423 12052 CircleF
13655 12052 CircleF
13886 12052 CircleF
14118 12052 CircleF
14349 12052 CircleF
14580 12052 CircleF
14812 12052 CircleF
15043 12052 CircleF
15275 12052 CircleF
15506 12052 CircleF
18657 8634 CircleF
% End plot #7
% Begin plot #8
4.000 UP
4.000 UL
LTb
LC7 setrgbcolor
LCb setrgbcolor
17726 8094 M
[ [(Times-Roman) 600.0 0.0 true true 0 (0.8)]
] -200.0 MRshow
4.000 UP
4.000 UL
LTb
LC7 setrgbcolor
18086 8094 M
1143 0 V
3705 3879 M
231 1858 V
232 2804 V
231 2428 V
232 969 V
231 203 V
231 39 V
232 10 V
231 3 V
232 0 V
231 1 V
231 0 V
232 0 V
231 0 V
231 0 V
232 0 V
231 0 V
232 0 V
231 0 V
231 0 V
232 0 V
231 0 V
232 0 V
231 0 V
231 0 V
232 0 V
231 0 V
232 0 V
231 0 V
231 0 V
232 0 V
231 0 V
232 0 V
231 0 V
231 0 V
232 0 V
231 0 V
232 0 V
231 0 V
231 0 V
232 0 V
231 0 V
231 0 V
232 0 V
231 0 V
232 0 V
231 0 V
231 0 V
232 0 V
231 0 V
232 0 V
231 0 V
3705 3879 TriU
3936 5737 TriU
4168 8541 TriU
4399 10969 TriU
4631 11938 TriU
4862 12141 TriU
5093 12180 TriU
5325 12190 TriU
5556 12193 TriU
5788 12193 TriU
6019 12194 TriU
6250 12194 TriU
6482 12194 TriU
6713 12194 TriU
6944 12194 TriU
7176 12194 TriU
7407 12194 TriU
7639 12194 TriU
7870 12194 TriU
8101 12194 TriU
8333 12194 TriU
8564 12194 TriU
8796 12194 TriU
9027 12194 TriU
9258 12194 TriU
9490 12194 TriU
9721 12194 TriU
9953 12194 TriU
10184 12194 TriU
10415 12194 TriU
10647 12194 TriU
10878 12194 TriU
11110 12194 TriU
11341 12194 TriU
11572 12194 TriU
11804 12194 TriU
12035 12194 TriU
12267 12194 TriU
12498 12194 TriU
12729 12194 TriU
12961 12194 TriU
13192 12194 TriU
13423 12194 TriU
13655 12194 TriU
13886 12194 TriU
14118 12194 TriU
14349 12194 TriU
14580 12194 TriU
14812 12194 TriU
15043 12194 TriU
15275 12194 TriU
15506 12194 TriU
18657 8094 TriU
% End plot #8
% Begin plot #9
4.000 UP
4.000 UL
LTb
LC8 setrgbcolor
LCb setrgbcolor
17726 7554 M
[ [(Times-Roman) 600.0 0.0 true true 0 (0.9)]
] -200.0 MRshow
4.000 UP
4.000 UL
LTb
LC8 setrgbcolor
18086 7554 M
1143 0 V
3705 6678 M
231 3645 V
232 1755 V
231 297 V
232 43 V
231 7 V
231 1 V
232 0 V
231 0 V
232 1 V
231 0 V
231 0 V
232 0 V
231 0 V
231 0 V
232 0 V
231 0 V
232 0 V
231 0 V
231 0 V
232 0 V
231 0 V
232 0 V
231 0 V
231 0 V
232 0 V
231 0 V
232 0 V
231 0 V
231 0 V
232 0 V
231 0 V
232 0 V
231 0 V
231 0 V
232 0 V
231 0 V
232 0 V
231 0 V
231 0 V
232 0 V
231 0 V
231 0 V
232 0 V
231 0 V
232 0 V
231 0 V
231 0 V
232 0 V
231 0 V
232 0 V
231 0 V
3705 6678 TriUF
3936 10323 TriUF
4168 12078 TriUF
4399 12375 TriUF
4631 12418 TriUF
4862 12425 TriUF
5093 12426 TriUF
5325 12426 TriUF
5556 12426 TriUF
5788 12427 TriUF
6019 12427 TriUF
6250 12427 TriUF
6482 12427 TriUF
6713 12427 TriUF
6944 12427 TriUF
7176 12427 TriUF
7407 12427 TriUF
7639 12427 TriUF
7870 12427 TriUF
8101 12427 TriUF
8333 12427 TriUF
8564 12427 TriUF
8796 12427 TriUF
9027 12427 TriUF
9258 12427 TriUF
9490 12427 TriUF
9721 12427 TriUF
9953 12427 TriUF
10184 12427 TriUF
10415 12427 TriUF
10647 12427 TriUF
10878 12427 TriUF
11110 12427 TriUF
11341 12427 TriUF
11572 12427 TriUF
11804 12427 TriUF
12035 12427 TriUF
12267 12427 TriUF
12498 12427 TriUF
12729 12427 TriUF
12961 12427 TriUF
13192 12427 TriUF
13423 12427 TriUF
13655 12427 TriUF
13886 12427 TriUF
14118 12427 TriUF
14349 12427 TriUF
14580 12427 TriUF
14812 12427 TriUF
15043 12427 TriUF
15275 12427 TriUF
15506 12427 TriUF
18657 7554 TriUF
% End plot #9
2.000 UL
LTb
LCb setrgbcolor
1.000 UL
LTB
LCb setrgbcolor
3705 12744 N
0 -10654 V
11801 0 V
0 10654 V
-11801 0 V
Z stroke
1.000 UP
1.000 UL
LTb
LCb setrgbcolor
stroke
grestore
end
showpage
%%Trailer
%%DocumentFonts: Times-Italic Times-Roman
