%!PS-Adobe-2.0 EPSF-2.0
%%Title: exp1_L20K4_n(K).eps
%%Creator: gnuplot 5.0 patchlevel 3
%%CreationDate: Sun Sep 10 23:24:01 2017
%%DocumentFonts: (atend)
%%BoundingBox: 50 50 1058 806
%%EndComments
%%BeginProlog
/gnudict 256 dict def
gnudict begin
%
% The following true/false flags may be edited by hand if desired.
% The unit line width and grayscale image gamma correction may also be changed.
%
/Color true def
/Blacktext false def
/Solid false def
/Dashlength 1 def
/Landscape false def
/Level1 false def
/Level3 false def
/Rounded false def
/ClipToBoundingBox false def
/SuppressPDFMark false def
/TransparentPatterns false def
/gnulinewidth 5.000 def
/userlinewidth gnulinewidth def
/Gamma 1.0 def
/BackgroundColor {-1.000 -1.000 -1.000} def
%
/vshift -316 def
/dl1 {
  10.0 Dashlength userlinewidth gnulinewidth div mul mul mul
  Rounded { currentlinewidth 0.75 mul sub dup 0 le { pop 0.01 } if } if
} def
/dl2 {
  10.0 Dashlength userlinewidth gnulinewidth div mul mul mul
  Rounded { currentlinewidth 0.75 mul add } if
} def
/hpt_ 31.5 def
/vpt_ 31.5 def
/hpt hpt_ def
/vpt vpt_ def
/doclip {
  ClipToBoundingBox {
    newpath 50 50 moveto 1058 50 lineto 1058 806 lineto 50 806 lineto closepath
    clip
  } if
} def
%
% Gnuplot Prolog Version 5.1 (Oct 2015)
%
%/SuppressPDFMark true def
%
/M {moveto} bind def
/L {lineto} bind def
/R {rmoveto} bind def
/V {rlineto} bind def
/N {newpath moveto} bind def
/Z {closepath} bind def
/C {setrgbcolor} bind def
/f {rlineto fill} bind def
/g {setgray} bind def
/Gshow {show} def   % May be redefined later in the file to support UTF-8
/vpt2 vpt 2 mul def
/hpt2 hpt 2 mul def
/Lshow {currentpoint stroke M 0 vshift R 
	Blacktext {gsave 0 setgray textshow grestore} {textshow} ifelse} def
/Rshow {currentpoint stroke M dup stringwidth pop neg vshift R
	Blacktext {gsave 0 setgray textshow grestore} {textshow} ifelse} def
/Cshow {currentpoint stroke M dup stringwidth pop -2 div vshift R 
	Blacktext {gsave 0 setgray textshow grestore} {textshow} ifelse} def
/UP {dup vpt_ mul /vpt exch def hpt_ mul /hpt exch def
  /hpt2 hpt 2 mul def /vpt2 vpt 2 mul def} def
/DL {Color {setrgbcolor Solid {pop []} if 0 setdash}
 {pop pop pop 0 setgray Solid {pop []} if 0 setdash} ifelse} def
/BL {stroke userlinewidth 2 mul setlinewidth
	Rounded {1 setlinejoin 1 setlinecap} if} def
/AL {stroke userlinewidth 2 div setlinewidth
	Rounded {1 setlinejoin 1 setlinecap} if} def
/UL {dup gnulinewidth mul /userlinewidth exch def
	dup 1 lt {pop 1} if 10 mul /udl exch def} def
/PL {stroke userlinewidth setlinewidth
	Rounded {1 setlinejoin 1 setlinecap} if} def
3.8 setmiterlimit
% Classic Line colors (version 5.0)
/LCw {1 1 1} def
/LCb {0 0 0} def
/LCa {0 0 0} def
/LC0 {1 0 0} def
/LC1 {0 1 0} def
/LC2 {0 0 1} def
/LC3 {1 0 1} def
/LC4 {0 1 1} def
/LC5 {1 1 0} def
/LC6 {0 0 0} def
/LC7 {1 0.3 0} def
/LC8 {0.5 0.5 0.5} def
% Default dash patterns (version 5.0)
/LTB {BL [] LCb DL} def
/LTw {PL [] 1 setgray} def
/LTb {PL [] LCb DL} def
/LTa {AL [1 udl mul 2 udl mul] 0 setdash LCa setrgbcolor} def
/LT0 {PL [] LC0 DL} def
/LT1 {PL [2 dl1 3 dl2] LC1 DL} def
/LT2 {PL [1 dl1 1.5 dl2] LC2 DL} def
/LT3 {PL [6 dl1 2 dl2 1 dl1 2 dl2] LC3 DL} def
/LT4 {PL [1 dl1 2 dl2 6 dl1 2 dl2 1 dl1 2 dl2] LC4 DL} def
/LT5 {PL [4 dl1 2 dl2] LC5 DL} def
/LT6 {PL [1.5 dl1 1.5 dl2 1.5 dl1 1.5 dl2 1.5 dl1 6 dl2] LC6 DL} def
/LT7 {PL [3 dl1 3 dl2 1 dl1 3 dl2] LC7 DL} def
/LT8 {PL [2 dl1 2 dl2 2 dl1 6 dl2] LC8 DL} def
/SL {[] 0 setdash} def
/Pnt {stroke [] 0 setdash gsave 1 setlinecap M 0 0 V stroke grestore} def
/Dia {stroke [] 0 setdash 2 copy vpt add M
  hpt neg vpt neg V hpt vpt neg V
  hpt vpt V hpt neg vpt V closepath stroke
  Pnt} def
/Pls {stroke [] 0 setdash vpt sub M 0 vpt2 V
  currentpoint stroke M
  hpt neg vpt neg R hpt2 0 V stroke
 } def
/Box {stroke [] 0 setdash 2 copy exch hpt sub exch vpt add M
  0 vpt2 neg V hpt2 0 V 0 vpt2 V
  hpt2 neg 0 V closepath stroke
  Pnt} def
/Crs {stroke [] 0 setdash exch hpt sub exch vpt add M
  hpt2 vpt2 neg V currentpoint stroke M
  hpt2 neg 0 R hpt2 vpt2 V stroke} def
/TriU {stroke [] 0 setdash 2 copy vpt 1.12 mul add M
  hpt neg vpt -1.62 mul V
  hpt 2 mul 0 V
  hpt neg vpt 1.62 mul V closepath stroke
  Pnt} def
/Star {2 copy Pls Crs} def
/BoxF {stroke [] 0 setdash exch hpt sub exch vpt add M
  0 vpt2 neg V hpt2 0 V 0 vpt2 V
  hpt2 neg 0 V closepath fill} def
/TriUF {stroke [] 0 setdash vpt 1.12 mul add M
  hpt neg vpt -1.62 mul V
  hpt 2 mul 0 V
  hpt neg vpt 1.62 mul V closepath fill} def
/TriD {stroke [] 0 setdash 2 copy vpt 1.12 mul sub M
  hpt neg vpt 1.62 mul V
  hpt 2 mul 0 V
  hpt neg vpt -1.62 mul V closepath stroke
  Pnt} def
/TriDF {stroke [] 0 setdash vpt 1.12 mul sub M
  hpt neg vpt 1.62 mul V
  hpt 2 mul 0 V
  hpt neg vpt -1.62 mul V closepath fill} def
/DiaF {stroke [] 0 setdash vpt add M
  hpt neg vpt neg V hpt vpt neg V
  hpt vpt V hpt neg vpt V closepath fill} def
/Pent {stroke [] 0 setdash 2 copy gsave
  translate 0 hpt M 4 {72 rotate 0 hpt L} repeat
  closepath stroke grestore Pnt} def
/PentF {stroke [] 0 setdash gsave
  translate 0 hpt M 4 {72 rotate 0 hpt L} repeat
  closepath fill grestore} def
/Circle {stroke [] 0 setdash 2 copy
  hpt 0 360 arc stroke Pnt} def
/CircleF {stroke [] 0 setdash hpt 0 360 arc fill} def
/C0 {BL [] 0 setdash 2 copy moveto vpt 90 450 arc} bind def
/C1 {BL [] 0 setdash 2 copy moveto
	2 copy vpt 0 90 arc closepath fill
	vpt 0 360 arc closepath} bind def
/C2 {BL [] 0 setdash 2 copy moveto
	2 copy vpt 90 180 arc closepath fill
	vpt 0 360 arc closepath} bind def
/C3 {BL [] 0 setdash 2 copy moveto
	2 copy vpt 0 180 arc closepath fill
	vpt 0 360 arc closepath} bind def
/C4 {BL [] 0 setdash 2 copy moveto
	2 copy vpt 180 270 arc closepath fill
	vpt 0 360 arc closepath} bind def
/C5 {BL [] 0 setdash 2 copy moveto
	2 copy vpt 0 90 arc
	2 copy moveto
	2 copy vpt 180 270 arc closepath fill
	vpt 0 360 arc} bind def
/C6 {BL [] 0 setdash 2 copy moveto
	2 copy vpt 90 270 arc closepath fill
	vpt 0 360 arc closepath} bind def
/C7 {BL [] 0 setdash 2 copy moveto
	2 copy vpt 0 270 arc closepath fill
	vpt 0 360 arc closepath} bind def
/C8 {BL [] 0 setdash 2 copy moveto
	2 copy vpt 270 360 arc closepath fill
	vpt 0 360 arc closepath} bind def
/C9 {BL [] 0 setdash 2 copy moveto
	2 copy vpt 270 450 arc closepath fill
	vpt 0 360 arc closepath} bind def
/C10 {BL [] 0 setdash 2 copy 2 copy moveto vpt 270 360 arc closepath fill
	2 copy moveto
	2 copy vpt 90 180 arc closepath fill
	vpt 0 360 arc closepath} bind def
/C11 {BL [] 0 setdash 2 copy moveto
	2 copy vpt 0 180 arc closepath fill
	2 copy moveto
	2 copy vpt 270 360 arc closepath fill
	vpt 0 360 arc closepath} bind def
/C12 {BL [] 0 setdash 2 copy moveto
	2 copy vpt 180 360 arc closepath fill
	vpt 0 360 arc closepath} bind def
/C13 {BL [] 0 setdash 2 copy moveto
	2 copy vpt 0 90 arc closepath fill
	2 copy moveto
	2 copy vpt 180 360 arc closepath fill
	vpt 0 360 arc closepath} bind def
/C14 {BL [] 0 setdash 2 copy moveto
	2 copy vpt 90 360 arc closepath fill
	vpt 0 360 arc} bind def
/C15 {BL [] 0 setdash 2 copy vpt 0 360 arc closepath fill
	vpt 0 360 arc closepath} bind def
/Rec {newpath 4 2 roll moveto 1 index 0 rlineto 0 exch rlineto
	neg 0 rlineto closepath} bind def
/Square {dup Rec} bind def
/Bsquare {vpt sub exch vpt sub exch vpt2 Square} bind def
/S0 {BL [] 0 setdash 2 copy moveto 0 vpt rlineto BL Bsquare} bind def
/S1 {BL [] 0 setdash 2 copy vpt Square fill Bsquare} bind def
/S2 {BL [] 0 setdash 2 copy exch vpt sub exch vpt Square fill Bsquare} bind def
/S3 {BL [] 0 setdash 2 copy exch vpt sub exch vpt2 vpt Rec fill Bsquare} bind def
/S4 {BL [] 0 setdash 2 copy exch vpt sub exch vpt sub vpt Square fill Bsquare} bind def
/S5 {BL [] 0 setdash 2 copy 2 copy vpt Square fill
	exch vpt sub exch vpt sub vpt Square fill Bsquare} bind def
/S6 {BL [] 0 setdash 2 copy exch vpt sub exch vpt sub vpt vpt2 Rec fill Bsquare} bind def
/S7 {BL [] 0 setdash 2 copy exch vpt sub exch vpt sub vpt vpt2 Rec fill
	2 copy vpt Square fill Bsquare} bind def
/S8 {BL [] 0 setdash 2 copy vpt sub vpt Square fill Bsquare} bind def
/S9 {BL [] 0 setdash 2 copy vpt sub vpt vpt2 Rec fill Bsquare} bind def
/S10 {BL [] 0 setdash 2 copy vpt sub vpt Square fill 2 copy exch vpt sub exch vpt Square fill
	Bsquare} bind def
/S11 {BL [] 0 setdash 2 copy vpt sub vpt Square fill 2 copy exch vpt sub exch vpt2 vpt Rec fill
	Bsquare} bind def
/S12 {BL [] 0 setdash 2 copy exch vpt sub exch vpt sub vpt2 vpt Rec fill Bsquare} bind def
/S13 {BL [] 0 setdash 2 copy exch vpt sub exch vpt sub vpt2 vpt Rec fill
	2 copy vpt Square fill Bsquare} bind def
/S14 {BL [] 0 setdash 2 copy exch vpt sub exch vpt sub vpt2 vpt Rec fill
	2 copy exch vpt sub exch vpt Square fill Bsquare} bind def
/S15 {BL [] 0 setdash 2 copy Bsquare fill Bsquare} bind def
/D0 {gsave translate 45 rotate 0 0 S0 stroke grestore} bind def
/D1 {gsave translate 45 rotate 0 0 S1 stroke grestore} bind def
/D2 {gsave translate 45 rotate 0 0 S2 stroke grestore} bind def
/D3 {gsave translate 45 rotate 0 0 S3 stroke grestore} bind def
/D4 {gsave translate 45 rotate 0 0 S4 stroke grestore} bind def
/D5 {gsave translate 45 rotate 0 0 S5 stroke grestore} bind def
/D6 {gsave translate 45 rotate 0 0 S6 stroke grestore} bind def
/D7 {gsave translate 45 rotate 0 0 S7 stroke grestore} bind def
/D8 {gsave translate 45 rotate 0 0 S8 stroke grestore} bind def
/D9 {gsave translate 45 rotate 0 0 S9 stroke grestore} bind def
/D10 {gsave translate 45 rotate 0 0 S10 stroke grestore} bind def
/D11 {gsave translate 45 rotate 0 0 S11 stroke grestore} bind def
/D12 {gsave translate 45 rotate 0 0 S12 stroke grestore} bind def
/D13 {gsave translate 45 rotate 0 0 S13 stroke grestore} bind def
/D14 {gsave translate 45 rotate 0 0 S14 stroke grestore} bind def
/D15 {gsave translate 45 rotate 0 0 S15 stroke grestore} bind def
/DiaE {stroke [] 0 setdash vpt add M
  hpt neg vpt neg V hpt vpt neg V
  hpt vpt V hpt neg vpt V closepath stroke} def
/BoxE {stroke [] 0 setdash exch hpt sub exch vpt add M
  0 vpt2 neg V hpt2 0 V 0 vpt2 V
  hpt2 neg 0 V closepath stroke} def
/TriUE {stroke [] 0 setdash vpt 1.12 mul add M
  hpt neg vpt -1.62 mul V
  hpt 2 mul 0 V
  hpt neg vpt 1.62 mul V closepath stroke} def
/TriDE {stroke [] 0 setdash vpt 1.12 mul sub M
  hpt neg vpt 1.62 mul V
  hpt 2 mul 0 V
  hpt neg vpt -1.62 mul V closepath stroke} def
/PentE {stroke [] 0 setdash gsave
  translate 0 hpt M 4 {72 rotate 0 hpt L} repeat
  closepath stroke grestore} def
/CircE {stroke [] 0 setdash 
  hpt 0 360 arc stroke} def
/Opaque {gsave closepath 1 setgray fill grestore 0 setgray closepath} def
/DiaW {stroke [] 0 setdash vpt add M
  hpt neg vpt neg V hpt vpt neg V
  hpt vpt V hpt neg vpt V Opaque stroke} def
/BoxW {stroke [] 0 setdash exch hpt sub exch vpt add M
  0 vpt2 neg V hpt2 0 V 0 vpt2 V
  hpt2 neg 0 V Opaque stroke} def
/TriUW {stroke [] 0 setdash vpt 1.12 mul add M
  hpt neg vpt -1.62 mul V
  hpt 2 mul 0 V
  hpt neg vpt 1.62 mul V Opaque stroke} def
/TriDW {stroke [] 0 setdash vpt 1.12 mul sub M
  hpt neg vpt 1.62 mul V
  hpt 2 mul 0 V
  hpt neg vpt -1.62 mul V Opaque stroke} def
/PentW {stroke [] 0 setdash gsave
  translate 0 hpt M 4 {72 rotate 0 hpt L} repeat
  Opaque stroke grestore} def
/CircW {stroke [] 0 setdash 
  hpt 0 360 arc Opaque stroke} def
/BoxFill {gsave Rec 1 setgray fill grestore} def
/Density {
  /Fillden exch def
  currentrgbcolor
  /ColB exch def /ColG exch def /ColR exch def
  /ColR ColR Fillden mul Fillden sub 1 add def
  /ColG ColG Fillden mul Fillden sub 1 add def
  /ColB ColB Fillden mul Fillden sub 1 add def
  ColR ColG ColB setrgbcolor} def
/BoxColFill {gsave Rec PolyFill} def
/PolyFill {gsave Density fill grestore grestore} def
/h {rlineto rlineto rlineto gsave closepath fill grestore} bind def
%
% PostScript Level 1 Pattern Fill routine for rectangles
% Usage: x y w h s a XX PatternFill
%	x,y = lower left corner of box to be filled
%	w,h = width and height of box
%	  a = angle in degrees between lines and x-axis
%	 XX = 0/1 for no/yes cross-hatch
%
/PatternFill {gsave /PFa [ 9 2 roll ] def
  PFa 0 get PFa 2 get 2 div add PFa 1 get PFa 3 get 2 div add translate
  PFa 2 get -2 div PFa 3 get -2 div PFa 2 get PFa 3 get Rec
  TransparentPatterns {} {gsave 1 setgray fill grestore} ifelse
  clip
  currentlinewidth 0.5 mul setlinewidth
  /PFs PFa 2 get dup mul PFa 3 get dup mul add sqrt def
  0 0 M PFa 5 get rotate PFs -2 div dup translate
  0 1 PFs PFa 4 get div 1 add floor cvi
	{PFa 4 get mul 0 M 0 PFs V} for
  0 PFa 6 get ne {
	0 1 PFs PFa 4 get div 1 add floor cvi
	{PFa 4 get mul 0 2 1 roll M PFs 0 V} for
 } if
  stroke grestore} def
%
/languagelevel where
 {pop languagelevel} {1} ifelse
dup 2 lt
	{/InterpretLevel1 true def
	 /InterpretLevel3 false def}
	{/InterpretLevel1 Level1 def
	 2 gt
	    {/InterpretLevel3 Level3 def}
	    {/InterpretLevel3 false def}
	 ifelse }
 ifelse
%
% PostScript level 2 pattern fill definitions
%
/Level2PatternFill {
/Tile8x8 {/PaintType 2 /PatternType 1 /TilingType 1 /BBox [0 0 8 8] /XStep 8 /YStep 8}
	bind def
/KeepColor {currentrgbcolor [/Pattern /DeviceRGB] setcolorspace} bind def
<< Tile8x8
 /PaintProc {0.5 setlinewidth pop 0 0 M 8 8 L 0 8 M 8 0 L stroke} 
>> matrix makepattern
/Pat1 exch def
<< Tile8x8
 /PaintProc {0.5 setlinewidth pop 0 0 M 8 8 L 0 8 M 8 0 L stroke
	0 4 M 4 8 L 8 4 L 4 0 L 0 4 L stroke}
>> matrix makepattern
/Pat2 exch def
<< Tile8x8
 /PaintProc {0.5 setlinewidth pop 0 0 M 0 8 L
	8 8 L 8 0 L 0 0 L fill}
>> matrix makepattern
/Pat3 exch def
<< Tile8x8
 /PaintProc {0.5 setlinewidth pop -4 8 M 8 -4 L
	0 12 M 12 0 L stroke}
>> matrix makepattern
/Pat4 exch def
<< Tile8x8
 /PaintProc {0.5 setlinewidth pop -4 0 M 8 12 L
	0 -4 M 12 8 L stroke}
>> matrix makepattern
/Pat5 exch def
<< Tile8x8
 /PaintProc {0.5 setlinewidth pop -2 8 M 4 -4 L
	0 12 M 8 -4 L 4 12 M 10 0 L stroke}
>> matrix makepattern
/Pat6 exch def
<< Tile8x8
 /PaintProc {0.5 setlinewidth pop -2 0 M 4 12 L
	0 -4 M 8 12 L 4 -4 M 10 8 L stroke}
>> matrix makepattern
/Pat7 exch def
<< Tile8x8
 /PaintProc {0.5 setlinewidth pop 8 -2 M -4 4 L
	12 0 M -4 8 L 12 4 M 0 10 L stroke}
>> matrix makepattern
/Pat8 exch def
<< Tile8x8
 /PaintProc {0.5 setlinewidth pop 0 -2 M 12 4 L
	-4 0 M 12 8 L -4 4 M 8 10 L stroke}
>> matrix makepattern
/Pat9 exch def
/Pattern1 {PatternBgnd KeepColor Pat1 setpattern} bind def
/Pattern2 {PatternBgnd KeepColor Pat2 setpattern} bind def
/Pattern3 {PatternBgnd KeepColor Pat3 setpattern} bind def
/Pattern4 {PatternBgnd KeepColor Landscape {Pat5} {Pat4} ifelse setpattern} bind def
/Pattern5 {PatternBgnd KeepColor Landscape {Pat4} {Pat5} ifelse setpattern} bind def
/Pattern6 {PatternBgnd KeepColor Landscape {Pat9} {Pat6} ifelse setpattern} bind def
/Pattern7 {PatternBgnd KeepColor Landscape {Pat8} {Pat7} ifelse setpattern} bind def
} def
%
%
%End of PostScript Level 2 code
%
/PatternBgnd {
  TransparentPatterns {} {gsave 1 setgray fill grestore} ifelse
} def
%
% Substitute for Level 2 pattern fill codes with
% grayscale if Level 2 support is not selected.
%
/Level1PatternFill {
/Pattern1 {0.250 Density} bind def
/Pattern2 {0.500 Density} bind def
/Pattern3 {0.750 Density} bind def
/Pattern4 {0.125 Density} bind def
/Pattern5 {0.375 Density} bind def
/Pattern6 {0.625 Density} bind def
/Pattern7 {0.875 Density} bind def
} def
%
% Now test for support of Level 2 code
%
Level1 {Level1PatternFill} {Level2PatternFill} ifelse
%
/Symbol-Oblique /Symbol findfont [1 0 .167 1 0 0] makefont
dup length dict begin {1 index /FID eq {pop pop} {def} ifelse} forall
currentdict end definefont pop
%
/MFshow {
   { dup 5 get 3 ge
     { 5 get 3 eq {gsave} {grestore} ifelse }
     {dup dup 0 get findfont exch 1 get scalefont setfont
     [ currentpoint ] exch dup 2 get 0 exch R dup 5 get 2 ne {dup dup 6
     get exch 4 get {textshow} {stringwidth pop 0 R} ifelse }if dup 5 get 0 eq
     {dup 3 get {2 get neg 0 exch R pop} {pop aload pop M} ifelse} {dup 5
     get 1 eq {dup 2 get exch dup 3 get exch 6 get stringwidth pop -2 div
     dup 0 R} {dup 6 get stringwidth pop -2 div 0 R 6 get
     textshow 2 index {aload pop M neg 3 -1 roll neg R pop pop} {pop pop pop
     pop aload pop M} ifelse }ifelse }ifelse }
     ifelse }
   forall} def
/Gswidth {dup type /stringtype eq {stringwidth} {pop (n) stringwidth} ifelse} def
/MFwidth {0 exch { dup 5 get 3 ge { 5 get 3 eq { 0 } { pop } ifelse }
 {dup 3 get{dup dup 0 get findfont exch 1 get scalefont setfont
     6 get Gswidth pop add} {pop} ifelse} ifelse} forall} def
/MLshow { currentpoint stroke M
  0 exch R
  Blacktext {gsave 0 setgray MFshow grestore} {MFshow} ifelse } bind def
/MRshow { currentpoint stroke M
  exch dup MFwidth neg 3 -1 roll R
  Blacktext {gsave 0 setgray MFshow grestore} {MFshow} ifelse } bind def
/MCshow { currentpoint stroke M
  exch dup MFwidth -2 div 3 -1 roll R
  Blacktext {gsave 0 setgray MFshow grestore} {MFshow} ifelse } bind def
/XYsave    { [( ) 1 2 true false 3 ()] } bind def
/XYrestore { [( ) 1 2 true false 4 ()] } bind def
Level1 SuppressPDFMark or 
{} {
/SDict 10 dict def
systemdict /pdfmark known not {
  userdict /pdfmark systemdict /cleartomark get put
} if
SDict begin [
  /Title (exp1_L20K4_n\(K\).eps)
  /Subject (gnuplot plot)
  /Creator (gnuplot 5.0 patchlevel 3)
  /Author (parada)
%  /Producer (gnuplot)
%  /Keywords ()
  /CreationDate (Sun Sep 10 23:24:01 2017)
  /DOCINFO pdfmark
end
} ifelse
%
% Support for boxed text - Ethan A Merritt May 2005
%
/InitTextBox { userdict /TBy2 3 -1 roll put userdict /TBx2 3 -1 roll put
           userdict /TBy1 3 -1 roll put userdict /TBx1 3 -1 roll put
	   /Boxing true def } def
/ExtendTextBox { Boxing
    { gsave dup false charpath pathbbox
      dup TBy2 gt {userdict /TBy2 3 -1 roll put} {pop} ifelse
      dup TBx2 gt {userdict /TBx2 3 -1 roll put} {pop} ifelse
      dup TBy1 lt {userdict /TBy1 3 -1 roll put} {pop} ifelse
      dup TBx1 lt {userdict /TBx1 3 -1 roll put} {pop} ifelse
      grestore } if } def
/PopTextBox { newpath TBx1 TBxmargin sub TBy1 TBymargin sub M
               TBx1 TBxmargin sub TBy2 TBymargin add L
	       TBx2 TBxmargin add TBy2 TBymargin add L
	       TBx2 TBxmargin add TBy1 TBymargin sub L closepath } def
/DrawTextBox { PopTextBox stroke /Boxing false def} def
/FillTextBox { gsave PopTextBox 1 1 1 setrgbcolor fill grestore /Boxing false def} def
0 0 0 0 InitTextBox
/TBxmargin 20 def
/TBymargin 20 def
/Boxing false def
/textshow { ExtendTextBox Gshow } def
%
% redundant definitions for compatibility with prologue.ps older than 5.0.2
/LTB {BL [] LCb DL} def
/LTb {PL [] LCb DL} def
end
%%EndProlog
%%Page: 1 1
gnudict begin
gsave
doclip
50 50 translate
0.050 0.050 scale
0 setgray
newpath
(Times-Roman) findfont 950 scalefont setfont
BackgroundColor 0 lt 3 1 roll 0 lt exch 0 lt or or not {BackgroundColor C 1.000 0 0 20160.00 15120.00 BoxColFill} if
1.000 UL
LTb
LCb setrgbcolor
2.000 UL
LTb
0.75 0.75 0.75 C 3705 2090 M
11801 0 V
stroke
1.000 UL
LTb
LCb setrgbcolor
3705 2090 M
63 0 V
11738 0 R
-63 0 V
stroke
3135 2090 M
[ [(Times-Roman) 700.0 0.0 true true 0 ( 0)]
] -233.3 MRshow
1.000 UL
LTb
LCb setrgbcolor
2.000 UL
LTb
0.75 0.75 0.75 C 3705 4221 M
11801 0 V
stroke
1.000 UL
LTb
LCb setrgbcolor
3705 4221 M
63 0 V
11738 0 R
-63 0 V
stroke
3135 4221 M
[ [(Times-Roman) 700.0 0.0 true true 0 ( 20)]
] -233.3 MRshow
1.000 UL
LTb
LCb setrgbcolor
2.000 UL
LTb
0.75 0.75 0.75 C 3705 6352 M
11801 0 V
stroke
1.000 UL
LTb
LCb setrgbcolor
3705 6352 M
63 0 V
11738 0 R
-63 0 V
stroke
3135 6352 M
[ [(Times-Roman) 700.0 0.0 true true 0 ( 40)]
] -233.3 MRshow
1.000 UL
LTb
LCb setrgbcolor
2.000 UL
LTb
0.75 0.75 0.75 C 3705 8482 M
11801 0 V
stroke
1.000 UL
LTb
LCb setrgbcolor
3705 8482 M
63 0 V
11738 0 R
-63 0 V
stroke
3135 8482 M
[ [(Times-Roman) 700.0 0.0 true true 0 ( 60)]
] -233.3 MRshow
1.000 UL
LTb
LCb setrgbcolor
2.000 UL
LTb
0.75 0.75 0.75 C 3705 10613 M
11801 0 V
stroke
1.000 UL
LTb
LCb setrgbcolor
3705 10613 M
63 0 V
11738 0 R
-63 0 V
stroke
3135 10613 M
[ [(Times-Roman) 700.0 0.0 true true 0 ( 80)]
] -233.3 MRshow
1.000 UL
LTb
LCb setrgbcolor
2.000 UL
LTb
0.75 0.75 0.75 C 3705 12744 M
11801 0 V
stroke
1.000 UL
LTb
LCb setrgbcolor
3705 12744 M
63 0 V
11738 0 R
-63 0 V
stroke
3135 12744 M
[ [(Times-Roman) 700.0 0.0 true true 0 ( 100)]
] -233.3 MRshow
1.000 UL
LTb
LCb setrgbcolor
2.000 UL
LTb
0.75 0.75 0.75 C 3705 2090 M
0 10654 V
stroke
1.000 UL
LTb
LCb setrgbcolor
3705 2090 M
0 63 V
0 10591 R
0 -63 V
stroke
3705 1140 M
[ [(Times-Roman) 700.0 0.0 true true 0 ( 0)]
] -233.3 MCshow
1.000 UL
LTb
LCb setrgbcolor
2.000 UL
LTb
0.75 0.75 0.75 C 5110 2090 M
0 10654 V
stroke
1.000 UL
LTb
LCb setrgbcolor
5110 2090 M
0 63 V
0 10591 R
0 -63 V
stroke
5110 1140 M
[ [(Times-Roman) 700.0 0.0 true true 0 ( 5)]
] -233.3 MCshow
1.000 UL
LTb
LCb setrgbcolor
2.000 UL
LTb
0.75 0.75 0.75 C 6515 2090 M
0 10654 V
stroke
1.000 UL
LTb
LCb setrgbcolor
6515 2090 M
0 63 V
0 10591 R
0 -63 V
stroke
6515 1140 M
[ [(Times-Roman) 700.0 0.0 true true 0 ( 10)]
] -233.3 MCshow
1.000 UL
LTb
LCb setrgbcolor
2.000 UL
LTb
0.75 0.75 0.75 C 7920 2090 M
0 10654 V
stroke
1.000 UL
LTb
LCb setrgbcolor
7920 2090 M
0 63 V
0 10591 R
0 -63 V
stroke
7920 1140 M
[ [(Times-Roman) 700.0 0.0 true true 0 ( 15)]
] -233.3 MCshow
1.000 UL
LTb
LCb setrgbcolor
2.000 UL
LTb
0.75 0.75 0.75 C 9325 2090 M
0 10654 V
stroke
1.000 UL
LTb
LCb setrgbcolor
9325 2090 M
0 63 V
0 10591 R
0 -63 V
stroke
9325 1140 M
[ [(Times-Roman) 700.0 0.0 true true 0 ( 20)]
] -233.3 MCshow
1.000 UL
LTb
LCb setrgbcolor
2.000 UL
LTb
0.75 0.75 0.75 C 10729 2090 M
0 10654 V
stroke
1.000 UL
LTb
LCb setrgbcolor
10729 2090 M
0 63 V
0 10591 R
0 -63 V
stroke
10729 1140 M
[ [(Times-Roman) 700.0 0.0 true true 0 ( 25)]
] -233.3 MCshow
1.000 UL
LTb
LCb setrgbcolor
2.000 UL
LTb
0.75 0.75 0.75 C 12134 2090 M
0 10654 V
stroke
1.000 UL
LTb
LCb setrgbcolor
12134 2090 M
0 63 V
0 10591 R
0 -63 V
stroke
12134 1140 M
[ [(Times-Roman) 700.0 0.0 true true 0 ( 30)]
] -233.3 MCshow
1.000 UL
LTb
LCb setrgbcolor
2.000 UL
LTb
0.75 0.75 0.75 C 13539 2090 M
0 10654 V
stroke
1.000 UL
LTb
LCb setrgbcolor
13539 2090 M
0 63 V
0 10591 R
0 -63 V
stroke
13539 1140 M
[ [(Times-Roman) 700.0 0.0 true true 0 ( 35)]
] -233.3 MCshow
1.000 UL
LTb
LCb setrgbcolor
2.000 UL
LTb
0.75 0.75 0.75 C 14944 2090 M
0 10654 V
stroke
1.000 UL
LTb
LCb setrgbcolor
14944 2090 M
0 63 V
0 10591 R
0 -63 V
stroke
14944 1140 M
[ [(Times-Roman) 700.0 0.0 true true 0 ( 40)]
] -233.3 MCshow
1.000 UL
LTb
LCb setrgbcolor
1.000 UL
LTB
LCb setrgbcolor
3705 12744 N
0 -10654 V
11801 0 V
0 10654 V
-11801 0 V
Z stroke
1.000 UP
1.000 UL
LTb
LCb setrgbcolor
LCb setrgbcolor
1520 7417 M
currentpoint gsave translate -270 rotate 0 0 moveto
[ [(Times-Italic) 950.0 0.0 true true 0 (n\(K\) )]
[(Times-Roman) 950.0 0.0 true true 0 ([%])]
] -316.7 MCshow
grestore
LTb
LCb setrgbcolor
9605 665 M
[ [(Times-Italic) 950.0 0.0 true true 0 (t)]
] -316.7 MCshow
LTb
LCb setrgbcolor
9605 13694 M
[ [(Times-Italic) 950.0 0.0 true true 0 (L = 20; K = 4)]
] -316.7 MCshow
LCb setrgbcolor
18117 12474 M
[ [(Times-Italic) 600.0 0.0 true true 0 (p=)]
] -200.0 MCshow
LTb
% Begin plot #1
4.000 UP
4.000 UL
LTb
LC0 setrgbcolor
LCb setrgbcolor
17726 11874 M
[ [(Times-Roman) 600.0 0.0 true true 0 (0.1)]
] -200.0 MRshow
4.000 UP
4.000 UL
LTb
LC0 setrgbcolor
18086 11874 M
1143 0 V
3705 2091 M
281 0 V
281 0 V
281 0 V
281 0 V
281 0 V
281 1 V
281 0 V
281 1 V
281 2 V
281 4 V
281 4 V
281 7 V
281 8 V
281 10 V
281 12 V
281 15 V
281 17 V
281 18 V
281 19 V
281 20 V
281 20 V
280 20 V
281 19 V
281 17 V
281 16 V
281 14 V
281 13 V
281 10 V
281 9 V
281 6 V
281 6 V
281 4 V
281 2 V
281 2 V
281 2 V
281 1 V
281 0 V
281 0 V
281 1 V
281 0 V
281 0 V
281 0 V
3705 2091 Pls
3986 2091 Pls
4267 2091 Pls
4548 2091 Pls
4829 2091 Pls
5110 2091 Pls
5391 2092 Pls
5672 2092 Pls
5953 2093 Pls
6234 2095 Pls
6515 2099 Pls
6796 2103 Pls
7077 2110 Pls
7358 2118 Pls
7639 2128 Pls
7920 2140 Pls
8201 2155 Pls
8482 2172 Pls
8763 2190 Pls
9044 2209 Pls
9325 2229 Pls
9606 2249 Pls
9886 2269 Pls
10167 2288 Pls
10448 2305 Pls
10729 2321 Pls
11010 2335 Pls
11291 2348 Pls
11572 2358 Pls
11853 2367 Pls
12134 2373 Pls
12415 2379 Pls
12696 2383 Pls
12977 2385 Pls
13258 2387 Pls
13539 2389 Pls
13820 2390 Pls
14101 2390 Pls
14382 2390 Pls
14663 2391 Pls
14944 2391 Pls
15225 2391 Pls
15506 2391 Pls
18657 11874 Pls
% End plot #1
% Begin plot #2
4.000 UP
4.000 UL
LTb
LC1 setrgbcolor
LCb setrgbcolor
17726 11334 M
[ [(Times-Roman) 600.0 0.0 true true 0 (0.2)]
] -200.0 MRshow
4.000 UP
4.000 UL
LTb
LC1 setrgbcolor
18086 11334 M
1143 0 V
3705 2107 M
281 2 V
281 1 V
281 5 V
281 14 V
281 39 V
281 80 V
281 132 V
281 190 V
281 248 V
281 302 V
281 352 V
281 395 V
281 427 V
281 438 V
281 424 V
281 389 V
281 344 V
281 294 V
281 246 V
281 199 V
281 156 V
280 115 V
281 78 V
281 48 V
281 28 V
281 13 V
281 7 V
281 2 V
281 1 V
281 1 V
281 0 V
281 0 V
281 0 V
281 0 V
281 0 V
281 0 V
281 0 V
281 0 V
281 0 V
281 0 V
281 0 V
281 0 V
3705 2107 Crs
3986 2109 Crs
4267 2110 Crs
4548 2115 Crs
4829 2129 Crs
5110 2168 Crs
5391 2248 Crs
5672 2380 Crs
5953 2570 Crs
6234 2818 Crs
6515 3120 Crs
6796 3472 Crs
7077 3867 Crs
7358 4294 Crs
7639 4732 Crs
7920 5156 Crs
8201 5545 Crs
8482 5889 Crs
8763 6183 Crs
9044 6429 Crs
9325 6628 Crs
9606 6784 Crs
9886 6899 Crs
10167 6977 Crs
10448 7025 Crs
10729 7053 Crs
11010 7066 Crs
11291 7073 Crs
11572 7075 Crs
11853 7076 Crs
12134 7077 Crs
12415 7077 Crs
12696 7077 Crs
12977 7077 Crs
13258 7077 Crs
13539 7077 Crs
13820 7077 Crs
14101 7077 Crs
14382 7077 Crs
14663 7077 Crs
14944 7077 Crs
15225 7077 Crs
15506 7077 Crs
18657 11334 Crs
% End plot #2
% Begin plot #3
4.000 UP
4.000 UL
LTb
LC2 setrgbcolor
LCb setrgbcolor
17726 10794 M
[ [(Times-Roman) 600.0 0.0 true true 0 (0.3)]
] -200.0 MRshow
4.000 UP
4.000 UL
LTb
LC2 setrgbcolor
18086 10794 M
1143 0 V
3705 2177 M
281 26 V
281 45 V
281 128 V
281 344 V
281 650 V
281 917 V
281 1083 V
281 1151 V
281 1137 V
281 1059 V
281 934 V
281 779 V
281 594 V
281 419 V
281 287 V
281 198 V
281 138 V
281 97 V
281 66 V
281 44 V
281 26 V
280 13 V
281 4 V
281 1 V
281 1 V
281 0 V
281 0 V
281 0 V
281 0 V
281 0 V
281 0 V
281 0 V
281 0 V
281 0 V
281 0 V
281 0 V
281 0 V
281 0 V
281 0 V
281 0 V
281 0 V
281 0 V
3705 2177 Star
3986 2203 Star
4267 2248 Star
4548 2376 Star
4829 2720 Star
5110 3370 Star
5391 4287 Star
5672 5370 Star
5953 6521 Star
6234 7658 Star
6515 8717 Star
6796 9651 Star
7077 10430 Star
7358 11024 Star
7639 11443 Star
7920 11730 Star
8201 11928 Star
8482 12066 Star
8763 12163 Star
9044 12229 Star
9325 12273 Star
9606 12299 Star
9886 12312 Star
10167 12316 Star
10448 12317 Star
10729 12318 Star
11010 12318 Star
11291 12318 Star
11572 12318 Star
11853 12318 Star
12134 12318 Star
12415 12318 Star
12696 12318 Star
12977 12318 Star
13258 12318 Star
13539 12318 Star
13820 12318 Star
14101 12318 Star
14382 12318 Star
14663 12318 Star
14944 12318 Star
15225 12318 Star
15506 12318 Star
18657 10794 Star
% End plot #3
% Begin plot #4
4.000 UP
4.000 UL
LTb
LC3 setrgbcolor
LCb setrgbcolor
17726 10254 M
[ [(Times-Roman) 600.0 0.0 true true 0 (0.4)]
] -200.0 MRshow
4.000 UP
4.000 UL
LTb
LC3 setrgbcolor
18086 10254 M
1143 0 V
3705 2363 M
281 162 V
281 356 V
281 916 V
281 1712 V
281 2069 V
281 1838 V
281 1364 V
281 884 V
281 506 V
281 256 V
281 115 V
281 44 V
281 16 V
281 6 V
281 2 V
281 1 V
281 1 V
281 0 V
281 0 V
281 0 V
281 0 V
280 0 V
281 0 V
281 0 V
281 0 V
281 0 V
281 0 V
281 0 V
281 0 V
281 0 V
281 0 V
281 0 V
281 0 V
281 0 V
281 0 V
281 0 V
281 0 V
281 0 V
281 0 V
281 0 V
281 0 V
281 0 V
3705 2363 Box
3986 2525 Box
4267 2881 Box
4548 3797 Box
4829 5509 Box
5110 7578 Box
5391 9416 Box
5672 10780 Box
5953 11664 Box
6234 12170 Box
6515 12426 Box
6796 12541 Box
7077 12585 Box
7358 12601 Box
7639 12607 Box
7920 12609 Box
8201 12610 Box
8482 12611 Box
8763 12611 Box
9044 12611 Box
9325 12611 Box
9606 12611 Box
9886 12611 Box
10167 12611 Box
10448 12611 Box
10729 12611 Box
11010 12611 Box
11291 12611 Box
11572 12611 Box
11853 12611 Box
12134 12611 Box
12415 12611 Box
12696 12611 Box
12977 12611 Box
13258 12611 Box
13539 12611 Box
13820 12611 Box
14101 12611 Box
14382 12611 Box
14663 12611 Box
14944 12611 Box
15225 12611 Box
15506 12611 Box
18657 10254 Box
% End plot #4
% Begin plot #5
4.000 UP
4.000 UL
LTb
LC4 setrgbcolor
LCb setrgbcolor
17726 9714 M
[ [(Times-Roman) 600.0 0.0 true true 0 (0.5)]
] -200.0 MRshow
4.000 UP
4.000 UL
LTb
LC4 setrgbcolor
18086 9714 M
1143 0 V
3705 2755 M
281 606 V
281 1372 V
281 2569 V
281 2720 V
281 1621 V
281 640 V
281 191 V
281 44 V
281 8 V
281 1 V
281 0 V
281 0 V
281 0 V
281 0 V
281 0 V
281 0 V
281 0 V
281 0 V
281 0 V
281 0 V
281 0 V
280 0 V
281 0 V
281 0 V
281 0 V
281 0 V
281 0 V
281 0 V
281 0 V
281 0 V
281 0 V
281 0 V
281 0 V
281 0 V
281 0 V
281 0 V
281 0 V
281 0 V
281 0 V
281 0 V
281 0 V
281 0 V
3705 2755 BoxF
3986 3361 BoxF
4267 4733 BoxF
4548 7302 BoxF
4829 10022 BoxF
5110 11643 BoxF
5391 12283 BoxF
5672 12474 BoxF
5953 12518 BoxF
6234 12526 BoxF
6515 12527 BoxF
6796 12527 BoxF
7077 12527 BoxF
7358 12527 BoxF
7639 12527 BoxF
7920 12527 BoxF
8201 12527 BoxF
8482 12527 BoxF
8763 12527 BoxF
9044 12527 BoxF
9325 12527 BoxF
9606 12527 BoxF
9886 12527 BoxF
10167 12527 BoxF
10448 12527 BoxF
10729 12527 BoxF
11010 12527 BoxF
11291 12527 BoxF
11572 12527 BoxF
11853 12527 BoxF
12134 12527 BoxF
12415 12527 BoxF
12696 12527 BoxF
12977 12527 BoxF
13258 12527 BoxF
13539 12527 BoxF
13820 12527 BoxF
14101 12527 BoxF
14382 12527 BoxF
14663 12527 BoxF
14944 12527 BoxF
15225 12527 BoxF
15506 12527 BoxF
18657 9714 BoxF
% End plot #5
% Begin plot #6
4.000 UP
4.000 UL
LTb
LC5 setrgbcolor
LCb setrgbcolor
17726 9174 M
[ [(Times-Roman) 600.0 0.0 true true 0 (0.6)]
] -200.0 MRshow
4.000 UP
4.000 UL
LTb
LC5 setrgbcolor
18086 9174 M
1143 0 V
3705 3468 M
281 1566 V
281 2893 V
281 2998 V
281 1278 V
281 246 V
281 29 V
281 4 V
281 0 V
281 0 V
281 0 V
281 0 V
281 0 V
281 0 V
281 0 V
281 0 V
281 0 V
281 0 V
281 0 V
281 0 V
281 0 V
281 0 V
280 0 V
281 0 V
281 0 V
281 0 V
281 0 V
281 0 V
281 0 V
281 0 V
281 0 V
281 0 V
281 0 V
281 0 V
281 0 V
281 0 V
281 0 V
281 0 V
281 0 V
281 0 V
281 0 V
281 0 V
281 0 V
3705 3468 Circle
3986 5034 Circle
4267 7927 Circle
4548 10925 Circle
4829 12203 Circle
5110 12449 Circle
5391 12478 Circle
5672 12482 Circle
5953 12482 Circle
6234 12482 Circle
6515 12482 Circle
6796 12482 Circle
7077 12482 Circle
7358 12482 Circle
7639 12482 Circle
7920 12482 Circle
8201 12482 Circle
8482 12482 Circle
8763 12482 Circle
9044 12482 Circle
9325 12482 Circle
9606 12482 Circle
9886 12482 Circle
10167 12482 Circle
10448 12482 Circle
10729 12482 Circle
11010 12482 Circle
11291 12482 Circle
11572 12482 Circle
11853 12482 Circle
12134 12482 Circle
12415 12482 Circle
12696 12482 Circle
12977 12482 Circle
13258 12482 Circle
13539 12482 Circle
13820 12482 Circle
14101 12482 Circle
14382 12482 Circle
14663 12482 Circle
14944 12482 Circle
15225 12482 Circle
15506 12482 Circle
18657 9174 Circle
% End plot #6
% Begin plot #7
4.000 UP
4.000 UL
LTb
LC6 setrgbcolor
LCb setrgbcolor
17726 8634 M
[ [(Times-Roman) 600.0 0.0 true true 0 (0.7)]
] -200.0 MRshow
4.000 UP
4.000 UL
LTb
LC6 setrgbcolor
18086 8634 M
1143 0 V
3705 4649 M
281 2923 V
281 3327 V
281 1358 V
281 193 V
281 22 V
281 4 V
281 1 V
281 0 V
281 0 V
281 0 V
281 0 V
281 0 V
281 0 V
281 0 V
281 0 V
281 0 V
281 0 V
281 0 V
281 0 V
281 0 V
281 0 V
280 0 V
281 0 V
281 0 V
281 0 V
281 0 V
281 0 V
281 0 V
281 0 V
281 0 V
281 0 V
281 0 V
281 0 V
281 0 V
281 0 V
281 0 V
281 0 V
281 0 V
281 0 V
281 0 V
281 0 V
281 0 V
3705 4649 CircleF
3986 7572 CircleF
4267 10899 CircleF
4548 12257 CircleF
4829 12450 CircleF
5110 12472 CircleF
5391 12476 CircleF
5672 12477 CircleF
5953 12477 CircleF
6234 12477 CircleF
6515 12477 CircleF
6796 12477 CircleF
7077 12477 CircleF
7358 12477 CircleF
7639 12477 CircleF
7920 12477 CircleF
8201 12477 CircleF
8482 12477 CircleF
8763 12477 CircleF
9044 12477 CircleF
9325 12477 CircleF
9606 12477 CircleF
9886 12477 CircleF
10167 12477 CircleF
10448 12477 CircleF
10729 12477 CircleF
11010 12477 CircleF
11291 12477 CircleF
11572 12477 CircleF
11853 12477 CircleF
12134 12477 CircleF
12415 12477 CircleF
12696 12477 CircleF
12977 12477 CircleF
13258 12477 CircleF
13539 12477 CircleF
13820 12477 CircleF
14101 12477 CircleF
14382 12477 CircleF
14663 12477 CircleF
14944 12477 CircleF
15225 12477 CircleF
15506 12477 CircleF
18657 8634 CircleF
% End plot #7
% Begin plot #8
4.000 UP
4.000 UL
LTb
LC7 setrgbcolor
LCb setrgbcolor
17726 8094 M
[ [(Times-Roman) 600.0 0.0 true true 0 (0.8)]
] -200.0 MRshow
4.000 UP
4.000 UL
LTb
LC7 setrgbcolor
18086 8094 M
1143 0 V
3705 6453 M
281 3834 V
281 1927 V
281 272 V
281 32 V
281 4 V
281 1 V
281 0 V
281 0 V
281 0 V
281 0 V
281 0 V
281 0 V
281 0 V
281 0 V
281 0 V
281 0 V
281 0 V
281 0 V
281 0 V
281 0 V
281 0 V
280 0 V
281 0 V
281 0 V
281 0 V
281 0 V
281 0 V
281 0 V
281 0 V
281 0 V
281 0 V
281 0 V
281 0 V
281 0 V
281 0 V
281 0 V
281 0 V
281 0 V
281 0 V
281 0 V
281 0 V
281 0 V
3705 6453 TriU
3986 10287 TriU
4267 12214 TriU
4548 12486 TriU
4829 12518 TriU
5110 12522 TriU
5391 12523 TriU
5672 12523 TriU
5953 12523 TriU
6234 12523 TriU
6515 12523 TriU
6796 12523 TriU
7077 12523 TriU
7358 12523 TriU
7639 12523 TriU
7920 12523 TriU
8201 12523 TriU
8482 12523 TriU
8763 12523 TriU
9044 12523 TriU
9325 12523 TriU
9606 12523 TriU
9886 12523 TriU
10167 12523 TriU
10448 12523 TriU
10729 12523 TriU
11010 12523 TriU
11291 12523 TriU
11572 12523 TriU
11853 12523 TriU
12134 12523 TriU
12415 12523 TriU
12696 12523 TriU
12977 12523 TriU
13258 12523 TriU
13539 12523 TriU
13820 12523 TriU
14101 12523 TriU
14382 12523 TriU
14663 12523 TriU
14944 12523 TriU
15225 12523 TriU
15506 12523 TriU
18657 8094 TriU
% End plot #8
% Begin plot #9
4.000 UP
4.000 UL
LTb
LC8 setrgbcolor
LCb setrgbcolor
17726 7554 M
[ [(Times-Roman) 600.0 0.0 true true 0 (0.9)]
] -200.0 MRshow
4.000 UP
4.000 UL
LTb
LC8 setrgbcolor
18086 7554 M
1143 0 V
3705 9085 M
281 3060 V
281 430 V
281 26 V
281 2 V
281 0 V
281 0 V
281 0 V
281 0 V
281 0 V
281 0 V
281 0 V
281 0 V
281 0 V
281 0 V
281 0 V
281 0 V
281 0 V
281 0 V
281 0 V
281 0 V
281 0 V
280 0 V
281 0 V
281 0 V
281 0 V
281 0 V
281 0 V
281 0 V
281 0 V
281 0 V
281 0 V
281 0 V
281 0 V
281 0 V
281 0 V
281 0 V
281 0 V
281 0 V
281 0 V
281 0 V
281 0 V
281 0 V
3705 9085 TriUF
3986 12145 TriUF
4267 12575 TriUF
4548 12601 TriUF
4829 12603 TriUF
5110 12603 TriUF
5391 12603 TriUF
5672 12603 TriUF
5953 12603 TriUF
6234 12603 TriUF
6515 12603 TriUF
6796 12603 TriUF
7077 12603 TriUF
7358 12603 TriUF
7639 12603 TriUF
7920 12603 TriUF
8201 12603 TriUF
8482 12603 TriUF
8763 12603 TriUF
9044 12603 TriUF
9325 12603 TriUF
9606 12603 TriUF
9886 12603 TriUF
10167 12603 TriUF
10448 12603 TriUF
10729 12603 TriUF
11010 12603 TriUF
11291 12603 TriUF
11572 12603 TriUF
11853 12603 TriUF
12134 12603 TriUF
12415 12603 TriUF
12696 12603 TriUF
12977 12603 TriUF
13258 12603 TriUF
13539 12603 TriUF
13820 12603 TriUF
14101 12603 TriUF
14382 12603 TriUF
14663 12603 TriUF
14944 12603 TriUF
15225 12603 TriUF
15506 12603 TriUF
18657 7554 TriUF
% End plot #9
2.000 UL
LTb
LCb setrgbcolor
1.000 UL
LTB
LCb setrgbcolor
3705 12744 N
0 -10654 V
11801 0 V
0 10654 V
-11801 0 V
Z stroke
1.000 UP
1.000 UL
LTb
LCb setrgbcolor
stroke
grestore
end
showpage
%%Trailer
%%DocumentFonts: Times-Italic Times-Roman
