%!PS-Adobe-2.0 EPSF-2.0
%%Title: VonNeumann_K4.eps
%%Creator: gnuplot 5.0 patchlevel 3
%%CreationDate: Mon Sep 11 17:51:05 2017
%%DocumentFonts: (atend)
%%BoundingBox: 50 50 1202 914
%%EndComments
%%BeginProlog
/gnudict 256 dict def
gnudict begin
%
% The following true/false flags may be edited by hand if desired.
% The unit line width and grayscale image gamma correction may also be changed.
%
/Color true def
/Blacktext false def
/Solid false def
/Dashlength 1 def
/Landscape false def
/Level1 false def
/Level3 false def
/Rounded false def
/ClipToBoundingBox false def
/SuppressPDFMark false def
/TransparentPatterns false def
/gnulinewidth 5.000 def
/userlinewidth gnulinewidth def
/Gamma 1.0 def
/BackgroundColor {-1.000 -1.000 -1.000} def
%
/vshift -316 def
/dl1 {
  10.0 Dashlength userlinewidth gnulinewidth div mul mul mul
  Rounded { currentlinewidth 0.75 mul sub dup 0 le { pop 0.01 } if } if
} def
/dl2 {
  10.0 Dashlength userlinewidth gnulinewidth div mul mul mul
  Rounded { currentlinewidth 0.75 mul add } if
} def
/hpt_ 31.5 def
/vpt_ 31.5 def
/hpt hpt_ def
/vpt vpt_ def
/doclip {
  ClipToBoundingBox {
    newpath 50 50 moveto 1202 50 lineto 1202 914 lineto 50 914 lineto closepath
    clip
  } if
} def
%
% Gnuplot Prolog Version 5.1 (Oct 2015)
%
%/SuppressPDFMark true def
%
/M {moveto} bind def
/L {lineto} bind def
/R {rmoveto} bind def
/V {rlineto} bind def
/N {newpath moveto} bind def
/Z {closepath} bind def
/C {setrgbcolor} bind def
/f {rlineto fill} bind def
/g {setgray} bind def
/Gshow {show} def   % May be redefined later in the file to support UTF-8
/vpt2 vpt 2 mul def
/hpt2 hpt 2 mul def
/Lshow {currentpoint stroke M 0 vshift R 
	Blacktext {gsave 0 setgray textshow grestore} {textshow} ifelse} def
/Rshow {currentpoint stroke M dup stringwidth pop neg vshift R
	Blacktext {gsave 0 setgray textshow grestore} {textshow} ifelse} def
/Cshow {currentpoint stroke M dup stringwidth pop -2 div vshift R 
	Blacktext {gsave 0 setgray textshow grestore} {textshow} ifelse} def
/UP {dup vpt_ mul /vpt exch def hpt_ mul /hpt exch def
  /hpt2 hpt 2 mul def /vpt2 vpt 2 mul def} def
/DL {Color {setrgbcolor Solid {pop []} if 0 setdash}
 {pop pop pop 0 setgray Solid {pop []} if 0 setdash} ifelse} def
/BL {stroke userlinewidth 2 mul setlinewidth
	Rounded {1 setlinejoin 1 setlinecap} if} def
/AL {stroke userlinewidth 2 div setlinewidth
	Rounded {1 setlinejoin 1 setlinecap} if} def
/UL {dup gnulinewidth mul /userlinewidth exch def
	dup 1 lt {pop 1} if 10 mul /udl exch def} def
/PL {stroke userlinewidth setlinewidth
	Rounded {1 setlinejoin 1 setlinecap} if} def
3.8 setmiterlimit
% Classic Line colors (version 5.0)
/LCw {1 1 1} def
/LCb {0 0 0} def
/LCa {0 0 0} def
/LC0 {1 0 0} def
/LC1 {0 1 0} def
/LC2 {0 0 1} def
/LC3 {1 0 1} def
/LC4 {0 1 1} def
/LC5 {1 1 0} def
/LC6 {0 0 0} def
/LC7 {1 0.3 0} def
/LC8 {0.5 0.5 0.5} def
% Default dash patterns (version 5.0)
/LTB {BL [] LCb DL} def
/LTw {PL [] 1 setgray} def
/LTb {PL [] LCb DL} def
/LTa {AL [1 udl mul 2 udl mul] 0 setdash LCa setrgbcolor} def
/LT0 {PL [] LC0 DL} def
/LT1 {PL [2 dl1 3 dl2] LC1 DL} def
/LT2 {PL [1 dl1 1.5 dl2] LC2 DL} def
/LT3 {PL [6 dl1 2 dl2 1 dl1 2 dl2] LC3 DL} def
/LT4 {PL [1 dl1 2 dl2 6 dl1 2 dl2 1 dl1 2 dl2] LC4 DL} def
/LT5 {PL [4 dl1 2 dl2] LC5 DL} def
/LT6 {PL [1.5 dl1 1.5 dl2 1.5 dl1 1.5 dl2 1.5 dl1 6 dl2] LC6 DL} def
/LT7 {PL [3 dl1 3 dl2 1 dl1 3 dl2] LC7 DL} def
/LT8 {PL [2 dl1 2 dl2 2 dl1 6 dl2] LC8 DL} def
/SL {[] 0 setdash} def
/Pnt {stroke [] 0 setdash gsave 1 setlinecap M 0 0 V stroke grestore} def
/Dia {stroke [] 0 setdash 2 copy vpt add M
  hpt neg vpt neg V hpt vpt neg V
  hpt vpt V hpt neg vpt V closepath stroke
  Pnt} def
/Pls {stroke [] 0 setdash vpt sub M 0 vpt2 V
  currentpoint stroke M
  hpt neg vpt neg R hpt2 0 V stroke
 } def
/Box {stroke [] 0 setdash 2 copy exch hpt sub exch vpt add M
  0 vpt2 neg V hpt2 0 V 0 vpt2 V
  hpt2 neg 0 V closepath stroke
  Pnt} def
/Crs {stroke [] 0 setdash exch hpt sub exch vpt add M
  hpt2 vpt2 neg V currentpoint stroke M
  hpt2 neg 0 R hpt2 vpt2 V stroke} def
/TriU {stroke [] 0 setdash 2 copy vpt 1.12 mul add M
  hpt neg vpt -1.62 mul V
  hpt 2 mul 0 V
  hpt neg vpt 1.62 mul V closepath stroke
  Pnt} def
/Star {2 copy Pls Crs} def
/BoxF {stroke [] 0 setdash exch hpt sub exch vpt add M
  0 vpt2 neg V hpt2 0 V 0 vpt2 V
  hpt2 neg 0 V closepath fill} def
/TriUF {stroke [] 0 setdash vpt 1.12 mul add M
  hpt neg vpt -1.62 mul V
  hpt 2 mul 0 V
  hpt neg vpt 1.62 mul V closepath fill} def
/TriD {stroke [] 0 setdash 2 copy vpt 1.12 mul sub M
  hpt neg vpt 1.62 mul V
  hpt 2 mul 0 V
  hpt neg vpt -1.62 mul V closepath stroke
  Pnt} def
/TriDF {stroke [] 0 setdash vpt 1.12 mul sub M
  hpt neg vpt 1.62 mul V
  hpt 2 mul 0 V
  hpt neg vpt -1.62 mul V closepath fill} def
/DiaF {stroke [] 0 setdash vpt add M
  hpt neg vpt neg V hpt vpt neg V
  hpt vpt V hpt neg vpt V closepath fill} def
/Pent {stroke [] 0 setdash 2 copy gsave
  translate 0 hpt M 4 {72 rotate 0 hpt L} repeat
  closepath stroke grestore Pnt} def
/PentF {stroke [] 0 setdash gsave
  translate 0 hpt M 4 {72 rotate 0 hpt L} repeat
  closepath fill grestore} def
/Circle {stroke [] 0 setdash 2 copy
  hpt 0 360 arc stroke Pnt} def
/CircleF {stroke [] 0 setdash hpt 0 360 arc fill} def
/C0 {BL [] 0 setdash 2 copy moveto vpt 90 450 arc} bind def
/C1 {BL [] 0 setdash 2 copy moveto
	2 copy vpt 0 90 arc closepath fill
	vpt 0 360 arc closepath} bind def
/C2 {BL [] 0 setdash 2 copy moveto
	2 copy vpt 90 180 arc closepath fill
	vpt 0 360 arc closepath} bind def
/C3 {BL [] 0 setdash 2 copy moveto
	2 copy vpt 0 180 arc closepath fill
	vpt 0 360 arc closepath} bind def
/C4 {BL [] 0 setdash 2 copy moveto
	2 copy vpt 180 270 arc closepath fill
	vpt 0 360 arc closepath} bind def
/C5 {BL [] 0 setdash 2 copy moveto
	2 copy vpt 0 90 arc
	2 copy moveto
	2 copy vpt 180 270 arc closepath fill
	vpt 0 360 arc} bind def
/C6 {BL [] 0 setdash 2 copy moveto
	2 copy vpt 90 270 arc closepath fill
	vpt 0 360 arc closepath} bind def
/C7 {BL [] 0 setdash 2 copy moveto
	2 copy vpt 0 270 arc closepath fill
	vpt 0 360 arc closepath} bind def
/C8 {BL [] 0 setdash 2 copy moveto
	2 copy vpt 270 360 arc closepath fill
	vpt 0 360 arc closepath} bind def
/C9 {BL [] 0 setdash 2 copy moveto
	2 copy vpt 270 450 arc closepath fill
	vpt 0 360 arc closepath} bind def
/C10 {BL [] 0 setdash 2 copy 2 copy moveto vpt 270 360 arc closepath fill
	2 copy moveto
	2 copy vpt 90 180 arc closepath fill
	vpt 0 360 arc closepath} bind def
/C11 {BL [] 0 setdash 2 copy moveto
	2 copy vpt 0 180 arc closepath fill
	2 copy moveto
	2 copy vpt 270 360 arc closepath fill
	vpt 0 360 arc closepath} bind def
/C12 {BL [] 0 setdash 2 copy moveto
	2 copy vpt 180 360 arc closepath fill
	vpt 0 360 arc closepath} bind def
/C13 {BL [] 0 setdash 2 copy moveto
	2 copy vpt 0 90 arc closepath fill
	2 copy moveto
	2 copy vpt 180 360 arc closepath fill
	vpt 0 360 arc closepath} bind def
/C14 {BL [] 0 setdash 2 copy moveto
	2 copy vpt 90 360 arc closepath fill
	vpt 0 360 arc} bind def
/C15 {BL [] 0 setdash 2 copy vpt 0 360 arc closepath fill
	vpt 0 360 arc closepath} bind def
/Rec {newpath 4 2 roll moveto 1 index 0 rlineto 0 exch rlineto
	neg 0 rlineto closepath} bind def
/Square {dup Rec} bind def
/Bsquare {vpt sub exch vpt sub exch vpt2 Square} bind def
/S0 {BL [] 0 setdash 2 copy moveto 0 vpt rlineto BL Bsquare} bind def
/S1 {BL [] 0 setdash 2 copy vpt Square fill Bsquare} bind def
/S2 {BL [] 0 setdash 2 copy exch vpt sub exch vpt Square fill Bsquare} bind def
/S3 {BL [] 0 setdash 2 copy exch vpt sub exch vpt2 vpt Rec fill Bsquare} bind def
/S4 {BL [] 0 setdash 2 copy exch vpt sub exch vpt sub vpt Square fill Bsquare} bind def
/S5 {BL [] 0 setdash 2 copy 2 copy vpt Square fill
	exch vpt sub exch vpt sub vpt Square fill Bsquare} bind def
/S6 {BL [] 0 setdash 2 copy exch vpt sub exch vpt sub vpt vpt2 Rec fill Bsquare} bind def
/S7 {BL [] 0 setdash 2 copy exch vpt sub exch vpt sub vpt vpt2 Rec fill
	2 copy vpt Square fill Bsquare} bind def
/S8 {BL [] 0 setdash 2 copy vpt sub vpt Square fill Bsquare} bind def
/S9 {BL [] 0 setdash 2 copy vpt sub vpt vpt2 Rec fill Bsquare} bind def
/S10 {BL [] 0 setdash 2 copy vpt sub vpt Square fill 2 copy exch vpt sub exch vpt Square fill
	Bsquare} bind def
/S11 {BL [] 0 setdash 2 copy vpt sub vpt Square fill 2 copy exch vpt sub exch vpt2 vpt Rec fill
	Bsquare} bind def
/S12 {BL [] 0 setdash 2 copy exch vpt sub exch vpt sub vpt2 vpt Rec fill Bsquare} bind def
/S13 {BL [] 0 setdash 2 copy exch vpt sub exch vpt sub vpt2 vpt Rec fill
	2 copy vpt Square fill Bsquare} bind def
/S14 {BL [] 0 setdash 2 copy exch vpt sub exch vpt sub vpt2 vpt Rec fill
	2 copy exch vpt sub exch vpt Square fill Bsquare} bind def
/S15 {BL [] 0 setdash 2 copy Bsquare fill Bsquare} bind def
/D0 {gsave translate 45 rotate 0 0 S0 stroke grestore} bind def
/D1 {gsave translate 45 rotate 0 0 S1 stroke grestore} bind def
/D2 {gsave translate 45 rotate 0 0 S2 stroke grestore} bind def
/D3 {gsave translate 45 rotate 0 0 S3 stroke grestore} bind def
/D4 {gsave translate 45 rotate 0 0 S4 stroke grestore} bind def
/D5 {gsave translate 45 rotate 0 0 S5 stroke grestore} bind def
/D6 {gsave translate 45 rotate 0 0 S6 stroke grestore} bind def
/D7 {gsave translate 45 rotate 0 0 S7 stroke grestore} bind def
/D8 {gsave translate 45 rotate 0 0 S8 stroke grestore} bind def
/D9 {gsave translate 45 rotate 0 0 S9 stroke grestore} bind def
/D10 {gsave translate 45 rotate 0 0 S10 stroke grestore} bind def
/D11 {gsave translate 45 rotate 0 0 S11 stroke grestore} bind def
/D12 {gsave translate 45 rotate 0 0 S12 stroke grestore} bind def
/D13 {gsave translate 45 rotate 0 0 S13 stroke grestore} bind def
/D14 {gsave translate 45 rotate 0 0 S14 stroke grestore} bind def
/D15 {gsave translate 45 rotate 0 0 S15 stroke grestore} bind def
/DiaE {stroke [] 0 setdash vpt add M
  hpt neg vpt neg V hpt vpt neg V
  hpt vpt V hpt neg vpt V closepath stroke} def
/BoxE {stroke [] 0 setdash exch hpt sub exch vpt add M
  0 vpt2 neg V hpt2 0 V 0 vpt2 V
  hpt2 neg 0 V closepath stroke} def
/TriUE {stroke [] 0 setdash vpt 1.12 mul add M
  hpt neg vpt -1.62 mul V
  hpt 2 mul 0 V
  hpt neg vpt 1.62 mul V closepath stroke} def
/TriDE {stroke [] 0 setdash vpt 1.12 mul sub M
  hpt neg vpt 1.62 mul V
  hpt 2 mul 0 V
  hpt neg vpt -1.62 mul V closepath stroke} def
/PentE {stroke [] 0 setdash gsave
  translate 0 hpt M 4 {72 rotate 0 hpt L} repeat
  closepath stroke grestore} def
/CircE {stroke [] 0 setdash 
  hpt 0 360 arc stroke} def
/Opaque {gsave closepath 1 setgray fill grestore 0 setgray closepath} def
/DiaW {stroke [] 0 setdash vpt add M
  hpt neg vpt neg V hpt vpt neg V
  hpt vpt V hpt neg vpt V Opaque stroke} def
/BoxW {stroke [] 0 setdash exch hpt sub exch vpt add M
  0 vpt2 neg V hpt2 0 V 0 vpt2 V
  hpt2 neg 0 V Opaque stroke} def
/TriUW {stroke [] 0 setdash vpt 1.12 mul add M
  hpt neg vpt -1.62 mul V
  hpt 2 mul 0 V
  hpt neg vpt 1.62 mul V Opaque stroke} def
/TriDW {stroke [] 0 setdash vpt 1.12 mul sub M
  hpt neg vpt 1.62 mul V
  hpt 2 mul 0 V
  hpt neg vpt -1.62 mul V Opaque stroke} def
/PentW {stroke [] 0 setdash gsave
  translate 0 hpt M 4 {72 rotate 0 hpt L} repeat
  Opaque stroke grestore} def
/CircW {stroke [] 0 setdash 
  hpt 0 360 arc Opaque stroke} def
/BoxFill {gsave Rec 1 setgray fill grestore} def
/Density {
  /Fillden exch def
  currentrgbcolor
  /ColB exch def /ColG exch def /ColR exch def
  /ColR ColR Fillden mul Fillden sub 1 add def
  /ColG ColG Fillden mul Fillden sub 1 add def
  /ColB ColB Fillden mul Fillden sub 1 add def
  ColR ColG ColB setrgbcolor} def
/BoxColFill {gsave Rec PolyFill} def
/PolyFill {gsave Density fill grestore grestore} def
/h {rlineto rlineto rlineto gsave closepath fill grestore} bind def
%
% PostScript Level 1 Pattern Fill routine for rectangles
% Usage: x y w h s a XX PatternFill
%	x,y = lower left corner of box to be filled
%	w,h = width and height of box
%	  a = angle in degrees between lines and x-axis
%	 XX = 0/1 for no/yes cross-hatch
%
/PatternFill {gsave /PFa [ 9 2 roll ] def
  PFa 0 get PFa 2 get 2 div add PFa 1 get PFa 3 get 2 div add translate
  PFa 2 get -2 div PFa 3 get -2 div PFa 2 get PFa 3 get Rec
  TransparentPatterns {} {gsave 1 setgray fill grestore} ifelse
  clip
  currentlinewidth 0.5 mul setlinewidth
  /PFs PFa 2 get dup mul PFa 3 get dup mul add sqrt def
  0 0 M PFa 5 get rotate PFs -2 div dup translate
  0 1 PFs PFa 4 get div 1 add floor cvi
	{PFa 4 get mul 0 M 0 PFs V} for
  0 PFa 6 get ne {
	0 1 PFs PFa 4 get div 1 add floor cvi
	{PFa 4 get mul 0 2 1 roll M PFs 0 V} for
 } if
  stroke grestore} def
%
/languagelevel where
 {pop languagelevel} {1} ifelse
dup 2 lt
	{/InterpretLevel1 true def
	 /InterpretLevel3 false def}
	{/InterpretLevel1 Level1 def
	 2 gt
	    {/InterpretLevel3 Level3 def}
	    {/InterpretLevel3 false def}
	 ifelse }
 ifelse
%
% PostScript level 2 pattern fill definitions
%
/Level2PatternFill {
/Tile8x8 {/PaintType 2 /PatternType 1 /TilingType 1 /BBox [0 0 8 8] /XStep 8 /YStep 8}
	bind def
/KeepColor {currentrgbcolor [/Pattern /DeviceRGB] setcolorspace} bind def
<< Tile8x8
 /PaintProc {0.5 setlinewidth pop 0 0 M 8 8 L 0 8 M 8 0 L stroke} 
>> matrix makepattern
/Pat1 exch def
<< Tile8x8
 /PaintProc {0.5 setlinewidth pop 0 0 M 8 8 L 0 8 M 8 0 L stroke
	0 4 M 4 8 L 8 4 L 4 0 L 0 4 L stroke}
>> matrix makepattern
/Pat2 exch def
<< Tile8x8
 /PaintProc {0.5 setlinewidth pop 0 0 M 0 8 L
	8 8 L 8 0 L 0 0 L fill}
>> matrix makepattern
/Pat3 exch def
<< Tile8x8
 /PaintProc {0.5 setlinewidth pop -4 8 M 8 -4 L
	0 12 M 12 0 L stroke}
>> matrix makepattern
/Pat4 exch def
<< Tile8x8
 /PaintProc {0.5 setlinewidth pop -4 0 M 8 12 L
	0 -4 M 12 8 L stroke}
>> matrix makepattern
/Pat5 exch def
<< Tile8x8
 /PaintProc {0.5 setlinewidth pop -2 8 M 4 -4 L
	0 12 M 8 -4 L 4 12 M 10 0 L stroke}
>> matrix makepattern
/Pat6 exch def
<< Tile8x8
 /PaintProc {0.5 setlinewidth pop -2 0 M 4 12 L
	0 -4 M 8 12 L 4 -4 M 10 8 L stroke}
>> matrix makepattern
/Pat7 exch def
<< Tile8x8
 /PaintProc {0.5 setlinewidth pop 8 -2 M -4 4 L
	12 0 M -4 8 L 12 4 M 0 10 L stroke}
>> matrix makepattern
/Pat8 exch def
<< Tile8x8
 /PaintProc {0.5 setlinewidth pop 0 -2 M 12 4 L
	-4 0 M 12 8 L -4 4 M 8 10 L stroke}
>> matrix makepattern
/Pat9 exch def
/Pattern1 {PatternBgnd KeepColor Pat1 setpattern} bind def
/Pattern2 {PatternBgnd KeepColor Pat2 setpattern} bind def
/Pattern3 {PatternBgnd KeepColor Pat3 setpattern} bind def
/Pattern4 {PatternBgnd KeepColor Landscape {Pat5} {Pat4} ifelse setpattern} bind def
/Pattern5 {PatternBgnd KeepColor Landscape {Pat4} {Pat5} ifelse setpattern} bind def
/Pattern6 {PatternBgnd KeepColor Landscape {Pat9} {Pat6} ifelse setpattern} bind def
/Pattern7 {PatternBgnd KeepColor Landscape {Pat8} {Pat7} ifelse setpattern} bind def
} def
%
%
%End of PostScript Level 2 code
%
/PatternBgnd {
  TransparentPatterns {} {gsave 1 setgray fill grestore} ifelse
} def
%
% Substitute for Level 2 pattern fill codes with
% grayscale if Level 2 support is not selected.
%
/Level1PatternFill {
/Pattern1 {0.250 Density} bind def
/Pattern2 {0.500 Density} bind def
/Pattern3 {0.750 Density} bind def
/Pattern4 {0.125 Density} bind def
/Pattern5 {0.375 Density} bind def
/Pattern6 {0.625 Density} bind def
/Pattern7 {0.875 Density} bind def
} def
%
% Now test for support of Level 2 code
%
Level1 {Level1PatternFill} {Level2PatternFill} ifelse
%
/Symbol-Oblique /Symbol findfont [1 0 .167 1 0 0] makefont
dup length dict begin {1 index /FID eq {pop pop} {def} ifelse} forall
currentdict end definefont pop
%
/MFshow {
   { dup 5 get 3 ge
     { 5 get 3 eq {gsave} {grestore} ifelse }
     {dup dup 0 get findfont exch 1 get scalefont setfont
     [ currentpoint ] exch dup 2 get 0 exch R dup 5 get 2 ne {dup dup 6
     get exch 4 get {textshow} {stringwidth pop 0 R} ifelse }if dup 5 get 0 eq
     {dup 3 get {2 get neg 0 exch R pop} {pop aload pop M} ifelse} {dup 5
     get 1 eq {dup 2 get exch dup 3 get exch 6 get stringwidth pop -2 div
     dup 0 R} {dup 6 get stringwidth pop -2 div 0 R 6 get
     textshow 2 index {aload pop M neg 3 -1 roll neg R pop pop} {pop pop pop
     pop aload pop M} ifelse }ifelse }ifelse }
     ifelse }
   forall} def
/Gswidth {dup type /stringtype eq {stringwidth} {pop (n) stringwidth} ifelse} def
/MFwidth {0 exch { dup 5 get 3 ge { 5 get 3 eq { 0 } { pop } ifelse }
 {dup 3 get{dup dup 0 get findfont exch 1 get scalefont setfont
     6 get Gswidth pop add} {pop} ifelse} ifelse} forall} def
/MLshow { currentpoint stroke M
  0 exch R
  Blacktext {gsave 0 setgray MFshow grestore} {MFshow} ifelse } bind def
/MRshow { currentpoint stroke M
  exch dup MFwidth neg 3 -1 roll R
  Blacktext {gsave 0 setgray MFshow grestore} {MFshow} ifelse } bind def
/MCshow { currentpoint stroke M
  exch dup MFwidth -2 div 3 -1 roll R
  Blacktext {gsave 0 setgray MFshow grestore} {MFshow} ifelse } bind def
/XYsave    { [( ) 1 2 true false 3 ()] } bind def
/XYrestore { [( ) 1 2 true false 4 ()] } bind def
Level1 SuppressPDFMark or 
{} {
/SDict 10 dict def
systemdict /pdfmark known not {
  userdict /pdfmark systemdict /cleartomark get put
} if
SDict begin [
  /Title (VonNeumann_K4.eps)
  /Subject (gnuplot plot)
  /Creator (gnuplot 5.0 patchlevel 3)
  /Author (parada)
%  /Producer (gnuplot)
%  /Keywords ()
  /CreationDate (Mon Sep 11 17:51:05 2017)
  /DOCINFO pdfmark
end
} ifelse
%
% Support for boxed text - Ethan A Merritt May 2005
%
/InitTextBox { userdict /TBy2 3 -1 roll put userdict /TBx2 3 -1 roll put
           userdict /TBy1 3 -1 roll put userdict /TBx1 3 -1 roll put
	   /Boxing true def } def
/ExtendTextBox { Boxing
    { gsave dup false charpath pathbbox
      dup TBy2 gt {userdict /TBy2 3 -1 roll put} {pop} ifelse
      dup TBx2 gt {userdict /TBx2 3 -1 roll put} {pop} ifelse
      dup TBy1 lt {userdict /TBy1 3 -1 roll put} {pop} ifelse
      dup TBx1 lt {userdict /TBx1 3 -1 roll put} {pop} ifelse
      grestore } if } def
/PopTextBox { newpath TBx1 TBxmargin sub TBy1 TBymargin sub M
               TBx1 TBxmargin sub TBy2 TBymargin add L
	       TBx2 TBxmargin add TBy2 TBymargin add L
	       TBx2 TBxmargin add TBy1 TBymargin sub L closepath } def
/DrawTextBox { PopTextBox stroke /Boxing false def} def
/FillTextBox { gsave PopTextBox 1 1 1 setrgbcolor fill grestore /Boxing false def} def
0 0 0 0 InitTextBox
/TBxmargin 20 def
/TBymargin 20 def
/Boxing false def
/textshow { ExtendTextBox Gshow } def
%
% redundant definitions for compatibility with prologue.ps older than 5.0.2
/LTB {BL [] LCb DL} def
/LTb {PL [] LCb DL} def
end
%%EndProlog
%%Page: 1 1
gnudict begin
gsave
doclip
50 50 translate
0.050 0.050 scale
0 setgray
newpath
(Times-Roman) findfont 950 scalefont setfont
BackgroundColor 0 lt 3 1 roll 0 lt exch 0 lt or or not {BackgroundColor C 1.000 0 0 23040.00 17280.00 BoxColFill} if
1.000 UL
LTb
LCb setrgbcolor
3705 3040 M
63 0 V
17561 0 R
-63 0 V
stroke
3135 3040 M
[ [(Times-Roman) 700.0 0.0 true true 0 ( 0)]
] -233.3 MRshow
1.000 UL
LTb
LCb setrgbcolor
3705 5413 M
63 0 V
17561 0 R
-63 0 V
stroke
3135 5413 M
[ [(Times-Roman) 700.0 0.0 true true 0 ( 20)]
] -233.3 MRshow
1.000 UL
LTb
LCb setrgbcolor
3705 7786 M
63 0 V
17561 0 R
-63 0 V
stroke
3135 7786 M
[ [(Times-Roman) 700.0 0.0 true true 0 ( 40)]
] -233.3 MRshow
1.000 UL
LTb
LCb setrgbcolor
3705 10158 M
63 0 V
17561 0 R
-63 0 V
stroke
3135 10158 M
[ [(Times-Roman) 700.0 0.0 true true 0 ( 60)]
] -233.3 MRshow
1.000 UL
LTb
LCb setrgbcolor
3705 12531 M
63 0 V
17561 0 R
-63 0 V
stroke
3135 12531 M
[ [(Times-Roman) 700.0 0.0 true true 0 ( 80)]
] -233.3 MRshow
1.000 UL
LTb
LCb setrgbcolor
3705 14904 M
63 0 V
17561 0 R
-63 0 V
stroke
3135 14904 M
[ [(Times-Roman) 700.0 0.0 true true 0 ( 100)]
] -233.3 MRshow
1.000 UL
LTb
LCb setrgbcolor
3705 3040 M
0 63 V
0 11801 R
0 -63 V
stroke
3705 2090 M
[ [(Times-Roman) 700.0 0.0 true true 0 ( 0)]
] -233.3 MCshow
1.000 UL
LTb
LCb setrgbcolor
7230 3040 M
0 63 V
0 11801 R
0 -63 V
stroke
7230 2090 M
[ [(Times-Roman) 700.0 0.0 true true 0 ( 0.2)]
] -233.3 MCshow
1.000 UL
LTb
LCb setrgbcolor
10755 3040 M
0 63 V
0 11801 R
0 -63 V
stroke
10755 2090 M
[ [(Times-Roman) 700.0 0.0 true true 0 ( 0.4)]
] -233.3 MCshow
1.000 UL
LTb
LCb setrgbcolor
14279 3040 M
0 63 V
0 11801 R
0 -63 V
stroke
14279 2090 M
[ [(Times-Roman) 700.0 0.0 true true 0 ( 0.6)]
] -233.3 MCshow
1.000 UL
LTb
LCb setrgbcolor
17804 3040 M
0 63 V
0 11801 R
0 -63 V
stroke
17804 2090 M
[ [(Times-Roman) 700.0 0.0 true true 0 ( 0.8)]
] -233.3 MCshow
1.000 UL
LTb
LCb setrgbcolor
21329 3040 M
0 63 V
0 11801 R
0 -63 V
stroke
21329 2090 M
[ [(Times-Roman) 700.0 0.0 true true 0 ( 1)]
] -233.3 MCshow
1.000 UL
LTb
LCb setrgbcolor
1.000 UL
LTB
LCb setrgbcolor
3705 14904 N
0 -11864 V
17624 0 V
0 11864 V
-17624 0 V
Z stroke
1.000 UP
1.000 UL
LTb
LCb setrgbcolor
LCb setrgbcolor
1520 8972 M
currentpoint gsave translate -270 rotate 0 0 moveto
[ [(Times-Italic) 950.0 0.0 true true 0 (n\(K\))]
[(Times-Roman) 950.0 0.0 true true 0 ( [%])]
] -316.7 MCshow
grestore
LTb
LCb setrgbcolor
12802 665 M
[ [(Times-Italic) 950.0 0.0 true true 0 (p)]
] -316.7 MCshow
LTb
LCb setrgbcolor
12517 15854 M
[ [(Times-Roman) 950.0 0.0 true true 0 (K = 4)]
] -316.7 MCshow
LCb setrgbcolor
19107 7753 M
[ [(Times-Roman) 600.0 0.0 true true 0 (L)]
] -200.0 MCshow
LTb
% Begin plot #1
6.000 UP
6.000 UL
LTb
LC0 setrgbcolor
LCb setrgbcolor
18896 7153 M
[ [(Times-Roman) 600.0 0.0 true true 0 (5)]
] -200.0 MRshow
6.000 UP
6.000 UL
LTb
LC0 setrgbcolor
19256 7153 M
1143 0 V
3705 3040 M
352 0 V
353 0 V
352 0 V
353 0 V
352 13 V
353 0 V
352 5 V
353 33 V
352 37 V
353 101 V
352 230 V
353 217 V
352 301 V
353 348 V
352 518 V
353 691 V
352 478 V
353 927 V
352 912 V
353 962 V
352 598 V
353 807 V
352 401 V
353 1020 V
352 859 V
352 159 V
353 683 V
352 491 V
353 397 V
352 42 V
353 126 V
352 108 V
353 26 V
352 10 V
353 73 V
352 -19 V
353 7 V
352 41 V
353 -6 V
352 27 V
353 19 V
352 1 V
353 22 V
352 -2 V
353 53 V
352 19 V
353 23 V
352 57 V
353 25 V
352 24 V
3705 3040 Pls
4057 3040 Pls
4410 3040 Pls
4762 3040 Pls
5115 3040 Pls
5467 3053 Pls
5820 3053 Pls
6172 3058 Pls
6525 3091 Pls
6877 3128 Pls
7230 3229 Pls
7582 3459 Pls
7935 3676 Pls
8287 3977 Pls
8640 4325 Pls
8992 4843 Pls
9345 5534 Pls
9697 6012 Pls
10050 6939 Pls
10402 7851 Pls
10755 8813 Pls
11107 9411 Pls
11460 10218 Pls
11812 10619 Pls
12165 11639 Pls
12517 12498 Pls
12869 12657 Pls
13222 13340 Pls
13574 13831 Pls
13927 14228 Pls
14279 14270 Pls
14632 14396 Pls
14984 14504 Pls
15337 14530 Pls
15689 14540 Pls
16042 14613 Pls
16394 14594 Pls
16747 14601 Pls
17099 14642 Pls
17452 14636 Pls
17804 14663 Pls
18157 14682 Pls
18509 14683 Pls
18862 14705 Pls
19214 14703 Pls
19567 14756 Pls
19919 14775 Pls
20272 14798 Pls
20624 14855 Pls
20977 14880 Pls
21329 14904 Pls
19827 7153 Pls
% End plot #1
% Begin plot #2
6.000 UP
6.000 UL
LTb
LC1 setrgbcolor
LCb setrgbcolor
18896 6613 M
[ [(Times-Roman) 600.0 0.0 true true 0 (10)]
] -200.0 MRshow
6.000 UP
6.000 UL
LTb
LC1 setrgbcolor
19256 6613 M
1143 0 V
3705 3040 M
352 0 V
353 0 V
352 0 V
353 13 V
352 24 V
353 95 V
352 154 V
353 250 V
352 391 V
353 664 V
352 829 V
353 732 V
352 1193 V
353 1154 V
352 881 V
353 1396 V
352 773 V
353 911 V
352 1067 V
353 273 V
352 451 V
353 144 V
352 67 V
353 121 V
352 19 V
352 -1 V
353 -10 V
352 -1 V
353 -23 V
352 6 V
353 -6 V
352 2 V
353 -2 V
352 -2 V
353 2 V
352 15 V
353 6 V
352 2 V
353 21 V
352 -3 V
353 21 V
352 11 V
353 29 V
352 19 V
353 19 V
352 23 V
353 37 V
352 36 V
353 41 V
352 20 V
3705 3040 Crs
4057 3040 Crs
4410 3040 Crs
4762 3040 Crs
5115 3053 Crs
5467 3077 Crs
5820 3172 Crs
6172 3326 Crs
6525 3576 Crs
6877 3967 Crs
7230 4631 Crs
7582 5460 Crs
7935 6192 Crs
8287 7385 Crs
8640 8539 Crs
8992 9420 Crs
9345 10816 Crs
9697 11589 Crs
10050 12500 Crs
10402 13567 Crs
10755 13840 Crs
11107 14291 Crs
11460 14435 Crs
11812 14502 Crs
12165 14623 Crs
12517 14642 Crs
12869 14641 Crs
13222 14631 Crs
13574 14630 Crs
13927 14607 Crs
14279 14613 Crs
14632 14607 Crs
14984 14609 Crs
15337 14607 Crs
15689 14605 Crs
16042 14607 Crs
16394 14622 Crs
16747 14628 Crs
17099 14630 Crs
17452 14651 Crs
17804 14648 Crs
18157 14669 Crs
18509 14680 Crs
18862 14709 Crs
19214 14728 Crs
19567 14747 Crs
19919 14770 Crs
20272 14807 Crs
20624 14843 Crs
20977 14884 Crs
21329 14904 Crs
19827 6613 Crs
% End plot #2
% Begin plot #3
6.000 UP
6.000 UL
LTb
LC2 setrgbcolor
LCb setrgbcolor
18896 6073 M
[ [(Times-Roman) 600.0 0.0 true true 0 (20)]
] -200.0 MRshow
6.000 UP
6.000 UL
LTb
LC2 setrgbcolor
19256 6073 M
1143 0 V
3705 3040 M
352 0 V
353 0 V
352 36 V
353 47 V
352 261 V
353 498 V
352 629 V
353 1483 V
352 782 V
353 1719 V
352 1623 V
353 1571 V
352 1119 V
353 887 V
352 604 V
353 338 V
352 128 V
353 32 V
352 -18 V
353 -26 V
352 -20 V
353 -18 V
352 -14 V
353 -30 V
352 -11 V
352 -10 V
353 -14 V
352 -8 V
353 -8 V
352 -13 V
353 -4 V
352 -3 V
353 0 V
352 3 V
353 6 V
352 7 V
353 13 V
352 0 V
353 20 V
352 9 V
353 16 V
352 15 V
353 13 V
352 28 V
353 16 V
352 27 V
353 33 V
352 37 V
353 41 V
352 20 V
3705 3040 Star
4057 3040 Star
4410 3040 Star
4762 3076 Star
5115 3123 Star
5467 3384 Star
5820 3882 Star
6172 4511 Star
6525 5994 Star
6877 6776 Star
7230 8495 Star
7582 10118 Star
7935 11689 Star
8287 12808 Star
8640 13695 Star
8992 14299 Star
9345 14637 Star
9697 14765 Star
10050 14797 Star
10402 14779 Star
10755 14753 Star
11107 14733 Star
11460 14715 Star
11812 14701 Star
12165 14671 Star
12517 14660 Star
12869 14650 Star
13222 14636 Star
13574 14628 Star
13927 14620 Star
14279 14607 Star
14632 14603 Star
14984 14600 Star
15337 14600 Star
15689 14603 Star
16042 14609 Star
16394 14616 Star
16747 14629 Star
17099 14629 Star
17452 14649 Star
17804 14658 Star
18157 14674 Star
18509 14689 Star
18862 14702 Star
19214 14730 Star
19567 14746 Star
19919 14773 Star
20272 14806 Star
20624 14843 Star
20977 14884 Star
21329 14904 Star
19827 6073 Star
% End plot #3
% Begin plot #4
6.000 UP
6.000 UL
LTb
LC3 setrgbcolor
LCb setrgbcolor
18896 5533 M
[ [(Times-Roman) 600.0 0.0 true true 0 (50)]
] -200.0 MRshow
6.000 UP
6.000 UL
LTb
LC3 setrgbcolor
19256 5533 M
1143 0 V
3705 3040 M
352 0 V
353 59 V
352 131 V
353 1068 V
352 1471 V
353 1767 V
352 2978 V
353 2016 V
352 1564 V
353 567 V
352 222 V
353 -18 V
352 14 V
353 -11 V
352 -14 V
353 -15 V
352 -18 V
353 -21 V
352 -22 V
353 -21 V
352 -23 V
353 -20 V
352 -18 V
353 -17 V
352 -13 V
352 -16 V
353 -13 V
352 -8 V
353 -9 V
352 -9 V
353 -5 V
352 -2 V
353 -1 V
352 1 V
353 7 V
352 2 V
353 10 V
352 8 V
353 12 V
352 15 V
353 13 V
352 18 V
353 16 V
352 19 V
353 22 V
352 26 V
353 34 V
352 39 V
353 38 V
352 21 V
3705 3040 Box
4057 3040 Box
4410 3099 Box
4762 3230 Box
5115 4298 Box
5467 5769 Box
5820 7536 Box
6172 10514 Box
6525 12530 Box
6877 14094 Box
7230 14661 Box
7582 14883 Box
7935 14865 Box
8287 14879 Box
8640 14868 Box
8992 14854 Box
9345 14839 Box
9697 14821 Box
10050 14800 Box
10402 14778 Box
10755 14757 Box
11107 14734 Box
11460 14714 Box
11812 14696 Box
12165 14679 Box
12517 14666 Box
12869 14650 Box
13222 14637 Box
13574 14629 Box
13927 14620 Box
14279 14611 Box
14632 14606 Box
14984 14604 Box
15337 14603 Box
15689 14604 Box
16042 14611 Box
16394 14613 Box
16747 14623 Box
17099 14631 Box
17452 14643 Box
17804 14658 Box
18157 14671 Box
18509 14689 Box
18862 14705 Box
19214 14724 Box
19567 14746 Box
19919 14772 Box
20272 14806 Box
20624 14845 Box
20977 14883 Box
21329 14904 Box
19827 5533 Box
% End plot #4
% Begin plot #5
6.000 UP
6.000 UL
LTb
LC4 setrgbcolor
LCb setrgbcolor
18896 4993 M
[ [(Times-Roman) 600.0 0.0 true true 0 (100)]
] -200.0 MRshow
6.000 UP
6.000 UL
LTb
LC4 setrgbcolor
19256 4993 M
1143 0 V
3705 3040 M
352 24 V
353 332 V
352 1352 V
353 2266 V
352 3868 V
353 2551 V
352 1256 V
353 202 V
352 11 V
353 -4 V
352 -3 V
353 -6 V
352 -9 V
353 -12 V
352 -13 V
353 -16 V
352 -19 V
353 -20 V
352 -22 V
353 -22 V
352 -20 V
353 -21 V
352 -19 V
353 -17 V
352 -17 V
352 -13 V
353 -12 V
352 -9 V
353 -10 V
352 -6 V
353 -6 V
352 -3 V
353 1 V
352 1 V
353 4 V
352 3 V
353 10 V
352 12 V
353 11 V
352 15 V
353 14 V
352 15 V
353 17 V
352 19 V
353 21 V
352 27 V
353 33 V
352 39 V
353 39 V
352 20 V
3705 3040 BoxF
4057 3064 BoxF
4410 3396 BoxF
4762 4748 BoxF
5115 7014 BoxF
5467 10882 BoxF
5820 13433 BoxF
6172 14689 BoxF
6525 14891 BoxF
6877 14902 BoxF
7230 14898 BoxF
7582 14895 BoxF
7935 14889 BoxF
8287 14880 BoxF
8640 14868 BoxF
8992 14855 BoxF
9345 14839 BoxF
9697 14820 BoxF
10050 14800 BoxF
10402 14778 BoxF
10755 14756 BoxF
11107 14736 BoxF
11460 14715 BoxF
11812 14696 BoxF
12165 14679 BoxF
12517 14662 BoxF
12869 14649 BoxF
13222 14637 BoxF
13574 14628 BoxF
13927 14618 BoxF
14279 14612 BoxF
14632 14606 BoxF
14984 14603 BoxF
15337 14604 BoxF
15689 14605 BoxF
16042 14609 BoxF
16394 14612 BoxF
16747 14622 BoxF
17099 14634 BoxF
17452 14645 BoxF
17804 14660 BoxF
18157 14674 BoxF
18509 14689 BoxF
18862 14706 BoxF
19214 14725 BoxF
19567 14746 BoxF
19919 14773 BoxF
20272 14806 BoxF
20624 14845 BoxF
20977 14884 BoxF
21329 14904 BoxF
19827 4993 BoxF
% End plot #5
% Begin plot #6
6.000 UP
6.000 UL
LTb
LC5 setrgbcolor
LCb setrgbcolor
18896 4453 M
[ [(Times-Roman) 600.0 0.0 true true 0 (200)]
] -200.0 MRshow
6.000 UP
6.000 UL
LTb
LC5 setrgbcolor
19256 4453 M
1143 0 V
3705 3040 M
352 119 V
353 1305 V
352 2728 V
353 5458 V
352 1898 V
353 356 V
352 0 V
353 -1 V
352 -3 V
353 -2 V
352 -3 V
353 -6 V
352 -9 V
353 -12 V
352 -13 V
353 -16 V
352 -18 V
353 -21 V
352 -22 V
353 -20 V
352 -22 V
353 -21 V
352 -19 V
353 -16 V
352 -17 V
352 -13 V
353 -13 V
352 -11 V
353 -8 V
352 -7 V
353 -4 V
352 -1 V
353 -3 V
352 1 V
353 3 V
352 9 V
353 7 V
352 11 V
353 11 V
352 15 V
353 15 V
352 14 V
353 18 V
352 19 V
353 21 V
352 25 V
353 34 V
352 39 V
353 39 V
352 20 V
3705 3040 Circle
4057 3159 Circle
4410 4464 Circle
4762 7192 Circle
5115 12650 Circle
5467 14548 Circle
5820 14904 Circle
6172 14904 Circle
6525 14903 Circle
6877 14900 Circle
7230 14898 Circle
7582 14895 Circle
7935 14889 Circle
8287 14880 Circle
8640 14868 Circle
8992 14855 Circle
9345 14839 Circle
9697 14821 Circle
10050 14800 Circle
10402 14778 Circle
10755 14758 Circle
11107 14736 Circle
11460 14715 Circle
11812 14696 Circle
12165 14680 Circle
12517 14663 Circle
12869 14650 Circle
13222 14637 Circle
13574 14626 Circle
13927 14618 Circle
14279 14611 Circle
14632 14607 Circle
14984 14606 Circle
15337 14603 Circle
15689 14604 Circle
16042 14607 Circle
16394 14616 Circle
16747 14623 Circle
17099 14634 Circle
17452 14645 Circle
17804 14660 Circle
18157 14675 Circle
18509 14689 Circle
18862 14707 Circle
19214 14726 Circle
19567 14747 Circle
19919 14772 Circle
20272 14806 Circle
20624 14845 Circle
20977 14884 Circle
21329 14904 Circle
19827 4453 Circle
% End plot #6
% Begin plot #7
6.000 UP
6.000 UL
LTb
LC6 setrgbcolor
LCb setrgbcolor
18896 3913 M
[ [(Times-Roman) 600.0 0.0 true true 0 (500)]
] -200.0 MRshow
6.000 UP
6.000 UL
LTb
LC6 setrgbcolor
19256 3913 M
1143 0 V
3705 3040 M
352 0 V
353 1780 V
352 7711 V
353 2373 V
352 0 V
353 0 V
352 0 V
353 -1 V
352 -3 V
353 -2 V
352 -3 V
353 -6 V
352 -10 V
353 -11 V
352 -13 V
353 -16 V
352 -19 V
353 -20 V
352 -22 V
353 -21 V
352 -21 V
353 -22 V
352 -19 V
353 -16 V
352 -17 V
352 -12 V
353 -12 V
352 -12 V
353 -8 V
352 -7 V
353 -5 V
352 -2 V
353 -1 V
352 1 V
353 3 V
352 6 V
353 9 V
352 12 V
353 11 V
352 15 V
353 14 V
352 14 V
353 18 V
352 18 V
353 22 V
352 26 V
353 34 V
352 39 V
353 39 V
352 20 V
3705 3040 CircleF
4057 3040 CircleF
4410 4820 CircleF
4762 12531 CircleF
5115 14904 CircleF
5467 14904 CircleF
5820 14904 CircleF
6172 14904 CircleF
6525 14903 CircleF
6877 14900 CircleF
7230 14898 CircleF
7582 14895 CircleF
7935 14889 CircleF
8287 14879 CircleF
8640 14868 CircleF
8992 14855 CircleF
9345 14839 CircleF
9697 14820 CircleF
10050 14800 CircleF
10402 14778 CircleF
10755 14757 CircleF
11107 14736 CircleF
11460 14714 CircleF
11812 14695 CircleF
12165 14679 CircleF
12517 14662 CircleF
12869 14650 CircleF
13222 14638 CircleF
13574 14626 CircleF
13927 14618 CircleF
14279 14611 CircleF
14632 14606 CircleF
14984 14604 CircleF
15337 14603 CircleF
15689 14604 CircleF
16042 14607 CircleF
16394 14613 CircleF
16747 14622 CircleF
17099 14634 CircleF
17452 14645 CircleF
17804 14660 CircleF
18157 14674 CircleF
18509 14688 CircleF
18862 14706 CircleF
19214 14724 CircleF
19567 14746 CircleF
19919 14772 CircleF
20272 14806 CircleF
20624 14845 CircleF
20977 14884 CircleF
21329 14904 CircleF
19827 3913 CircleF
% End plot #7
% Begin plot #8
6.000 UP
6.000 UL
LTb
LC7 setrgbcolor
LCb setrgbcolor
18896 3373 M
[ [(Times-Roman) 600.0 0.0 true true 0 (1000)]
] -200.0 MRshow
6.000 UP
6.000 UL
LTb
LC7 setrgbcolor
19256 3373 M
1143 0 V
3705 3040 M
352 0 V
353 0 V
352 9017 V
353 2847 V
352 0 V
353 0 V
352 0 V
353 -1 V
352 -3 V
353 -2 V
352 -3 V
353 -6 V
352 -9 V
353 -12 V
352 -14 V
353 -15 V
352 -19 V
353 -20 V
352 -22 V
353 -21 V
352 -21 V
353 -22 V
352 -18 V
353 -19 V
352 -14 V
352 -14 V
353 -12 V
352 -11 V
353 -8 V
352 -6 V
353 -5 V
352 -3 V
353 -1 V
352 1 V
353 5 V
352 4 V
353 10 V
352 11 V
353 11 V
352 13 V
353 16 V
352 15 V
353 17 V
352 19 V
353 21 V
352 26 V
353 34 V
352 39 V
353 39 V
352 20 V
3705 3040 TriU
4057 3040 TriU
4410 3040 TriU
4762 12057 TriU
5115 14904 TriU
5467 14904 TriU
5820 14904 TriU
6172 14904 TriU
6525 14903 TriU
6877 14900 TriU
7230 14898 TriU
7582 14895 TriU
7935 14889 TriU
8287 14880 TriU
8640 14868 TriU
8992 14854 TriU
9345 14839 TriU
9697 14820 TriU
10050 14800 TriU
10402 14778 TriU
10755 14757 TriU
11107 14736 TriU
11460 14714 TriU
11812 14696 TriU
12165 14677 TriU
12517 14663 TriU
12869 14649 TriU
13222 14637 TriU
13574 14626 TriU
13927 14618 TriU
14279 14612 TriU
14632 14607 TriU
14984 14604 TriU
15337 14603 TriU
15689 14604 TriU
16042 14609 TriU
16394 14613 TriU
16747 14623 TriU
17099 14634 TriU
17452 14645 TriU
17804 14658 TriU
18157 14674 TriU
18509 14689 TriU
18862 14706 TriU
19214 14725 TriU
19567 14746 TriU
19919 14772 TriU
20272 14806 TriU
20624 14845 TriU
20977 14884 TriU
21329 14904 TriU
19827 3373 TriU
% End plot #8
2.000 UL
LTb
LCb setrgbcolor
1.000 UL
LTB
LCb setrgbcolor
3705 14904 N
0 -11864 V
17624 0 V
0 11864 V
-17624 0 V
Z stroke
1.000 UP
1.000 UL
LTb
LCb setrgbcolor
stroke
grestore
end
showpage
%%Trailer
%%DocumentFonts: Times-Italic Times-Roman
