%!PS-Adobe-2.0 EPSF-2.0
%%Title: VonNeumann_K4_zoom.eps
%%Creator: gnuplot 5.0 patchlevel 3
%%CreationDate: Mon Sep 11 17:51:05 2017
%%DocumentFonts: (atend)
%%BoundingBox: 50 50 1202 914
%%EndComments
%%BeginProlog
/gnudict 256 dict def
gnudict begin
%
% The following true/false flags may be edited by hand if desired.
% The unit line width and grayscale image gamma correction may also be changed.
%
/Color true def
/Blacktext false def
/Solid false def
/Dashlength 1 def
/Landscape false def
/Level1 false def
/Level3 false def
/Rounded false def
/ClipToBoundingBox false def
/SuppressPDFMark false def
/TransparentPatterns false def
/gnulinewidth 5.000 def
/userlinewidth gnulinewidth def
/Gamma 1.0 def
/BackgroundColor {-1.000 -1.000 -1.000} def
%
/vshift -316 def
/dl1 {
  10.0 Dashlength userlinewidth gnulinewidth div mul mul mul
  Rounded { currentlinewidth 0.75 mul sub dup 0 le { pop 0.01 } if } if
} def
/dl2 {
  10.0 Dashlength userlinewidth gnulinewidth div mul mul mul
  Rounded { currentlinewidth 0.75 mul add } if
} def
/hpt_ 31.5 def
/vpt_ 31.5 def
/hpt hpt_ def
/vpt vpt_ def
/doclip {
  ClipToBoundingBox {
    newpath 50 50 moveto 1202 50 lineto 1202 914 lineto 50 914 lineto closepath
    clip
  } if
} def
%
% Gnuplot Prolog Version 5.1 (Oct 2015)
%
%/SuppressPDFMark true def
%
/M {moveto} bind def
/L {lineto} bind def
/R {rmoveto} bind def
/V {rlineto} bind def
/N {newpath moveto} bind def
/Z {closepath} bind def
/C {setrgbcolor} bind def
/f {rlineto fill} bind def
/g {setgray} bind def
/Gshow {show} def   % May be redefined later in the file to support UTF-8
/vpt2 vpt 2 mul def
/hpt2 hpt 2 mul def
/Lshow {currentpoint stroke M 0 vshift R 
	Blacktext {gsave 0 setgray textshow grestore} {textshow} ifelse} def
/Rshow {currentpoint stroke M dup stringwidth pop neg vshift R
	Blacktext {gsave 0 setgray textshow grestore} {textshow} ifelse} def
/Cshow {currentpoint stroke M dup stringwidth pop -2 div vshift R 
	Blacktext {gsave 0 setgray textshow grestore} {textshow} ifelse} def
/UP {dup vpt_ mul /vpt exch def hpt_ mul /hpt exch def
  /hpt2 hpt 2 mul def /vpt2 vpt 2 mul def} def
/DL {Color {setrgbcolor Solid {pop []} if 0 setdash}
 {pop pop pop 0 setgray Solid {pop []} if 0 setdash} ifelse} def
/BL {stroke userlinewidth 2 mul setlinewidth
	Rounded {1 setlinejoin 1 setlinecap} if} def
/AL {stroke userlinewidth 2 div setlinewidth
	Rounded {1 setlinejoin 1 setlinecap} if} def
/UL {dup gnulinewidth mul /userlinewidth exch def
	dup 1 lt {pop 1} if 10 mul /udl exch def} def
/PL {stroke userlinewidth setlinewidth
	Rounded {1 setlinejoin 1 setlinecap} if} def
3.8 setmiterlimit
% Classic Line colors (version 5.0)
/LCw {1 1 1} def
/LCb {0 0 0} def
/LCa {0 0 0} def
/LC0 {1 0 0} def
/LC1 {0 1 0} def
/LC2 {0 0 1} def
/LC3 {1 0 1} def
/LC4 {0 1 1} def
/LC5 {1 1 0} def
/LC6 {0 0 0} def
/LC7 {1 0.3 0} def
/LC8 {0.5 0.5 0.5} def
% Default dash patterns (version 5.0)
/LTB {BL [] LCb DL} def
/LTw {PL [] 1 setgray} def
/LTb {PL [] LCb DL} def
/LTa {AL [1 udl mul 2 udl mul] 0 setdash LCa setrgbcolor} def
/LT0 {PL [] LC0 DL} def
/LT1 {PL [2 dl1 3 dl2] LC1 DL} def
/LT2 {PL [1 dl1 1.5 dl2] LC2 DL} def
/LT3 {PL [6 dl1 2 dl2 1 dl1 2 dl2] LC3 DL} def
/LT4 {PL [1 dl1 2 dl2 6 dl1 2 dl2 1 dl1 2 dl2] LC4 DL} def
/LT5 {PL [4 dl1 2 dl2] LC5 DL} def
/LT6 {PL [1.5 dl1 1.5 dl2 1.5 dl1 1.5 dl2 1.5 dl1 6 dl2] LC6 DL} def
/LT7 {PL [3 dl1 3 dl2 1 dl1 3 dl2] LC7 DL} def
/LT8 {PL [2 dl1 2 dl2 2 dl1 6 dl2] LC8 DL} def
/SL {[] 0 setdash} def
/Pnt {stroke [] 0 setdash gsave 1 setlinecap M 0 0 V stroke grestore} def
/Dia {stroke [] 0 setdash 2 copy vpt add M
  hpt neg vpt neg V hpt vpt neg V
  hpt vpt V hpt neg vpt V closepath stroke
  Pnt} def
/Pls {stroke [] 0 setdash vpt sub M 0 vpt2 V
  currentpoint stroke M
  hpt neg vpt neg R hpt2 0 V stroke
 } def
/Box {stroke [] 0 setdash 2 copy exch hpt sub exch vpt add M
  0 vpt2 neg V hpt2 0 V 0 vpt2 V
  hpt2 neg 0 V closepath stroke
  Pnt} def
/Crs {stroke [] 0 setdash exch hpt sub exch vpt add M
  hpt2 vpt2 neg V currentpoint stroke M
  hpt2 neg 0 R hpt2 vpt2 V stroke} def
/TriU {stroke [] 0 setdash 2 copy vpt 1.12 mul add M
  hpt neg vpt -1.62 mul V
  hpt 2 mul 0 V
  hpt neg vpt 1.62 mul V closepath stroke
  Pnt} def
/Star {2 copy Pls Crs} def
/BoxF {stroke [] 0 setdash exch hpt sub exch vpt add M
  0 vpt2 neg V hpt2 0 V 0 vpt2 V
  hpt2 neg 0 V closepath fill} def
/TriUF {stroke [] 0 setdash vpt 1.12 mul add M
  hpt neg vpt -1.62 mul V
  hpt 2 mul 0 V
  hpt neg vpt 1.62 mul V closepath fill} def
/TriD {stroke [] 0 setdash 2 copy vpt 1.12 mul sub M
  hpt neg vpt 1.62 mul V
  hpt 2 mul 0 V
  hpt neg vpt -1.62 mul V closepath stroke
  Pnt} def
/TriDF {stroke [] 0 setdash vpt 1.12 mul sub M
  hpt neg vpt 1.62 mul V
  hpt 2 mul 0 V
  hpt neg vpt -1.62 mul V closepath fill} def
/DiaF {stroke [] 0 setdash vpt add M
  hpt neg vpt neg V hpt vpt neg V
  hpt vpt V hpt neg vpt V closepath fill} def
/Pent {stroke [] 0 setdash 2 copy gsave
  translate 0 hpt M 4 {72 rotate 0 hpt L} repeat
  closepath stroke grestore Pnt} def
/PentF {stroke [] 0 setdash gsave
  translate 0 hpt M 4 {72 rotate 0 hpt L} repeat
  closepath fill grestore} def
/Circle {stroke [] 0 setdash 2 copy
  hpt 0 360 arc stroke Pnt} def
/CircleF {stroke [] 0 setdash hpt 0 360 arc fill} def
/C0 {BL [] 0 setdash 2 copy moveto vpt 90 450 arc} bind def
/C1 {BL [] 0 setdash 2 copy moveto
	2 copy vpt 0 90 arc closepath fill
	vpt 0 360 arc closepath} bind def
/C2 {BL [] 0 setdash 2 copy moveto
	2 copy vpt 90 180 arc closepath fill
	vpt 0 360 arc closepath} bind def
/C3 {BL [] 0 setdash 2 copy moveto
	2 copy vpt 0 180 arc closepath fill
	vpt 0 360 arc closepath} bind def
/C4 {BL [] 0 setdash 2 copy moveto
	2 copy vpt 180 270 arc closepath fill
	vpt 0 360 arc closepath} bind def
/C5 {BL [] 0 setdash 2 copy moveto
	2 copy vpt 0 90 arc
	2 copy moveto
	2 copy vpt 180 270 arc closepath fill
	vpt 0 360 arc} bind def
/C6 {BL [] 0 setdash 2 copy moveto
	2 copy vpt 90 270 arc closepath fill
	vpt 0 360 arc closepath} bind def
/C7 {BL [] 0 setdash 2 copy moveto
	2 copy vpt 0 270 arc closepath fill
	vpt 0 360 arc closepath} bind def
/C8 {BL [] 0 setdash 2 copy moveto
	2 copy vpt 270 360 arc closepath fill
	vpt 0 360 arc closepath} bind def
/C9 {BL [] 0 setdash 2 copy moveto
	2 copy vpt 270 450 arc closepath fill
	vpt 0 360 arc closepath} bind def
/C10 {BL [] 0 setdash 2 copy 2 copy moveto vpt 270 360 arc closepath fill
	2 copy moveto
	2 copy vpt 90 180 arc closepath fill
	vpt 0 360 arc closepath} bind def
/C11 {BL [] 0 setdash 2 copy moveto
	2 copy vpt 0 180 arc closepath fill
	2 copy moveto
	2 copy vpt 270 360 arc closepath fill
	vpt 0 360 arc closepath} bind def
/C12 {BL [] 0 setdash 2 copy moveto
	2 copy vpt 180 360 arc closepath fill
	vpt 0 360 arc closepath} bind def
/C13 {BL [] 0 setdash 2 copy moveto
	2 copy vpt 0 90 arc closepath fill
	2 copy moveto
	2 copy vpt 180 360 arc closepath fill
	vpt 0 360 arc closepath} bind def
/C14 {BL [] 0 setdash 2 copy moveto
	2 copy vpt 90 360 arc closepath fill
	vpt 0 360 arc} bind def
/C15 {BL [] 0 setdash 2 copy vpt 0 360 arc closepath fill
	vpt 0 360 arc closepath} bind def
/Rec {newpath 4 2 roll moveto 1 index 0 rlineto 0 exch rlineto
	neg 0 rlineto closepath} bind def
/Square {dup Rec} bind def
/Bsquare {vpt sub exch vpt sub exch vpt2 Square} bind def
/S0 {BL [] 0 setdash 2 copy moveto 0 vpt rlineto BL Bsquare} bind def
/S1 {BL [] 0 setdash 2 copy vpt Square fill Bsquare} bind def
/S2 {BL [] 0 setdash 2 copy exch vpt sub exch vpt Square fill Bsquare} bind def
/S3 {BL [] 0 setdash 2 copy exch vpt sub exch vpt2 vpt Rec fill Bsquare} bind def
/S4 {BL [] 0 setdash 2 copy exch vpt sub exch vpt sub vpt Square fill Bsquare} bind def
/S5 {BL [] 0 setdash 2 copy 2 copy vpt Square fill
	exch vpt sub exch vpt sub vpt Square fill Bsquare} bind def
/S6 {BL [] 0 setdash 2 copy exch vpt sub exch vpt sub vpt vpt2 Rec fill Bsquare} bind def
/S7 {BL [] 0 setdash 2 copy exch vpt sub exch vpt sub vpt vpt2 Rec fill
	2 copy vpt Square fill Bsquare} bind def
/S8 {BL [] 0 setdash 2 copy vpt sub vpt Square fill Bsquare} bind def
/S9 {BL [] 0 setdash 2 copy vpt sub vpt vpt2 Rec fill Bsquare} bind def
/S10 {BL [] 0 setdash 2 copy vpt sub vpt Square fill 2 copy exch vpt sub exch vpt Square fill
	Bsquare} bind def
/S11 {BL [] 0 setdash 2 copy vpt sub vpt Square fill 2 copy exch vpt sub exch vpt2 vpt Rec fill
	Bsquare} bind def
/S12 {BL [] 0 setdash 2 copy exch vpt sub exch vpt sub vpt2 vpt Rec fill Bsquare} bind def
/S13 {BL [] 0 setdash 2 copy exch vpt sub exch vpt sub vpt2 vpt Rec fill
	2 copy vpt Square fill Bsquare} bind def
/S14 {BL [] 0 setdash 2 copy exch vpt sub exch vpt sub vpt2 vpt Rec fill
	2 copy exch vpt sub exch vpt Square fill Bsquare} bind def
/S15 {BL [] 0 setdash 2 copy Bsquare fill Bsquare} bind def
/D0 {gsave translate 45 rotate 0 0 S0 stroke grestore} bind def
/D1 {gsave translate 45 rotate 0 0 S1 stroke grestore} bind def
/D2 {gsave translate 45 rotate 0 0 S2 stroke grestore} bind def
/D3 {gsave translate 45 rotate 0 0 S3 stroke grestore} bind def
/D4 {gsave translate 45 rotate 0 0 S4 stroke grestore} bind def
/D5 {gsave translate 45 rotate 0 0 S5 stroke grestore} bind def
/D6 {gsave translate 45 rotate 0 0 S6 stroke grestore} bind def
/D7 {gsave translate 45 rotate 0 0 S7 stroke grestore} bind def
/D8 {gsave translate 45 rotate 0 0 S8 stroke grestore} bind def
/D9 {gsave translate 45 rotate 0 0 S9 stroke grestore} bind def
/D10 {gsave translate 45 rotate 0 0 S10 stroke grestore} bind def
/D11 {gsave translate 45 rotate 0 0 S11 stroke grestore} bind def
/D12 {gsave translate 45 rotate 0 0 S12 stroke grestore} bind def
/D13 {gsave translate 45 rotate 0 0 S13 stroke grestore} bind def
/D14 {gsave translate 45 rotate 0 0 S14 stroke grestore} bind def
/D15 {gsave translate 45 rotate 0 0 S15 stroke grestore} bind def
/DiaE {stroke [] 0 setdash vpt add M
  hpt neg vpt neg V hpt vpt neg V
  hpt vpt V hpt neg vpt V closepath stroke} def
/BoxE {stroke [] 0 setdash exch hpt sub exch vpt add M
  0 vpt2 neg V hpt2 0 V 0 vpt2 V
  hpt2 neg 0 V closepath stroke} def
/TriUE {stroke [] 0 setdash vpt 1.12 mul add M
  hpt neg vpt -1.62 mul V
  hpt 2 mul 0 V
  hpt neg vpt 1.62 mul V closepath stroke} def
/TriDE {stroke [] 0 setdash vpt 1.12 mul sub M
  hpt neg vpt 1.62 mul V
  hpt 2 mul 0 V
  hpt neg vpt -1.62 mul V closepath stroke} def
/PentE {stroke [] 0 setdash gsave
  translate 0 hpt M 4 {72 rotate 0 hpt L} repeat
  closepath stroke grestore} def
/CircE {stroke [] 0 setdash 
  hpt 0 360 arc stroke} def
/Opaque {gsave closepath 1 setgray fill grestore 0 setgray closepath} def
/DiaW {stroke [] 0 setdash vpt add M
  hpt neg vpt neg V hpt vpt neg V
  hpt vpt V hpt neg vpt V Opaque stroke} def
/BoxW {stroke [] 0 setdash exch hpt sub exch vpt add M
  0 vpt2 neg V hpt2 0 V 0 vpt2 V
  hpt2 neg 0 V Opaque stroke} def
/TriUW {stroke [] 0 setdash vpt 1.12 mul add M
  hpt neg vpt -1.62 mul V
  hpt 2 mul 0 V
  hpt neg vpt 1.62 mul V Opaque stroke} def
/TriDW {stroke [] 0 setdash vpt 1.12 mul sub M
  hpt neg vpt 1.62 mul V
  hpt 2 mul 0 V
  hpt neg vpt -1.62 mul V Opaque stroke} def
/PentW {stroke [] 0 setdash gsave
  translate 0 hpt M 4 {72 rotate 0 hpt L} repeat
  Opaque stroke grestore} def
/CircW {stroke [] 0 setdash 
  hpt 0 360 arc Opaque stroke} def
/BoxFill {gsave Rec 1 setgray fill grestore} def
/Density {
  /Fillden exch def
  currentrgbcolor
  /ColB exch def /ColG exch def /ColR exch def
  /ColR ColR Fillden mul Fillden sub 1 add def
  /ColG ColG Fillden mul Fillden sub 1 add def
  /ColB ColB Fillden mul Fillden sub 1 add def
  ColR ColG ColB setrgbcolor} def
/BoxColFill {gsave Rec PolyFill} def
/PolyFill {gsave Density fill grestore grestore} def
/h {rlineto rlineto rlineto gsave closepath fill grestore} bind def
%
% PostScript Level 1 Pattern Fill routine for rectangles
% Usage: x y w h s a XX PatternFill
%	x,y = lower left corner of box to be filled
%	w,h = width and height of box
%	  a = angle in degrees between lines and x-axis
%	 XX = 0/1 for no/yes cross-hatch
%
/PatternFill {gsave /PFa [ 9 2 roll ] def
  PFa 0 get PFa 2 get 2 div add PFa 1 get PFa 3 get 2 div add translate
  PFa 2 get -2 div PFa 3 get -2 div PFa 2 get PFa 3 get Rec
  TransparentPatterns {} {gsave 1 setgray fill grestore} ifelse
  clip
  currentlinewidth 0.5 mul setlinewidth
  /PFs PFa 2 get dup mul PFa 3 get dup mul add sqrt def
  0 0 M PFa 5 get rotate PFs -2 div dup translate
  0 1 PFs PFa 4 get div 1 add floor cvi
	{PFa 4 get mul 0 M 0 PFs V} for
  0 PFa 6 get ne {
	0 1 PFs PFa 4 get div 1 add floor cvi
	{PFa 4 get mul 0 2 1 roll M PFs 0 V} for
 } if
  stroke grestore} def
%
/languagelevel where
 {pop languagelevel} {1} ifelse
dup 2 lt
	{/InterpretLevel1 true def
	 /InterpretLevel3 false def}
	{/InterpretLevel1 Level1 def
	 2 gt
	    {/InterpretLevel3 Level3 def}
	    {/InterpretLevel3 false def}
	 ifelse }
 ifelse
%
% PostScript level 2 pattern fill definitions
%
/Level2PatternFill {
/Tile8x8 {/PaintType 2 /PatternType 1 /TilingType 1 /BBox [0 0 8 8] /XStep 8 /YStep 8}
	bind def
/KeepColor {currentrgbcolor [/Pattern /DeviceRGB] setcolorspace} bind def
<< Tile8x8
 /PaintProc {0.5 setlinewidth pop 0 0 M 8 8 L 0 8 M 8 0 L stroke} 
>> matrix makepattern
/Pat1 exch def
<< Tile8x8
 /PaintProc {0.5 setlinewidth pop 0 0 M 8 8 L 0 8 M 8 0 L stroke
	0 4 M 4 8 L 8 4 L 4 0 L 0 4 L stroke}
>> matrix makepattern
/Pat2 exch def
<< Tile8x8
 /PaintProc {0.5 setlinewidth pop 0 0 M 0 8 L
	8 8 L 8 0 L 0 0 L fill}
>> matrix makepattern
/Pat3 exch def
<< Tile8x8
 /PaintProc {0.5 setlinewidth pop -4 8 M 8 -4 L
	0 12 M 12 0 L stroke}
>> matrix makepattern
/Pat4 exch def
<< Tile8x8
 /PaintProc {0.5 setlinewidth pop -4 0 M 8 12 L
	0 -4 M 12 8 L stroke}
>> matrix makepattern
/Pat5 exch def
<< Tile8x8
 /PaintProc {0.5 setlinewidth pop -2 8 M 4 -4 L
	0 12 M 8 -4 L 4 12 M 10 0 L stroke}
>> matrix makepattern
/Pat6 exch def
<< Tile8x8
 /PaintProc {0.5 setlinewidth pop -2 0 M 4 12 L
	0 -4 M 8 12 L 4 -4 M 10 8 L stroke}
>> matrix makepattern
/Pat7 exch def
<< Tile8x8
 /PaintProc {0.5 setlinewidth pop 8 -2 M -4 4 L
	12 0 M -4 8 L 12 4 M 0 10 L stroke}
>> matrix makepattern
/Pat8 exch def
<< Tile8x8
 /PaintProc {0.5 setlinewidth pop 0 -2 M 12 4 L
	-4 0 M 12 8 L -4 4 M 8 10 L stroke}
>> matrix makepattern
/Pat9 exch def
/Pattern1 {PatternBgnd KeepColor Pat1 setpattern} bind def
/Pattern2 {PatternBgnd KeepColor Pat2 setpattern} bind def
/Pattern3 {PatternBgnd KeepColor Pat3 setpattern} bind def
/Pattern4 {PatternBgnd KeepColor Landscape {Pat5} {Pat4} ifelse setpattern} bind def
/Pattern5 {PatternBgnd KeepColor Landscape {Pat4} {Pat5} ifelse setpattern} bind def
/Pattern6 {PatternBgnd KeepColor Landscape {Pat9} {Pat6} ifelse setpattern} bind def
/Pattern7 {PatternBgnd KeepColor Landscape {Pat8} {Pat7} ifelse setpattern} bind def
} def
%
%
%End of PostScript Level 2 code
%
/PatternBgnd {
  TransparentPatterns {} {gsave 1 setgray fill grestore} ifelse
} def
%
% Substitute for Level 2 pattern fill codes with
% grayscale if Level 2 support is not selected.
%
/Level1PatternFill {
/Pattern1 {0.250 Density} bind def
/Pattern2 {0.500 Density} bind def
/Pattern3 {0.750 Density} bind def
/Pattern4 {0.125 Density} bind def
/Pattern5 {0.375 Density} bind def
/Pattern6 {0.625 Density} bind def
/Pattern7 {0.875 Density} bind def
} def
%
% Now test for support of Level 2 code
%
Level1 {Level1PatternFill} {Level2PatternFill} ifelse
%
/Symbol-Oblique /Symbol findfont [1 0 .167 1 0 0] makefont
dup length dict begin {1 index /FID eq {pop pop} {def} ifelse} forall
currentdict end definefont pop
%
/MFshow {
   { dup 5 get 3 ge
     { 5 get 3 eq {gsave} {grestore} ifelse }
     {dup dup 0 get findfont exch 1 get scalefont setfont
     [ currentpoint ] exch dup 2 get 0 exch R dup 5 get 2 ne {dup dup 6
     get exch 4 get {textshow} {stringwidth pop 0 R} ifelse }if dup 5 get 0 eq
     {dup 3 get {2 get neg 0 exch R pop} {pop aload pop M} ifelse} {dup 5
     get 1 eq {dup 2 get exch dup 3 get exch 6 get stringwidth pop -2 div
     dup 0 R} {dup 6 get stringwidth pop -2 div 0 R 6 get
     textshow 2 index {aload pop M neg 3 -1 roll neg R pop pop} {pop pop pop
     pop aload pop M} ifelse }ifelse }ifelse }
     ifelse }
   forall} def
/Gswidth {dup type /stringtype eq {stringwidth} {pop (n) stringwidth} ifelse} def
/MFwidth {0 exch { dup 5 get 3 ge { 5 get 3 eq { 0 } { pop } ifelse }
 {dup 3 get{dup dup 0 get findfont exch 1 get scalefont setfont
     6 get Gswidth pop add} {pop} ifelse} ifelse} forall} def
/MLshow { currentpoint stroke M
  0 exch R
  Blacktext {gsave 0 setgray MFshow grestore} {MFshow} ifelse } bind def
/MRshow { currentpoint stroke M
  exch dup MFwidth neg 3 -1 roll R
  Blacktext {gsave 0 setgray MFshow grestore} {MFshow} ifelse } bind def
/MCshow { currentpoint stroke M
  exch dup MFwidth -2 div 3 -1 roll R
  Blacktext {gsave 0 setgray MFshow grestore} {MFshow} ifelse } bind def
/XYsave    { [( ) 1 2 true false 3 ()] } bind def
/XYrestore { [( ) 1 2 true false 4 ()] } bind def
Level1 SuppressPDFMark or 
{} {
/SDict 10 dict def
systemdict /pdfmark known not {
  userdict /pdfmark systemdict /cleartomark get put
} if
SDict begin [
  /Title (VonNeumann_K4_zoom.eps)
  /Subject (gnuplot plot)
  /Creator (gnuplot 5.0 patchlevel 3)
  /Author (parada)
%  /Producer (gnuplot)
%  /Keywords ()
  /CreationDate (Mon Sep 11 17:51:05 2017)
  /DOCINFO pdfmark
end
} ifelse
%
% Support for boxed text - Ethan A Merritt May 2005
%
/InitTextBox { userdict /TBy2 3 -1 roll put userdict /TBx2 3 -1 roll put
           userdict /TBy1 3 -1 roll put userdict /TBx1 3 -1 roll put
	   /Boxing true def } def
/ExtendTextBox { Boxing
    { gsave dup false charpath pathbbox
      dup TBy2 gt {userdict /TBy2 3 -1 roll put} {pop} ifelse
      dup TBx2 gt {userdict /TBx2 3 -1 roll put} {pop} ifelse
      dup TBy1 lt {userdict /TBy1 3 -1 roll put} {pop} ifelse
      dup TBx1 lt {userdict /TBx1 3 -1 roll put} {pop} ifelse
      grestore } if } def
/PopTextBox { newpath TBx1 TBxmargin sub TBy1 TBymargin sub M
               TBx1 TBxmargin sub TBy2 TBymargin add L
	       TBx2 TBxmargin add TBy2 TBymargin add L
	       TBx2 TBxmargin add TBy1 TBymargin sub L closepath } def
/DrawTextBox { PopTextBox stroke /Boxing false def} def
/FillTextBox { gsave PopTextBox 1 1 1 setrgbcolor fill grestore /Boxing false def} def
0 0 0 0 InitTextBox
/TBxmargin 20 def
/TBymargin 20 def
/Boxing false def
/textshow { ExtendTextBox Gshow } def
%
% redundant definitions for compatibility with prologue.ps older than 5.0.2
/LTB {BL [] LCb DL} def
/LTb {PL [] LCb DL} def
end
%%EndProlog
%%Page: 1 1
gnudict begin
gsave
doclip
50 50 translate
0.050 0.050 scale
0 setgray
newpath
(Times-Roman) findfont 950 scalefont setfont
BackgroundColor 0 lt 3 1 roll 0 lt exch 0 lt or or not {BackgroundColor C 1.000 0 0 23040.00 17280.00 BoxColFill} if
1.000 UL
LTb
LCb setrgbcolor
3705 3040 M
63 0 V
17561 0 R
-63 0 V
stroke
3135 3040 M
[ [(Times-Roman) 700.0 0.0 true true 0 ( 90)]
] -233.3 MRshow
1.000 UL
LTb
LCb setrgbcolor
3705 5413 M
63 0 V
17561 0 R
-63 0 V
stroke
3135 5413 M
[ [(Times-Roman) 700.0 0.0 true true 0 ( 92)]
] -233.3 MRshow
1.000 UL
LTb
LCb setrgbcolor
3705 7786 M
63 0 V
17561 0 R
-63 0 V
stroke
3135 7786 M
[ [(Times-Roman) 700.0 0.0 true true 0 ( 94)]
] -233.3 MRshow
1.000 UL
LTb
LCb setrgbcolor
3705 10158 M
63 0 V
17561 0 R
-63 0 V
stroke
3135 10158 M
[ [(Times-Roman) 700.0 0.0 true true 0 ( 96)]
] -233.3 MRshow
1.000 UL
LTb
LCb setrgbcolor
3705 12531 M
63 0 V
17561 0 R
-63 0 V
stroke
3135 12531 M
[ [(Times-Roman) 700.0 0.0 true true 0 ( 98)]
] -233.3 MRshow
1.000 UL
LTb
LCb setrgbcolor
3705 14904 M
63 0 V
17561 0 R
-63 0 V
stroke
3135 14904 M
[ [(Times-Roman) 700.0 0.0 true true 0 ( 100)]
] -233.3 MRshow
1.000 UL
LTb
LCb setrgbcolor
3705 3040 M
0 63 V
0 11801 R
0 -63 V
stroke
3705 2090 M
[ [(Times-Roman) 700.0 0.0 true true 0 ( 0)]
] -233.3 MCshow
1.000 UL
LTb
LCb setrgbcolor
7230 3040 M
0 63 V
0 11801 R
0 -63 V
stroke
7230 2090 M
[ [(Times-Roman) 700.0 0.0 true true 0 ( 0.2)]
] -233.3 MCshow
1.000 UL
LTb
LCb setrgbcolor
10755 3040 M
0 63 V
0 11801 R
0 -63 V
stroke
10755 2090 M
[ [(Times-Roman) 700.0 0.0 true true 0 ( 0.4)]
] -233.3 MCshow
1.000 UL
LTb
LCb setrgbcolor
14279 3040 M
0 63 V
0 11801 R
0 -63 V
stroke
14279 2090 M
[ [(Times-Roman) 700.0 0.0 true true 0 ( 0.6)]
] -233.3 MCshow
1.000 UL
LTb
LCb setrgbcolor
17804 3040 M
0 63 V
0 11801 R
0 -63 V
stroke
17804 2090 M
[ [(Times-Roman) 700.0 0.0 true true 0 ( 0.8)]
] -233.3 MCshow
1.000 UL
LTb
LCb setrgbcolor
21329 3040 M
0 63 V
0 11801 R
0 -63 V
stroke
21329 2090 M
[ [(Times-Roman) 700.0 0.0 true true 0 ( 1)]
] -233.3 MCshow
1.000 UL
LTb
LCb setrgbcolor
1.000 UL
LTB
LCb setrgbcolor
3705 14904 N
0 -11864 V
17624 0 V
0 11864 V
-17624 0 V
Z stroke
1.000 UP
1.000 UL
LTb
LCb setrgbcolor
LCb setrgbcolor
1520 8972 M
currentpoint gsave translate -270 rotate 0 0 moveto
[ [(Times-Italic) 950.0 0.0 true true 0 (n\(K\))]
[(Times-Roman) 950.0 0.0 true true 0 ( [%])]
] -316.7 MCshow
grestore
LTb
LCb setrgbcolor
12802 665 M
[ [(Times-Italic) 950.0 0.0 true true 0 (p)]
] -316.7 MCshow
LTb
LCb setrgbcolor
12517 15854 M
[ [(Times-Roman) 950.0 0.0 true true 0 (K = 4)]
] -316.7 MCshow
% Begin plot #1
6.000 UP
6.000 UL
LTb
LC0 setrgbcolor
13493 3040 M
81 1139 V
353 3963 V
352 427 V
353 1257 V
352 1080 V
353 261 V
352 95 V
353 735 V
352 -190 V
353 72 V
352 403 V
353 -59 V
352 273 V
353 189 V
352 12 V
353 214 V
352 -12 V
353 522 V
352 190 V
353 237 V
352 570 V
353 249 V
352 237 V
13574 4179 Pls
13927 8142 Pls
14279 8569 Pls
14632 9826 Pls
14984 10906 Pls
15337 11167 Pls
15689 11262 Pls
16042 11997 Pls
16394 11807 Pls
16747 11879 Pls
17099 12282 Pls
17452 12223 Pls
17804 12496 Pls
18157 12685 Pls
18509 12697 Pls
18862 12911 Pls
19214 12899 Pls
19567 13421 Pls
19919 13611 Pls
20272 13848 Pls
20624 14418 Pls
20977 14667 Pls
21329 14904 Pls
% End plot #1
% Begin plot #2
6.000 UP
6.000 UL
LTb
LC1 setrgbcolor
10597 3040 M
158 1222 V
352 4508 V
353 1448 V
352 664 V
353 1210 V
352 190 V
352 -12 V
353 -95 V
352 -12 V
353 -225 V
352 59 V
353 -59 V
352 12 V
353 -12 V
352 -24 V
353 24 V
352 142 V
353 60 V
352 23 V
353 214 V
352 -36 V
353 214 V
352 107 V
353 296 V
352 190 V
353 190 V
352 225 V
353 368 V
352 368 V
353 403 V
352 202 V
10755 4262 Crs
11107 8770 Crs
11460 10218 Crs
11812 10882 Crs
12165 12092 Crs
12517 12282 Crs
12869 12270 Crs
13222 12175 Crs
13574 12163 Crs
13927 11938 Crs
14279 11997 Crs
14632 11938 Crs
14984 11950 Crs
15337 11938 Crs
15689 11914 Crs
16042 11938 Crs
16394 12080 Crs
16747 12140 Crs
17099 12163 Crs
17452 12377 Crs
17804 12341 Crs
18157 12555 Crs
18509 12662 Crs
18862 12958 Crs
19214 13148 Crs
19567 13338 Crs
19919 13563 Crs
20272 13931 Crs
20624 14299 Crs
20977 14702 Crs
21329 14904 Crs
% End plot #2
% Begin plot #3
6.000 UP
6.000 UL
LTb
LC2 setrgbcolor
8653 3040 M
339 5813 V
353 3382 V
352 1281 V
353 320 V
352 -178 V
353 -261 V
352 -201 V
353 -178 V
352 -143 V
353 -296 V
352 -119 V
352 -95 V
353 -142 V
352 -83 V
353 -71 V
352 -131 V
353 -47 V
352 -24 V
353 0 V
352 24 V
353 59 V
352 71 V
353 131 V
352 0 V
353 201 V
352 95 V
353 154 V
352 155 V
353 130 V
352 273 V
353 166 V
352 273 V
353 320 V
352 380 V
353 403 V
352 202 V
8992 8853 Star
9345 12235 Star
9697 13516 Star
10050 13836 Star
10402 13658 Star
10755 13397 Star
11107 13196 Star
11460 13018 Star
11812 12875 Star
12165 12579 Star
12517 12460 Star
12869 12365 Star
13222 12223 Star
13574 12140 Star
13927 12069 Star
14279 11938 Star
14632 11891 Star
14984 11867 Star
15337 11867 Star
15689 11891 Star
16042 11950 Star
16394 12021 Star
16747 12152 Star
17099 12152 Star
17452 12353 Star
17804 12448 Star
18157 12602 Star
18509 12757 Star
18862 12887 Star
19214 13160 Star
19567 13326 Star
19919 13599 Star
20272 13919 Star
20624 14299 Star
20977 14702 Star
21329 14904 Star
% End plot #3
% Begin plot #4
6.000 UP
6.000 UL
LTb
LC3 setrgbcolor
6793 3040 M
84 3761 V
353 5671 V
352 2218 V
353 -178 V
352 143 V
353 -107 V
352 -142 V
353 -155 V
352 -177 V
353 -214 V
352 -214 V
353 -213 V
352 -226 V
353 -201 V
352 -178 V
353 -178 V
352 -131 V
352 -154 V
353 -130 V
352 -83 V
353 -83 V
352 -95 V
353 -48 V
352 -24 V
353 -11 V
352 11 V
353 72 V
352 23 V
353 95 V
352 83 V
353 119 V
352 154 V
353 131 V
352 178 V
353 154 V
352 190 V
353 225 V
352 261 V
353 332 V
352 392 V
353 379 V
352 214 V
6877 6801 Box
7230 12472 Box
7582 14690 Box
7935 14512 Box
8287 14655 Box
8640 14548 Box
8992 14406 Box
9345 14251 Box
9697 14074 Box
10050 13860 Box
10402 13646 Box
10755 13433 Box
11107 13207 Box
11460 13006 Box
11812 12828 Box
12165 12650 Box
12517 12519 Box
12869 12365 Box
13222 12235 Box
13574 12152 Box
13927 12069 Box
14279 11974 Box
14632 11926 Box
14984 11902 Box
15337 11891 Box
15689 11902 Box
16042 11974 Box
16394 11997 Box
16747 12092 Box
17099 12175 Box
17452 12294 Box
17804 12448 Box
18157 12579 Box
18509 12757 Box
18862 12911 Box
19214 13101 Box
19567 13326 Box
19919 13587 Box
20272 13919 Box
20624 14311 Box
20977 14690 Box
21329 14904 Box
% End plot #4
% Begin plot #5
6.000 UP
6.000 UL
LTb
LC4 setrgbcolor
5900 3040 M
272 9717 V
353 2016 V
352 107 V
353 -35 V
352 -36 V
353 -59 V
352 -83 V
353 -119 V
352 -130 V
353 -167 V
352 -189 V
353 -202 V
352 -214 V
353 -225 V
352 -202 V
353 -201 V
352 -190 V
353 -178 V
352 -166 V
352 -131 V
353 -118 V
352 -95 V
353 -95 V
352 -60 V
353 -59 V
352 -35 V
353 11 V
352 12 V
353 36 V
352 35 V
353 95 V
352 119 V
353 119 V
352 142 V
353 142 V
352 155 V
353 166 V
352 190 V
353 213 V
352 273 V
353 320 V
352 392 V
353 391 V
352 202 V
6172 12757 BoxF
6525 14773 BoxF
6877 14880 BoxF
7230 14845 BoxF
7582 14809 BoxF
7935 14750 BoxF
8287 14667 BoxF
8640 14548 BoxF
8992 14418 BoxF
9345 14251 BoxF
9697 14062 BoxF
10050 13860 BoxF
10402 13646 BoxF
10755 13421 BoxF
11107 13219 BoxF
11460 13018 BoxF
11812 12828 BoxF
12165 12650 BoxF
12517 12484 BoxF
12869 12353 BoxF
13222 12235 BoxF
13574 12140 BoxF
13927 12045 BoxF
14279 11985 BoxF
14632 11926 BoxF
14984 11891 BoxF
15337 11902 BoxF
15689 11914 BoxF
16042 11950 BoxF
16394 11985 BoxF
16747 12080 BoxF
17099 12199 BoxF
17452 12318 BoxF
17804 12460 BoxF
18157 12602 BoxF
18509 12757 BoxF
18862 12923 BoxF
19214 13113 BoxF
19567 13326 BoxF
19919 13599 BoxF
20272 13919 BoxF
20624 14311 BoxF
20977 14702 BoxF
21329 14904 BoxF
% End plot #5
% Begin plot #6
6.000 UP
6.000 UL
LTb
LC5 setrgbcolor
5313 3040 M
154 8305 V
353 3559 V
352 0 V
353 -12 V
352 -24 V
353 -23 V
352 -36 V
353 -59 V
352 -83 V
353 -119 V
352 -130 V
353 -167 V
352 -177 V
353 -214 V
352 -214 V
353 -201 V
352 -226 V
353 -201 V
352 -190 V
353 -166 V
352 -166 V
352 -131 V
353 -130 V
352 -107 V
353 -83 V
352 -71 V
353 -36 V
352 -12 V
353 -35 V
352 11 V
353 36 V
352 83 V
353 71 V
352 107 V
353 119 V
352 142 V
353 154 V
352 143 V
353 178 V
352 189 V
353 214 V
352 249 V
353 332 V
352 392 V
353 391 V
352 202 V
5467 11345 Circle
5820 14904 Circle
6172 14904 Circle
6525 14892 Circle
6877 14868 Circle
7230 14845 Circle
7582 14809 Circle
7935 14750 Circle
8287 14667 Circle
8640 14548 Circle
8992 14418 Circle
9345 14251 Circle
9697 14074 Circle
10050 13860 Circle
10402 13646 Circle
10755 13445 Circle
11107 13219 Circle
11460 13018 Circle
11812 12828 Circle
12165 12662 Circle
12517 12496 Circle
12869 12365 Circle
13222 12235 Circle
13574 12128 Circle
13927 12045 Circle
14279 11974 Circle
14632 11938 Circle
14984 11926 Circle
15337 11891 Circle
15689 11902 Circle
16042 11938 Circle
16394 12021 Circle
16747 12092 Circle
17099 12199 Circle
17452 12318 Circle
17804 12460 Circle
18157 12614 Circle
18509 12757 Circle
18862 12935 Circle
19214 13124 Circle
19567 13338 Circle
19919 13587 Circle
20272 13919 Circle
20624 14311 Circle
20977 14702 Circle
21329 14904 Circle
% End plot #6
% Begin plot #7
6.000 UP
6.000 UL
LTb
LC6 setrgbcolor
4939 3040 M
176 11864 V
352 0 V
353 0 V
352 0 V
353 -12 V
352 -24 V
353 -23 V
352 -36 V
353 -59 V
352 -95 V
353 -107 V
352 -130 V
353 -167 V
352 -189 V
353 -202 V
352 -214 V
353 -213 V
352 -214 V
353 -213 V
352 -190 V
353 -166 V
352 -166 V
352 -119 V
353 -119 V
352 -118 V
353 -83 V
352 -71 V
353 -48 V
352 -24 V
353 -11 V
352 11 V
353 36 V
352 59 V
353 83 V
352 119 V
353 119 V
352 142 V
353 142 V
352 143 V
353 178 V
352 178 V
353 225 V
352 261 V
353 332 V
352 392 V
353 391 V
352 202 V
5115 14904 CircleF
5467 14904 CircleF
5820 14904 CircleF
6172 14904 CircleF
6525 14892 CircleF
6877 14868 CircleF
7230 14845 CircleF
7582 14809 CircleF
7935 14750 CircleF
8287 14655 CircleF
8640 14548 CircleF
8992 14418 CircleF
9345 14251 CircleF
9697 14062 CircleF
10050 13860 CircleF
10402 13646 CircleF
10755 13433 CircleF
11107 13219 CircleF
11460 13006 CircleF
11812 12816 CircleF
12165 12650 CircleF
12517 12484 CircleF
12869 12365 CircleF
13222 12246 CircleF
13574 12128 CircleF
13927 12045 CircleF
14279 11974 CircleF
14632 11926 CircleF
14984 11902 CircleF
15337 11891 CircleF
15689 11902 CircleF
16042 11938 CircleF
16394 11997 CircleF
16747 12080 CircleF
17099 12199 CircleF
17452 12318 CircleF
17804 12460 CircleF
18157 12602 CircleF
18509 12745 CircleF
18862 12923 CircleF
19214 13101 CircleF
19567 13326 CircleF
19919 13587 CircleF
20272 13919 CircleF
20624 14311 CircleF
20977 14702 CircleF
21329 14904 CircleF
% End plot #7
% Begin plot #8
6.000 UP
6.000 UL
LTb
LC7 setrgbcolor
4968 3040 M
147 11864 V
352 0 V
353 0 V
352 0 V
353 -12 V
352 -24 V
353 -23 V
352 -36 V
353 -59 V
352 -83 V
353 -119 V
352 -142 V
353 -155 V
352 -189 V
353 -202 V
352 -214 V
353 -213 V
352 -214 V
353 -213 V
352 -178 V
353 -190 V
352 -142 V
352 -143 V
353 -118 V
352 -107 V
353 -83 V
352 -60 V
353 -47 V
352 -36 V
353 -11 V
352 11 V
353 48 V
352 47 V
353 95 V
352 107 V
353 119 V
352 130 V
353 154 V
352 155 V
353 166 V
352 190 V
353 213 V
352 261 V
353 332 V
352 392 V
353 391 V
352 202 V
5115 14904 TriU
5467 14904 TriU
5820 14904 TriU
6172 14904 TriU
6525 14892 TriU
6877 14868 TriU
7230 14845 TriU
7582 14809 TriU
7935 14750 TriU
8287 14667 TriU
8640 14548 TriU
8992 14406 TriU
9345 14251 TriU
9697 14062 TriU
10050 13860 TriU
10402 13646 TriU
10755 13433 TriU
11107 13219 TriU
11460 13006 TriU
11812 12828 TriU
12165 12638 TriU
12517 12496 TriU
12869 12353 TriU
13222 12235 TriU
13574 12128 TriU
13927 12045 TriU
14279 11985 TriU
14632 11938 TriU
14984 11902 TriU
15337 11891 TriU
15689 11902 TriU
16042 11950 TriU
16394 11997 TriU
16747 12092 TriU
17099 12199 TriU
17452 12318 TriU
17804 12448 TriU
18157 12602 TriU
18509 12757 TriU
18862 12923 TriU
19214 13113 TriU
19567 13326 TriU
19919 13587 TriU
20272 13919 TriU
20624 14311 TriU
20977 14702 TriU
21329 14904 TriU
% End plot #8
2.000 UL
LTb
LCb setrgbcolor
1.000 UL
LTB
LCb setrgbcolor
3705 14904 N
0 -11864 V
17624 0 V
0 11864 V
-17624 0 V
Z stroke
1.000 UP
1.000 UL
LTb
LCb setrgbcolor
stroke
grestore
end
showpage
%%Trailer
%%DocumentFonts: Times-Italic Times-Roman
