%!PS-Adobe-2.0 EPSF-2.0
%%Title: Moore_K8.eps
%%Creator: gnuplot 5.0 patchlevel 3
%%CreationDate: Sat Sep 16 12:07:55 2017
%%DocumentFonts: (atend)
%%BoundingBox: 50 50 1202 914
%%EndComments
%%BeginProlog
/gnudict 256 dict def
gnudict begin
%
% The following true/false flags may be edited by hand if desired.
% The unit line width and grayscale image gamma correction may also be changed.
%
/Color true def
/Blacktext false def
/Solid false def
/Dashlength 1 def
/Landscape false def
/Level1 false def
/Level3 false def
/Rounded false def
/ClipToBoundingBox false def
/SuppressPDFMark false def
/TransparentPatterns false def
/gnulinewidth 5.000 def
/userlinewidth gnulinewidth def
/Gamma 1.0 def
/BackgroundColor {-1.000 -1.000 -1.000} def
%
/vshift -316 def
/dl1 {
  10.0 Dashlength userlinewidth gnulinewidth div mul mul mul
  Rounded { currentlinewidth 0.75 mul sub dup 0 le { pop 0.01 } if } if
} def
/dl2 {
  10.0 Dashlength userlinewidth gnulinewidth div mul mul mul
  Rounded { currentlinewidth 0.75 mul add } if
} def
/hpt_ 31.5 def
/vpt_ 31.5 def
/hpt hpt_ def
/vpt vpt_ def
/doclip {
  ClipToBoundingBox {
    newpath 50 50 moveto 1202 50 lineto 1202 914 lineto 50 914 lineto closepath
    clip
  } if
} def
%
% Gnuplot Prolog Version 5.1 (Oct 2015)
%
%/SuppressPDFMark true def
%
/M {moveto} bind def
/L {lineto} bind def
/R {rmoveto} bind def
/V {rlineto} bind def
/N {newpath moveto} bind def
/Z {closepath} bind def
/C {setrgbcolor} bind def
/f {rlineto fill} bind def
/g {setgray} bind def
/Gshow {show} def   % May be redefined later in the file to support UTF-8
/vpt2 vpt 2 mul def
/hpt2 hpt 2 mul def
/Lshow {currentpoint stroke M 0 vshift R 
	Blacktext {gsave 0 setgray textshow grestore} {textshow} ifelse} def
/Rshow {currentpoint stroke M dup stringwidth pop neg vshift R
	Blacktext {gsave 0 setgray textshow grestore} {textshow} ifelse} def
/Cshow {currentpoint stroke M dup stringwidth pop -2 div vshift R 
	Blacktext {gsave 0 setgray textshow grestore} {textshow} ifelse} def
/UP {dup vpt_ mul /vpt exch def hpt_ mul /hpt exch def
  /hpt2 hpt 2 mul def /vpt2 vpt 2 mul def} def
/DL {Color {setrgbcolor Solid {pop []} if 0 setdash}
 {pop pop pop 0 setgray Solid {pop []} if 0 setdash} ifelse} def
/BL {stroke userlinewidth 2 mul setlinewidth
	Rounded {1 setlinejoin 1 setlinecap} if} def
/AL {stroke userlinewidth 2 div setlinewidth
	Rounded {1 setlinejoin 1 setlinecap} if} def
/UL {dup gnulinewidth mul /userlinewidth exch def
	dup 1 lt {pop 1} if 10 mul /udl exch def} def
/PL {stroke userlinewidth setlinewidth
	Rounded {1 setlinejoin 1 setlinecap} if} def
3.8 setmiterlimit
% Classic Line colors (version 5.0)
/LCw {1 1 1} def
/LCb {0 0 0} def
/LCa {0 0 0} def
/LC0 {1 0 0} def
/LC1 {0 1 0} def
/LC2 {0 0 1} def
/LC3 {1 0 1} def
/LC4 {0 1 1} def
/LC5 {1 1 0} def
/LC6 {0 0 0} def
/LC7 {1 0.3 0} def
/LC8 {0.5 0.5 0.5} def
% Default dash patterns (version 5.0)
/LTB {BL [] LCb DL} def
/LTw {PL [] 1 setgray} def
/LTb {PL [] LCb DL} def
/LTa {AL [1 udl mul 2 udl mul] 0 setdash LCa setrgbcolor} def
/LT0 {PL [] LC0 DL} def
/LT1 {PL [2 dl1 3 dl2] LC1 DL} def
/LT2 {PL [1 dl1 1.5 dl2] LC2 DL} def
/LT3 {PL [6 dl1 2 dl2 1 dl1 2 dl2] LC3 DL} def
/LT4 {PL [1 dl1 2 dl2 6 dl1 2 dl2 1 dl1 2 dl2] LC4 DL} def
/LT5 {PL [4 dl1 2 dl2] LC5 DL} def
/LT6 {PL [1.5 dl1 1.5 dl2 1.5 dl1 1.5 dl2 1.5 dl1 6 dl2] LC6 DL} def
/LT7 {PL [3 dl1 3 dl2 1 dl1 3 dl2] LC7 DL} def
/LT8 {PL [2 dl1 2 dl2 2 dl1 6 dl2] LC8 DL} def
/SL {[] 0 setdash} def
/Pnt {stroke [] 0 setdash gsave 1 setlinecap M 0 0 V stroke grestore} def
/Dia {stroke [] 0 setdash 2 copy vpt add M
  hpt neg vpt neg V hpt vpt neg V
  hpt vpt V hpt neg vpt V closepath stroke
  Pnt} def
/Pls {stroke [] 0 setdash vpt sub M 0 vpt2 V
  currentpoint stroke M
  hpt neg vpt neg R hpt2 0 V stroke
 } def
/Box {stroke [] 0 setdash 2 copy exch hpt sub exch vpt add M
  0 vpt2 neg V hpt2 0 V 0 vpt2 V
  hpt2 neg 0 V closepath stroke
  Pnt} def
/Crs {stroke [] 0 setdash exch hpt sub exch vpt add M
  hpt2 vpt2 neg V currentpoint stroke M
  hpt2 neg 0 R hpt2 vpt2 V stroke} def
/TriU {stroke [] 0 setdash 2 copy vpt 1.12 mul add M
  hpt neg vpt -1.62 mul V
  hpt 2 mul 0 V
  hpt neg vpt 1.62 mul V closepath stroke
  Pnt} def
/Star {2 copy Pls Crs} def
/BoxF {stroke [] 0 setdash exch hpt sub exch vpt add M
  0 vpt2 neg V hpt2 0 V 0 vpt2 V
  hpt2 neg 0 V closepath fill} def
/TriUF {stroke [] 0 setdash vpt 1.12 mul add M
  hpt neg vpt -1.62 mul V
  hpt 2 mul 0 V
  hpt neg vpt 1.62 mul V closepath fill} def
/TriD {stroke [] 0 setdash 2 copy vpt 1.12 mul sub M
  hpt neg vpt 1.62 mul V
  hpt 2 mul 0 V
  hpt neg vpt -1.62 mul V closepath stroke
  Pnt} def
/TriDF {stroke [] 0 setdash vpt 1.12 mul sub M
  hpt neg vpt 1.62 mul V
  hpt 2 mul 0 V
  hpt neg vpt -1.62 mul V closepath fill} def
/DiaF {stroke [] 0 setdash vpt add M
  hpt neg vpt neg V hpt vpt neg V
  hpt vpt V hpt neg vpt V closepath fill} def
/Pent {stroke [] 0 setdash 2 copy gsave
  translate 0 hpt M 4 {72 rotate 0 hpt L} repeat
  closepath stroke grestore Pnt} def
/PentF {stroke [] 0 setdash gsave
  translate 0 hpt M 4 {72 rotate 0 hpt L} repeat
  closepath fill grestore} def
/Circle {stroke [] 0 setdash 2 copy
  hpt 0 360 arc stroke Pnt} def
/CircleF {stroke [] 0 setdash hpt 0 360 arc fill} def
/C0 {BL [] 0 setdash 2 copy moveto vpt 90 450 arc} bind def
/C1 {BL [] 0 setdash 2 copy moveto
	2 copy vpt 0 90 arc closepath fill
	vpt 0 360 arc closepath} bind def
/C2 {BL [] 0 setdash 2 copy moveto
	2 copy vpt 90 180 arc closepath fill
	vpt 0 360 arc closepath} bind def
/C3 {BL [] 0 setdash 2 copy moveto
	2 copy vpt 0 180 arc closepath fill
	vpt 0 360 arc closepath} bind def
/C4 {BL [] 0 setdash 2 copy moveto
	2 copy vpt 180 270 arc closepath fill
	vpt 0 360 arc closepath} bind def
/C5 {BL [] 0 setdash 2 copy moveto
	2 copy vpt 0 90 arc
	2 copy moveto
	2 copy vpt 180 270 arc closepath fill
	vpt 0 360 arc} bind def
/C6 {BL [] 0 setdash 2 copy moveto
	2 copy vpt 90 270 arc closepath fill
	vpt 0 360 arc closepath} bind def
/C7 {BL [] 0 setdash 2 copy moveto
	2 copy vpt 0 270 arc closepath fill
	vpt 0 360 arc closepath} bind def
/C8 {BL [] 0 setdash 2 copy moveto
	2 copy vpt 270 360 arc closepath fill
	vpt 0 360 arc closepath} bind def
/C9 {BL [] 0 setdash 2 copy moveto
	2 copy vpt 270 450 arc closepath fill
	vpt 0 360 arc closepath} bind def
/C10 {BL [] 0 setdash 2 copy 2 copy moveto vpt 270 360 arc closepath fill
	2 copy moveto
	2 copy vpt 90 180 arc closepath fill
	vpt 0 360 arc closepath} bind def
/C11 {BL [] 0 setdash 2 copy moveto
	2 copy vpt 0 180 arc closepath fill
	2 copy moveto
	2 copy vpt 270 360 arc closepath fill
	vpt 0 360 arc closepath} bind def
/C12 {BL [] 0 setdash 2 copy moveto
	2 copy vpt 180 360 arc closepath fill
	vpt 0 360 arc closepath} bind def
/C13 {BL [] 0 setdash 2 copy moveto
	2 copy vpt 0 90 arc closepath fill
	2 copy moveto
	2 copy vpt 180 360 arc closepath fill
	vpt 0 360 arc closepath} bind def
/C14 {BL [] 0 setdash 2 copy moveto
	2 copy vpt 90 360 arc closepath fill
	vpt 0 360 arc} bind def
/C15 {BL [] 0 setdash 2 copy vpt 0 360 arc closepath fill
	vpt 0 360 arc closepath} bind def
/Rec {newpath 4 2 roll moveto 1 index 0 rlineto 0 exch rlineto
	neg 0 rlineto closepath} bind def
/Square {dup Rec} bind def
/Bsquare {vpt sub exch vpt sub exch vpt2 Square} bind def
/S0 {BL [] 0 setdash 2 copy moveto 0 vpt rlineto BL Bsquare} bind def
/S1 {BL [] 0 setdash 2 copy vpt Square fill Bsquare} bind def
/S2 {BL [] 0 setdash 2 copy exch vpt sub exch vpt Square fill Bsquare} bind def
/S3 {BL [] 0 setdash 2 copy exch vpt sub exch vpt2 vpt Rec fill Bsquare} bind def
/S4 {BL [] 0 setdash 2 copy exch vpt sub exch vpt sub vpt Square fill Bsquare} bind def
/S5 {BL [] 0 setdash 2 copy 2 copy vpt Square fill
	exch vpt sub exch vpt sub vpt Square fill Bsquare} bind def
/S6 {BL [] 0 setdash 2 copy exch vpt sub exch vpt sub vpt vpt2 Rec fill Bsquare} bind def
/S7 {BL [] 0 setdash 2 copy exch vpt sub exch vpt sub vpt vpt2 Rec fill
	2 copy vpt Square fill Bsquare} bind def
/S8 {BL [] 0 setdash 2 copy vpt sub vpt Square fill Bsquare} bind def
/S9 {BL [] 0 setdash 2 copy vpt sub vpt vpt2 Rec fill Bsquare} bind def
/S10 {BL [] 0 setdash 2 copy vpt sub vpt Square fill 2 copy exch vpt sub exch vpt Square fill
	Bsquare} bind def
/S11 {BL [] 0 setdash 2 copy vpt sub vpt Square fill 2 copy exch vpt sub exch vpt2 vpt Rec fill
	Bsquare} bind def
/S12 {BL [] 0 setdash 2 copy exch vpt sub exch vpt sub vpt2 vpt Rec fill Bsquare} bind def
/S13 {BL [] 0 setdash 2 copy exch vpt sub exch vpt sub vpt2 vpt Rec fill
	2 copy vpt Square fill Bsquare} bind def
/S14 {BL [] 0 setdash 2 copy exch vpt sub exch vpt sub vpt2 vpt Rec fill
	2 copy exch vpt sub exch vpt Square fill Bsquare} bind def
/S15 {BL [] 0 setdash 2 copy Bsquare fill Bsquare} bind def
/D0 {gsave translate 45 rotate 0 0 S0 stroke grestore} bind def
/D1 {gsave translate 45 rotate 0 0 S1 stroke grestore} bind def
/D2 {gsave translate 45 rotate 0 0 S2 stroke grestore} bind def
/D3 {gsave translate 45 rotate 0 0 S3 stroke grestore} bind def
/D4 {gsave translate 45 rotate 0 0 S4 stroke grestore} bind def
/D5 {gsave translate 45 rotate 0 0 S5 stroke grestore} bind def
/D6 {gsave translate 45 rotate 0 0 S6 stroke grestore} bind def
/D7 {gsave translate 45 rotate 0 0 S7 stroke grestore} bind def
/D8 {gsave translate 45 rotate 0 0 S8 stroke grestore} bind def
/D9 {gsave translate 45 rotate 0 0 S9 stroke grestore} bind def
/D10 {gsave translate 45 rotate 0 0 S10 stroke grestore} bind def
/D11 {gsave translate 45 rotate 0 0 S11 stroke grestore} bind def
/D12 {gsave translate 45 rotate 0 0 S12 stroke grestore} bind def
/D13 {gsave translate 45 rotate 0 0 S13 stroke grestore} bind def
/D14 {gsave translate 45 rotate 0 0 S14 stroke grestore} bind def
/D15 {gsave translate 45 rotate 0 0 S15 stroke grestore} bind def
/DiaE {stroke [] 0 setdash vpt add M
  hpt neg vpt neg V hpt vpt neg V
  hpt vpt V hpt neg vpt V closepath stroke} def
/BoxE {stroke [] 0 setdash exch hpt sub exch vpt add M
  0 vpt2 neg V hpt2 0 V 0 vpt2 V
  hpt2 neg 0 V closepath stroke} def
/TriUE {stroke [] 0 setdash vpt 1.12 mul add M
  hpt neg vpt -1.62 mul V
  hpt 2 mul 0 V
  hpt neg vpt 1.62 mul V closepath stroke} def
/TriDE {stroke [] 0 setdash vpt 1.12 mul sub M
  hpt neg vpt 1.62 mul V
  hpt 2 mul 0 V
  hpt neg vpt -1.62 mul V closepath stroke} def
/PentE {stroke [] 0 setdash gsave
  translate 0 hpt M 4 {72 rotate 0 hpt L} repeat
  closepath stroke grestore} def
/CircE {stroke [] 0 setdash 
  hpt 0 360 arc stroke} def
/Opaque {gsave closepath 1 setgray fill grestore 0 setgray closepath} def
/DiaW {stroke [] 0 setdash vpt add M
  hpt neg vpt neg V hpt vpt neg V
  hpt vpt V hpt neg vpt V Opaque stroke} def
/BoxW {stroke [] 0 setdash exch hpt sub exch vpt add M
  0 vpt2 neg V hpt2 0 V 0 vpt2 V
  hpt2 neg 0 V Opaque stroke} def
/TriUW {stroke [] 0 setdash vpt 1.12 mul add M
  hpt neg vpt -1.62 mul V
  hpt 2 mul 0 V
  hpt neg vpt 1.62 mul V Opaque stroke} def
/TriDW {stroke [] 0 setdash vpt 1.12 mul sub M
  hpt neg vpt 1.62 mul V
  hpt 2 mul 0 V
  hpt neg vpt -1.62 mul V Opaque stroke} def
/PentW {stroke [] 0 setdash gsave
  translate 0 hpt M 4 {72 rotate 0 hpt L} repeat
  Opaque stroke grestore} def
/CircW {stroke [] 0 setdash 
  hpt 0 360 arc Opaque stroke} def
/BoxFill {gsave Rec 1 setgray fill grestore} def
/Density {
  /Fillden exch def
  currentrgbcolor
  /ColB exch def /ColG exch def /ColR exch def
  /ColR ColR Fillden mul Fillden sub 1 add def
  /ColG ColG Fillden mul Fillden sub 1 add def
  /ColB ColB Fillden mul Fillden sub 1 add def
  ColR ColG ColB setrgbcolor} def
/BoxColFill {gsave Rec PolyFill} def
/PolyFill {gsave Density fill grestore grestore} def
/h {rlineto rlineto rlineto gsave closepath fill grestore} bind def
%
% PostScript Level 1 Pattern Fill routine for rectangles
% Usage: x y w h s a XX PatternFill
%	x,y = lower left corner of box to be filled
%	w,h = width and height of box
%	  a = angle in degrees between lines and x-axis
%	 XX = 0/1 for no/yes cross-hatch
%
/PatternFill {gsave /PFa [ 9 2 roll ] def
  PFa 0 get PFa 2 get 2 div add PFa 1 get PFa 3 get 2 div add translate
  PFa 2 get -2 div PFa 3 get -2 div PFa 2 get PFa 3 get Rec
  TransparentPatterns {} {gsave 1 setgray fill grestore} ifelse
  clip
  currentlinewidth 0.5 mul setlinewidth
  /PFs PFa 2 get dup mul PFa 3 get dup mul add sqrt def
  0 0 M PFa 5 get rotate PFs -2 div dup translate
  0 1 PFs PFa 4 get div 1 add floor cvi
	{PFa 4 get mul 0 M 0 PFs V} for
  0 PFa 6 get ne {
	0 1 PFs PFa 4 get div 1 add floor cvi
	{PFa 4 get mul 0 2 1 roll M PFs 0 V} for
 } if
  stroke grestore} def
%
/languagelevel where
 {pop languagelevel} {1} ifelse
dup 2 lt
	{/InterpretLevel1 true def
	 /InterpretLevel3 false def}
	{/InterpretLevel1 Level1 def
	 2 gt
	    {/InterpretLevel3 Level3 def}
	    {/InterpretLevel3 false def}
	 ifelse }
 ifelse
%
% PostScript level 2 pattern fill definitions
%
/Level2PatternFill {
/Tile8x8 {/PaintType 2 /PatternType 1 /TilingType 1 /BBox [0 0 8 8] /XStep 8 /YStep 8}
	bind def
/KeepColor {currentrgbcolor [/Pattern /DeviceRGB] setcolorspace} bind def
<< Tile8x8
 /PaintProc {0.5 setlinewidth pop 0 0 M 8 8 L 0 8 M 8 0 L stroke} 
>> matrix makepattern
/Pat1 exch def
<< Tile8x8
 /PaintProc {0.5 setlinewidth pop 0 0 M 8 8 L 0 8 M 8 0 L stroke
	0 4 M 4 8 L 8 4 L 4 0 L 0 4 L stroke}
>> matrix makepattern
/Pat2 exch def
<< Tile8x8
 /PaintProc {0.5 setlinewidth pop 0 0 M 0 8 L
	8 8 L 8 0 L 0 0 L fill}
>> matrix makepattern
/Pat3 exch def
<< Tile8x8
 /PaintProc {0.5 setlinewidth pop -4 8 M 8 -4 L
	0 12 M 12 0 L stroke}
>> matrix makepattern
/Pat4 exch def
<< Tile8x8
 /PaintProc {0.5 setlinewidth pop -4 0 M 8 12 L
	0 -4 M 12 8 L stroke}
>> matrix makepattern
/Pat5 exch def
<< Tile8x8
 /PaintProc {0.5 setlinewidth pop -2 8 M 4 -4 L
	0 12 M 8 -4 L 4 12 M 10 0 L stroke}
>> matrix makepattern
/Pat6 exch def
<< Tile8x8
 /PaintProc {0.5 setlinewidth pop -2 0 M 4 12 L
	0 -4 M 8 12 L 4 -4 M 10 8 L stroke}
>> matrix makepattern
/Pat7 exch def
<< Tile8x8
 /PaintProc {0.5 setlinewidth pop 8 -2 M -4 4 L
	12 0 M -4 8 L 12 4 M 0 10 L stroke}
>> matrix makepattern
/Pat8 exch def
<< Tile8x8
 /PaintProc {0.5 setlinewidth pop 0 -2 M 12 4 L
	-4 0 M 12 8 L -4 4 M 8 10 L stroke}
>> matrix makepattern
/Pat9 exch def
/Pattern1 {PatternBgnd KeepColor Pat1 setpattern} bind def
/Pattern2 {PatternBgnd KeepColor Pat2 setpattern} bind def
/Pattern3 {PatternBgnd KeepColor Pat3 setpattern} bind def
/Pattern4 {PatternBgnd KeepColor Landscape {Pat5} {Pat4} ifelse setpattern} bind def
/Pattern5 {PatternBgnd KeepColor Landscape {Pat4} {Pat5} ifelse setpattern} bind def
/Pattern6 {PatternBgnd KeepColor Landscape {Pat9} {Pat6} ifelse setpattern} bind def
/Pattern7 {PatternBgnd KeepColor Landscape {Pat8} {Pat7} ifelse setpattern} bind def
} def
%
%
%End of PostScript Level 2 code
%
/PatternBgnd {
  TransparentPatterns {} {gsave 1 setgray fill grestore} ifelse
} def
%
% Substitute for Level 2 pattern fill codes with
% grayscale if Level 2 support is not selected.
%
/Level1PatternFill {
/Pattern1 {0.250 Density} bind def
/Pattern2 {0.500 Density} bind def
/Pattern3 {0.750 Density} bind def
/Pattern4 {0.125 Density} bind def
/Pattern5 {0.375 Density} bind def
/Pattern6 {0.625 Density} bind def
/Pattern7 {0.875 Density} bind def
} def
%
% Now test for support of Level 2 code
%
Level1 {Level1PatternFill} {Level2PatternFill} ifelse
%
/Symbol-Oblique /Symbol findfont [1 0 .167 1 0 0] makefont
dup length dict begin {1 index /FID eq {pop pop} {def} ifelse} forall
currentdict end definefont pop
%
/MFshow {
   { dup 5 get 3 ge
     { 5 get 3 eq {gsave} {grestore} ifelse }
     {dup dup 0 get findfont exch 1 get scalefont setfont
     [ currentpoint ] exch dup 2 get 0 exch R dup 5 get 2 ne {dup dup 6
     get exch 4 get {textshow} {stringwidth pop 0 R} ifelse }if dup 5 get 0 eq
     {dup 3 get {2 get neg 0 exch R pop} {pop aload pop M} ifelse} {dup 5
     get 1 eq {dup 2 get exch dup 3 get exch 6 get stringwidth pop -2 div
     dup 0 R} {dup 6 get stringwidth pop -2 div 0 R 6 get
     textshow 2 index {aload pop M neg 3 -1 roll neg R pop pop} {pop pop pop
     pop aload pop M} ifelse }ifelse }ifelse }
     ifelse }
   forall} def
/Gswidth {dup type /stringtype eq {stringwidth} {pop (n) stringwidth} ifelse} def
/MFwidth {0 exch { dup 5 get 3 ge { 5 get 3 eq { 0 } { pop } ifelse }
 {dup 3 get{dup dup 0 get findfont exch 1 get scalefont setfont
     6 get Gswidth pop add} {pop} ifelse} ifelse} forall} def
/MLshow { currentpoint stroke M
  0 exch R
  Blacktext {gsave 0 setgray MFshow grestore} {MFshow} ifelse } bind def
/MRshow { currentpoint stroke M
  exch dup MFwidth neg 3 -1 roll R
  Blacktext {gsave 0 setgray MFshow grestore} {MFshow} ifelse } bind def
/MCshow { currentpoint stroke M
  exch dup MFwidth -2 div 3 -1 roll R
  Blacktext {gsave 0 setgray MFshow grestore} {MFshow} ifelse } bind def
/XYsave    { [( ) 1 2 true false 3 ()] } bind def
/XYrestore { [( ) 1 2 true false 4 ()] } bind def
Level1 SuppressPDFMark or 
{} {
/SDict 10 dict def
systemdict /pdfmark known not {
  userdict /pdfmark systemdict /cleartomark get put
} if
SDict begin [
  /Title (Moore_K8.eps)
  /Subject (gnuplot plot)
  /Creator (gnuplot 5.0 patchlevel 3)
  /Author (parada)
%  /Producer (gnuplot)
%  /Keywords ()
  /CreationDate (Sat Sep 16 12:07:55 2017)
  /DOCINFO pdfmark
end
} ifelse
%
% Support for boxed text - Ethan A Merritt May 2005
%
/InitTextBox { userdict /TBy2 3 -1 roll put userdict /TBx2 3 -1 roll put
           userdict /TBy1 3 -1 roll put userdict /TBx1 3 -1 roll put
	   /Boxing true def } def
/ExtendTextBox { Boxing
    { gsave dup false charpath pathbbox
      dup TBy2 gt {userdict /TBy2 3 -1 roll put} {pop} ifelse
      dup TBx2 gt {userdict /TBx2 3 -1 roll put} {pop} ifelse
      dup TBy1 lt {userdict /TBy1 3 -1 roll put} {pop} ifelse
      dup TBx1 lt {userdict /TBx1 3 -1 roll put} {pop} ifelse
      grestore } if } def
/PopTextBox { newpath TBx1 TBxmargin sub TBy1 TBymargin sub M
               TBx1 TBxmargin sub TBy2 TBymargin add L
	       TBx2 TBxmargin add TBy2 TBymargin add L
	       TBx2 TBxmargin add TBy1 TBymargin sub L closepath } def
/DrawTextBox { PopTextBox stroke /Boxing false def} def
/FillTextBox { gsave PopTextBox 1 1 1 setrgbcolor fill grestore /Boxing false def} def
0 0 0 0 InitTextBox
/TBxmargin 20 def
/TBymargin 20 def
/Boxing false def
/textshow { ExtendTextBox Gshow } def
%
% redundant definitions for compatibility with prologue.ps older than 5.0.2
/LTB {BL [] LCb DL} def
/LTb {PL [] LCb DL} def
end
%%EndProlog
%%Page: 1 1
gnudict begin
gsave
doclip
50 50 translate
0.050 0.050 scale
0 setgray
newpath
(Times-Roman) findfont 950 scalefont setfont
BackgroundColor 0 lt 3 1 roll 0 lt exch 0 lt or or not {BackgroundColor C 1.000 0 0 23040.00 17280.00 BoxColFill} if
1.000 UL
LTb
LCb setrgbcolor
3705 3040 M
63 0 V
17561 0 R
-63 0 V
stroke
3135 3040 M
[ [(Times-Roman) 700.0 0.0 true true 0 ( 0)]
] -233.3 MRshow
1.000 UL
LTb
LCb setrgbcolor
3705 5413 M
63 0 V
17561 0 R
-63 0 V
stroke
3135 5413 M
[ [(Times-Roman) 700.0 0.0 true true 0 ( 20)]
] -233.3 MRshow
1.000 UL
LTb
LCb setrgbcolor
3705 7786 M
63 0 V
17561 0 R
-63 0 V
stroke
3135 7786 M
[ [(Times-Roman) 700.0 0.0 true true 0 ( 40)]
] -233.3 MRshow
1.000 UL
LTb
LCb setrgbcolor
3705 10158 M
63 0 V
17561 0 R
-63 0 V
stroke
3135 10158 M
[ [(Times-Roman) 700.0 0.0 true true 0 ( 60)]
] -233.3 MRshow
1.000 UL
LTb
LCb setrgbcolor
3705 12531 M
63 0 V
17561 0 R
-63 0 V
stroke
3135 12531 M
[ [(Times-Roman) 700.0 0.0 true true 0 ( 80)]
] -233.3 MRshow
1.000 UL
LTb
LCb setrgbcolor
3705 14904 M
63 0 V
17561 0 R
-63 0 V
stroke
3135 14904 M
[ [(Times-Roman) 700.0 0.0 true true 0 ( 100)]
] -233.3 MRshow
1.000 UL
LTb
LCb setrgbcolor
3705 3040 M
0 63 V
0 11801 R
0 -63 V
stroke
3705 2090 M
[ [(Times-Roman) 700.0 0.0 true true 0 ( 0)]
] -233.3 MCshow
1.000 UL
LTb
LCb setrgbcolor
7230 3040 M
0 63 V
0 11801 R
0 -63 V
stroke
7230 2090 M
[ [(Times-Roman) 700.0 0.0 true true 0 ( 0.2)]
] -233.3 MCshow
1.000 UL
LTb
LCb setrgbcolor
10755 3040 M
0 63 V
0 11801 R
0 -63 V
stroke
10755 2090 M
[ [(Times-Roman) 700.0 0.0 true true 0 ( 0.4)]
] -233.3 MCshow
1.000 UL
LTb
LCb setrgbcolor
14279 3040 M
0 63 V
0 11801 R
0 -63 V
stroke
14279 2090 M
[ [(Times-Roman) 700.0 0.0 true true 0 ( 0.6)]
] -233.3 MCshow
1.000 UL
LTb
LCb setrgbcolor
17804 3040 M
0 63 V
0 11801 R
0 -63 V
stroke
17804 2090 M
[ [(Times-Roman) 700.0 0.0 true true 0 ( 0.8)]
] -233.3 MCshow
1.000 UL
LTb
LCb setrgbcolor
21329 3040 M
0 63 V
0 11801 R
0 -63 V
stroke
21329 2090 M
[ [(Times-Roman) 700.0 0.0 true true 0 ( 1)]
] -233.3 MCshow
1.000 UL
LTb
LCb setrgbcolor
1.000 UL
LTB
LCb setrgbcolor
3705 14904 N
0 -11864 V
17624 0 V
0 11864 V
-17624 0 V
Z stroke
1.000 UP
1.000 UL
LTb
LCb setrgbcolor
LCb setrgbcolor
1520 8972 M
currentpoint gsave translate -270 rotate 0 0 moveto
[ [(Times-Italic) 950.0 0.0 true true 0 (n\(K\))]
[(Times-Roman) 950.0 0.0 true true 0 ( [%])]
] -316.7 MCshow
grestore
LTb
LCb setrgbcolor
12802 665 M
[ [(Times-Italic) 950.0 0.0 true true 0 (p)]
] -316.7 MCshow
LTb
LCb setrgbcolor
12517 15854 M
[ [(Times-Roman) 950.0 0.0 true true 0 (K = 8)]
] -316.7 MCshow
LCb setrgbcolor
19107 7753 M
[ [(Times-Roman) 600.0 0.0 true true 0 (L)]
] -200.0 MCshow
LTb
% Begin plot #1
6.000 UP
6.000 UL
LTb
LC0 setrgbcolor
LCb setrgbcolor
18896 7153 M
[ [(Times-Roman) 600.0 0.0 true true 0 (5)]
] -200.0 MRshow
6.000 UP
6.000 UL
LTb
LC0 setrgbcolor
19256 7153 M
1143 0 V
3705 3040 M
352 0 V
353 0 V
352 0 V
353 0 V
352 0 V
353 0 V
352 0 V
353 0 V
352 0 V
353 0 V
352 0 V
353 0 V
352 0 V
353 0 V
352 0 V
353 2 V
352 -1 V
353 16 V
352 1 V
353 6 V
352 25 V
353 6 V
352 185 V
353 30 V
352 380 V
352 164 V
353 607 V
352 346 V
353 971 V
352 913 V
353 1147 V
352 735 V
353 1390 V
352 1033 V
353 1091 V
352 439 V
353 908 V
352 478 V
353 579 V
352 23 V
353 61 V
352 128 V
353 -7 V
352 26 V
353 41 V
352 25 V
353 42 V
352 15 V
353 20 V
352 39 V
3705 3040 Pls
4057 3040 Pls
4410 3040 Pls
4762 3040 Pls
5115 3040 Pls
5467 3040 Pls
5820 3040 Pls
6172 3040 Pls
6525 3040 Pls
6877 3040 Pls
7230 3040 Pls
7582 3040 Pls
7935 3040 Pls
8287 3040 Pls
8640 3040 Pls
8992 3040 Pls
9345 3042 Pls
9697 3041 Pls
10050 3057 Pls
10402 3058 Pls
10755 3064 Pls
11107 3089 Pls
11460 3095 Pls
11812 3280 Pls
12165 3310 Pls
12517 3690 Pls
12869 3854 Pls
13222 4461 Pls
13574 4807 Pls
13927 5778 Pls
14279 6691 Pls
14632 7838 Pls
14984 8573 Pls
15337 9963 Pls
15689 10996 Pls
16042 12087 Pls
16394 12526 Pls
16747 13434 Pls
17099 13912 Pls
17452 14491 Pls
17804 14514 Pls
18157 14575 Pls
18509 14703 Pls
18862 14696 Pls
19214 14722 Pls
19567 14763 Pls
19919 14788 Pls
20272 14830 Pls
20624 14845 Pls
20977 14865 Pls
21329 14904 Pls
19827 7153 Pls
% End plot #1
% Begin plot #2
6.000 UP
6.000 UL
LTb
LC1 setrgbcolor
LCb setrgbcolor
18896 6613 M
[ [(Times-Roman) 600.0 0.0 true true 0 (10)]
] -200.0 MRshow
6.000 UP
6.000 UL
LTb
LC1 setrgbcolor
19256 6613 M
1143 0 V
3705 3040 M
352 0 V
353 0 V
352 0 V
353 0 V
352 0 V
353 0 V
352 0 V
353 0 V
352 0 V
353 0 V
352 0 V
353 0 V
352 0 V
353 0 V
352 24 V
353 -11 V
352 13 V
353 36 V
352 104 V
353 269 V
352 325 V
353 463 V
352 886 V
353 309 V
352 1280 V
352 1150 V
353 1321 V
352 827 V
353 1328 V
352 875 V
353 1073 V
352 603 V
353 450 V
352 127 V
353 67 V
352 47 V
353 20 V
352 21 V
353 -2 V
352 13 V
353 25 V
352 3 V
353 34 V
352 11 V
353 26 V
352 31 V
353 27 V
352 24 V
353 27 V
352 38 V
3705 3040 Crs
4057 3040 Crs
4410 3040 Crs
4762 3040 Crs
5115 3040 Crs
5467 3040 Crs
5820 3040 Crs
6172 3040 Crs
6525 3040 Crs
6877 3040 Crs
7230 3040 Crs
7582 3040 Crs
7935 3040 Crs
8287 3040 Crs
8640 3040 Crs
8992 3064 Crs
9345 3053 Crs
9697 3066 Crs
10050 3102 Crs
10402 3206 Crs
10755 3475 Crs
11107 3800 Crs
11460 4263 Crs
11812 5149 Crs
12165 5458 Crs
12517 6738 Crs
12869 7888 Crs
13222 9209 Crs
13574 10036 Crs
13927 11364 Crs
14279 12239 Crs
14632 13312 Crs
14984 13915 Crs
15337 14365 Crs
15689 14492 Crs
16042 14559 Crs
16394 14606 Crs
16747 14626 Crs
17099 14647 Crs
17452 14645 Crs
17804 14658 Crs
18157 14683 Crs
18509 14686 Crs
18862 14720 Crs
19214 14731 Crs
19567 14757 Crs
19919 14788 Crs
20272 14815 Crs
20624 14839 Crs
20977 14866 Crs
21329 14904 Crs
19827 6613 Crs
% End plot #2
% Begin plot #3
6.000 UP
6.000 UL
LTb
LC2 setrgbcolor
LCb setrgbcolor
18896 6073 M
[ [(Times-Roman) 600.0 0.0 true true 0 (20)]
] -200.0 MRshow
6.000 UP
6.000 UL
LTb
LC2 setrgbcolor
19256 6073 M
1143 0 V
3705 3040 M
352 0 V
353 0 V
352 0 V
353 0 V
352 0 V
353 0 V
352 0 V
353 0 V
352 0 V
353 0 V
352 0 V
353 0 V
352 12 V
353 -12 V
352 142 V
353 200 V
352 199 V
353 573 V
352 430 V
353 932 V
352 1305 V
353 1215 V
352 1553 V
353 927 V
352 1787 V
352 1081 V
353 602 V
352 381 V
353 155 V
352 63 V
353 32 V
352 -7 V
353 -5 V
352 11 V
353 8 V
352 -4 V
353 5 V
352 13 V
353 19 V
352 5 V
353 18 V
352 14 V
353 18 V
352 22 V
353 23 V
352 26 V
353 31 V
352 22 V
353 29 V
352 39 V
3705 3040 Star
4057 3040 Star
4410 3040 Star
4762 3040 Star
5115 3040 Star
5467 3040 Star
5820 3040 Star
6172 3040 Star
6525 3040 Star
6877 3040 Star
7230 3040 Star
7582 3040 Star
7935 3040 Star
8287 3052 Star
8640 3040 Star
8992 3182 Star
9345 3382 Star
9697 3581 Star
10050 4154 Star
10402 4584 Star
10755 5516 Star
11107 6821 Star
11460 8036 Star
11812 9589 Star
12165 10516 Star
12517 12303 Star
12869 13384 Star
13222 13986 Star
13574 14367 Star
13927 14522 Star
14279 14585 Star
14632 14617 Star
14984 14610 Star
15337 14605 Star
15689 14616 Star
16042 14624 Star
16394 14620 Star
16747 14625 Star
17099 14638 Star
17452 14657 Star
17804 14662 Star
18157 14680 Star
18509 14694 Star
18862 14712 Star
19214 14734 Star
19567 14757 Star
19919 14783 Star
20272 14814 Star
20624 14836 Star
20977 14865 Star
21329 14904 Star
19827 6073 Star
% End plot #3
% Begin plot #4
6.000 UP
6.000 UL
LTb
LC3 setrgbcolor
LCb setrgbcolor
18896 5533 M
[ [(Times-Roman) 600.0 0.0 true true 0 (50)]
] -200.0 MRshow
6.000 UP
6.000 UL
LTb
LC3 setrgbcolor
19256 5533 M
1143 0 V
3705 3040 M
352 0 V
353 0 V
352 0 V
353 0 V
352 0 V
353 0 V
352 0 V
353 0 V
352 0 V
353 0 V
352 59 V
353 72 V
352 129 V
353 719 V
352 893 V
353 691 V
352 1871 V
353 1400 V
352 2071 V
353 1402 V
352 1094 V
353 943 V
352 161 V
353 104 V
352 -1 V
352 -7 V
353 -9 V
352 -7 V
353 -6 V
352 -4 V
353 -4 V
352 2 V
353 0 V
352 2 V
353 3 V
352 6 V
353 7 V
352 11 V
353 8 V
352 14 V
353 17 V
352 17 V
353 14 V
352 22 V
353 22 V
352 31 V
353 27 V
352 26 V
353 26 V
352 38 V
3705 3040 Box
4057 3040 Box
4410 3040 Box
4762 3040 Box
5115 3040 Box
5467 3040 Box
5820 3040 Box
6172 3040 Box
6525 3040 Box
6877 3040 Box
7230 3040 Box
7582 3099 Box
7935 3171 Box
8287 3300 Box
8640 4019 Box
8992 4912 Box
9345 5603 Box
9697 7474 Box
10050 8874 Box
10402 10945 Box
10755 12347 Box
11107 13441 Box
11460 14384 Box
11812 14545 Box
12165 14649 Box
12517 14648 Box
12869 14641 Box
13222 14632 Box
13574 14625 Box
13927 14619 Box
14279 14615 Box
14632 14611 Box
14984 14613 Box
15337 14613 Box
15689 14615 Box
16042 14618 Box
16394 14624 Box
16747 14631 Box
17099 14642 Box
17452 14650 Box
17804 14664 Box
18157 14681 Box
18509 14698 Box
18862 14712 Box
19214 14734 Box
19567 14756 Box
19919 14787 Box
20272 14814 Box
20624 14840 Box
20977 14866 Box
21329 14904 Box
19827 5533 Box
% End plot #4
% Begin plot #5
6.000 UP
6.000 UL
LTb
LC4 setrgbcolor
LCb setrgbcolor
18896 4993 M
[ [(Times-Roman) 600.0 0.0 true true 0 (100)]
] -200.0 MRshow
6.000 UP
6.000 UL
LTb
LC4 setrgbcolor
19256 4993 M
1143 0 V
3705 3040 M
352 0 V
353 0 V
352 0 V
353 0 V
352 0 V
353 0 V
352 0 V
353 0 V
352 59 V
353 60 V
352 354 V
353 698 V
352 1180 V
353 1364 V
352 2184 V
353 1893 V
352 1806 V
353 1565 V
352 369 V
353 146 V
352 -16 V
353 -15 V
352 -14 V
353 -12 V
352 -12 V
352 -11 V
353 -6 V
352 -8 V
353 -5 V
352 -3 V
353 -3 V
352 -1 V
353 3 V
352 0 V
353 5 V
352 4 V
353 10 V
352 8 V
353 10 V
352 12 V
353 17 V
352 17 V
353 17 V
352 18 V
353 24 V
352 28 V
353 30 V
352 25 V
353 25 V
352 39 V
3705 3040 BoxF
4057 3040 BoxF
4410 3040 BoxF
4762 3040 BoxF
5115 3040 BoxF
5467 3040 BoxF
5820 3040 BoxF
6172 3040 BoxF
6525 3040 BoxF
6877 3099 BoxF
7230 3159 BoxF
7582 3513 BoxF
7935 4211 BoxF
8287 5391 BoxF
8640 6755 BoxF
8992 8939 BoxF
9345 10832 BoxF
9697 12638 BoxF
10050 14203 BoxF
10402 14572 BoxF
10755 14718 BoxF
11107 14702 BoxF
11460 14687 BoxF
11812 14673 BoxF
12165 14661 BoxF
12517 14649 BoxF
12869 14638 BoxF
13222 14632 BoxF
13574 14624 BoxF
13927 14619 BoxF
14279 14616 BoxF
14632 14613 BoxF
14984 14612 BoxF
15337 14615 BoxF
15689 14615 BoxF
16042 14620 BoxF
16394 14624 BoxF
16747 14634 BoxF
17099 14642 BoxF
17452 14652 BoxF
17804 14664 BoxF
18157 14681 BoxF
18509 14698 BoxF
18862 14715 BoxF
19214 14733 BoxF
19567 14757 BoxF
19919 14785 BoxF
20272 14815 BoxF
20624 14840 BoxF
20977 14865 BoxF
21329 14904 BoxF
19827 4993 BoxF
% End plot #5
% Begin plot #6
6.000 UP
6.000 UL
LTb
LC5 setrgbcolor
LCb setrgbcolor
18896 4453 M
[ [(Times-Roman) 600.0 0.0 true true 0 (200)]
] -200.0 MRshow
6.000 UP
6.000 UL
LTb
LC5 setrgbcolor
19256 4453 M
1143 0 V
3705 3040 M
352 0 V
353 0 V
352 0 V
353 0 V
352 0 V
353 0 V
352 0 V
353 0 V
352 830 V
353 237 V
352 1894 V
353 1298 V
352 2594 V
353 1874 V
352 2693 V
353 216 V
352 96 V
353 -19 V
352 -16 V
353 -19 V
352 -17 V
353 -15 V
352 -13 V
353 -12 V
352 -12 V
352 -11 V
353 -6 V
352 -7 V
353 -3 V
352 -5 V
353 -5 V
352 0 V
353 0 V
352 4 V
353 4 V
352 8 V
353 6 V
352 9 V
353 9 V
352 15 V
353 15 V
352 17 V
353 16 V
352 19 V
353 24 V
352 29 V
353 29 V
352 24 V
353 25 V
352 39 V
3705 3040 Circle
4057 3040 Circle
4410 3040 Circle
4762 3040 Circle
5115 3040 Circle
5467 3040 Circle
5820 3040 Circle
6172 3040 Circle
6525 3040 Circle
6877 3870 Circle
7230 4107 Circle
7582 6001 Circle
7935 7299 Circle
8287 9893 Circle
8640 11767 Circle
8992 14460 Circle
9345 14676 Circle
9697 14772 Circle
10050 14753 Circle
10402 14737 Circle
10755 14718 Circle
11107 14701 Circle
11460 14686 Circle
11812 14673 Circle
12165 14661 Circle
12517 14649 Circle
12869 14638 Circle
13222 14632 Circle
13574 14625 Circle
13927 14622 Circle
14279 14617 Circle
14632 14612 Circle
14984 14612 Circle
15337 14612 Circle
15689 14616 Circle
16042 14620 Circle
16394 14628 Circle
16747 14634 Circle
17099 14643 Circle
17452 14652 Circle
17804 14667 Circle
18157 14682 Circle
18509 14699 Circle
18862 14715 Circle
19214 14734 Circle
19567 14758 Circle
19919 14787 Circle
20272 14816 Circle
20624 14840 Circle
20977 14865 Circle
21329 14904 Circle
19827 4453 Circle
% End plot #6
% Begin plot #7
6.000 UP
6.000 UL
LTb
LC6 setrgbcolor
LCb setrgbcolor
18896 3913 M
[ [(Times-Roman) 600.0 0.0 true true 0 (500)]
] -200.0 MRshow
6.000 UP
6.000 UL
LTb
LC6 setrgbcolor
19256 3913 M
1143 0 V
3705 3040 M
352 0 V
353 0 V
352 0 V
353 0 V
352 0 V
353 0 V
352 119 V
353 830 V
352 2965 V
353 1776 V
352 2720 V
353 2357 V
352 692 V
353 335 V
352 -20 V
353 -22 V
352 -19 V
353 -20 V
352 -17 V
353 -19 V
352 -16 V
353 -15 V
352 -13 V
353 -12 V
352 -12 V
352 -10 V
353 -9 V
352 -6 V
353 -5 V
352 -4 V
353 -3 V
352 0 V
353 1 V
352 3 V
353 3 V
352 6 V
353 7 V
352 10 V
353 10 V
352 14 V
353 15 V
352 15 V
353 18 V
352 19 V
353 24 V
352 28 V
353 30 V
352 25 V
353 25 V
352 39 V
3705 3040 CircleF
4057 3040 CircleF
4410 3040 CircleF
4762 3040 CircleF
5115 3040 CircleF
5467 3040 CircleF
5820 3040 CircleF
6172 3159 CircleF
6525 3989 CircleF
6877 6954 CircleF
7230 8730 CircleF
7582 11450 CircleF
7935 13807 CircleF
8287 14499 CircleF
8640 14834 CircleF
8992 14814 CircleF
9345 14792 CircleF
9697 14773 CircleF
10050 14753 CircleF
10402 14736 CircleF
10755 14717 CircleF
11107 14701 CircleF
11460 14686 CircleF
11812 14673 CircleF
12165 14661 CircleF
12517 14649 CircleF
12869 14639 CircleF
13222 14630 CircleF
13574 14624 CircleF
13927 14619 CircleF
14279 14615 CircleF
14632 14612 CircleF
14984 14612 CircleF
15337 14613 CircleF
15689 14616 CircleF
16042 14619 CircleF
16394 14625 CircleF
16747 14632 CircleF
17099 14642 CircleF
17452 14652 CircleF
17804 14666 CircleF
18157 14681 CircleF
18509 14696 CircleF
18862 14714 CircleF
19214 14733 CircleF
19567 14757 CircleF
19919 14785 CircleF
20272 14815 CircleF
20624 14840 CircleF
20977 14865 CircleF
21329 14904 CircleF
19827 3913 CircleF
% End plot #7
% Begin plot #8
6.000 UP
6.000 UL
LTb
LC7 setrgbcolor
LCb setrgbcolor
18896 3373 M
[ [(Times-Roman) 600.0 0.0 true true 0 (1000)]
] -200.0 MRshow
6.000 UP
6.000 UL
LTb
LC7 setrgbcolor
19256 3373 M
1143 0 V
3705 3040 M
352 0 V
353 0 V
352 0 V
353 0 V
352 0 V
353 0 V
352 0 V
353 0 V
352 237 V
353 2371 V
352 6632 V
353 2355 V
352 219 V
353 -20 V
352 -20 V
353 -22 V
352 -20 V
353 -19 V
352 -17 V
353 -18 V
352 -17 V
353 -14 V
352 -14 V
353 -12 V
352 -12 V
352 -10 V
353 -8 V
352 -7 V
353 -5 V
352 -3 V
353 -3 V
352 -1 V
353 1 V
352 3 V
353 3 V
352 6 V
353 7 V
352 10 V
353 10 V
352 14 V
353 15 V
352 17 V
353 17 V
352 18 V
353 24 V
352 28 V
353 30 V
352 25 V
353 25 V
352 39 V
3705 3040 TriU
4057 3040 TriU
4410 3040 TriU
4762 3040 TriU
5115 3040 TriU
5467 3040 TriU
5820 3040 TriU
6172 3040 TriU
6525 3040 TriU
6877 3277 TriU
7230 5648 TriU
7582 12280 TriU
7935 14635 TriU
8287 14854 TriU
8640 14834 TriU
8992 14814 TriU
9345 14792 TriU
9697 14772 TriU
10050 14753 TriU
10402 14736 TriU
10755 14718 TriU
11107 14701 TriU
11460 14687 TriU
11812 14673 TriU
12165 14661 TriU
12517 14649 TriU
12869 14639 TriU
13222 14631 TriU
13574 14624 TriU
13927 14619 TriU
14279 14616 TriU
14632 14613 TriU
14984 14612 TriU
15337 14613 TriU
15689 14616 TriU
16042 14619 TriU
16394 14625 TriU
16747 14632 TriU
17099 14642 TriU
17452 14652 TriU
17804 14666 TriU
18157 14681 TriU
18509 14698 TriU
18862 14715 TriU
19214 14733 TriU
19567 14757 TriU
19919 14785 TriU
20272 14815 TriU
20624 14840 TriU
20977 14865 TriU
21329 14904 TriU
19827 3373 TriU
% End plot #8
2.000 UL
LTb
LCb setrgbcolor
1.000 UL
LTB
LCb setrgbcolor
3705 14904 N
0 -11864 V
17624 0 V
0 11864 V
-17624 0 V
Z stroke
1.000 UP
1.000 UL
LTb
LCb setrgbcolor
stroke
grestore
end
showpage
%%Trailer
%%DocumentFonts: Times-Italic Times-Roman
