%!PS-Adobe-2.0 EPSF-2.0
%%Title: VNR2_K8.eps
%%Creator: gnuplot 5.0 patchlevel 3
%%CreationDate: Sat Sep 16 12:08:47 2017
%%DocumentFonts: (atend)
%%BoundingBox: 50 50 1202 914
%%EndComments
%%BeginProlog
/gnudict 256 dict def
gnudict begin
%
% The following true/false flags may be edited by hand if desired.
% The unit line width and grayscale image gamma correction may also be changed.
%
/Color true def
/Blacktext false def
/Solid false def
/Dashlength 1 def
/Landscape false def
/Level1 false def
/Level3 false def
/Rounded false def
/ClipToBoundingBox false def
/SuppressPDFMark false def
/TransparentPatterns false def
/gnulinewidth 5.000 def
/userlinewidth gnulinewidth def
/Gamma 1.0 def
/BackgroundColor {-1.000 -1.000 -1.000} def
%
/vshift -316 def
/dl1 {
  10.0 Dashlength userlinewidth gnulinewidth div mul mul mul
  Rounded { currentlinewidth 0.75 mul sub dup 0 le { pop 0.01 } if } if
} def
/dl2 {
  10.0 Dashlength userlinewidth gnulinewidth div mul mul mul
  Rounded { currentlinewidth 0.75 mul add } if
} def
/hpt_ 31.5 def
/vpt_ 31.5 def
/hpt hpt_ def
/vpt vpt_ def
/doclip {
  ClipToBoundingBox {
    newpath 50 50 moveto 1202 50 lineto 1202 914 lineto 50 914 lineto closepath
    clip
  } if
} def
%
% Gnuplot Prolog Version 5.1 (Oct 2015)
%
%/SuppressPDFMark true def
%
/M {moveto} bind def
/L {lineto} bind def
/R {rmoveto} bind def
/V {rlineto} bind def
/N {newpath moveto} bind def
/Z {closepath} bind def
/C {setrgbcolor} bind def
/f {rlineto fill} bind def
/g {setgray} bind def
/Gshow {show} def   % May be redefined later in the file to support UTF-8
/vpt2 vpt 2 mul def
/hpt2 hpt 2 mul def
/Lshow {currentpoint stroke M 0 vshift R 
	Blacktext {gsave 0 setgray textshow grestore} {textshow} ifelse} def
/Rshow {currentpoint stroke M dup stringwidth pop neg vshift R
	Blacktext {gsave 0 setgray textshow grestore} {textshow} ifelse} def
/Cshow {currentpoint stroke M dup stringwidth pop -2 div vshift R 
	Blacktext {gsave 0 setgray textshow grestore} {textshow} ifelse} def
/UP {dup vpt_ mul /vpt exch def hpt_ mul /hpt exch def
  /hpt2 hpt 2 mul def /vpt2 vpt 2 mul def} def
/DL {Color {setrgbcolor Solid {pop []} if 0 setdash}
 {pop pop pop 0 setgray Solid {pop []} if 0 setdash} ifelse} def
/BL {stroke userlinewidth 2 mul setlinewidth
	Rounded {1 setlinejoin 1 setlinecap} if} def
/AL {stroke userlinewidth 2 div setlinewidth
	Rounded {1 setlinejoin 1 setlinecap} if} def
/UL {dup gnulinewidth mul /userlinewidth exch def
	dup 1 lt {pop 1} if 10 mul /udl exch def} def
/PL {stroke userlinewidth setlinewidth
	Rounded {1 setlinejoin 1 setlinecap} if} def
3.8 setmiterlimit
% Classic Line colors (version 5.0)
/LCw {1 1 1} def
/LCb {0 0 0} def
/LCa {0 0 0} def
/LC0 {1 0 0} def
/LC1 {0 1 0} def
/LC2 {0 0 1} def
/LC3 {1 0 1} def
/LC4 {0 1 1} def
/LC5 {1 1 0} def
/LC6 {0 0 0} def
/LC7 {1 0.3 0} def
/LC8 {0.5 0.5 0.5} def
% Default dash patterns (version 5.0)
/LTB {BL [] LCb DL} def
/LTw {PL [] 1 setgray} def
/LTb {PL [] LCb DL} def
/LTa {AL [1 udl mul 2 udl mul] 0 setdash LCa setrgbcolor} def
/LT0 {PL [] LC0 DL} def
/LT1 {PL [2 dl1 3 dl2] LC1 DL} def
/LT2 {PL [1 dl1 1.5 dl2] LC2 DL} def
/LT3 {PL [6 dl1 2 dl2 1 dl1 2 dl2] LC3 DL} def
/LT4 {PL [1 dl1 2 dl2 6 dl1 2 dl2 1 dl1 2 dl2] LC4 DL} def
/LT5 {PL [4 dl1 2 dl2] LC5 DL} def
/LT6 {PL [1.5 dl1 1.5 dl2 1.5 dl1 1.5 dl2 1.5 dl1 6 dl2] LC6 DL} def
/LT7 {PL [3 dl1 3 dl2 1 dl1 3 dl2] LC7 DL} def
/LT8 {PL [2 dl1 2 dl2 2 dl1 6 dl2] LC8 DL} def
/SL {[] 0 setdash} def
/Pnt {stroke [] 0 setdash gsave 1 setlinecap M 0 0 V stroke grestore} def
/Dia {stroke [] 0 setdash 2 copy vpt add M
  hpt neg vpt neg V hpt vpt neg V
  hpt vpt V hpt neg vpt V closepath stroke
  Pnt} def
/Pls {stroke [] 0 setdash vpt sub M 0 vpt2 V
  currentpoint stroke M
  hpt neg vpt neg R hpt2 0 V stroke
 } def
/Box {stroke [] 0 setdash 2 copy exch hpt sub exch vpt add M
  0 vpt2 neg V hpt2 0 V 0 vpt2 V
  hpt2 neg 0 V closepath stroke
  Pnt} def
/Crs {stroke [] 0 setdash exch hpt sub exch vpt add M
  hpt2 vpt2 neg V currentpoint stroke M
  hpt2 neg 0 R hpt2 vpt2 V stroke} def
/TriU {stroke [] 0 setdash 2 copy vpt 1.12 mul add M
  hpt neg vpt -1.62 mul V
  hpt 2 mul 0 V
  hpt neg vpt 1.62 mul V closepath stroke
  Pnt} def
/Star {2 copy Pls Crs} def
/BoxF {stroke [] 0 setdash exch hpt sub exch vpt add M
  0 vpt2 neg V hpt2 0 V 0 vpt2 V
  hpt2 neg 0 V closepath fill} def
/TriUF {stroke [] 0 setdash vpt 1.12 mul add M
  hpt neg vpt -1.62 mul V
  hpt 2 mul 0 V
  hpt neg vpt 1.62 mul V closepath fill} def
/TriD {stroke [] 0 setdash 2 copy vpt 1.12 mul sub M
  hpt neg vpt 1.62 mul V
  hpt 2 mul 0 V
  hpt neg vpt -1.62 mul V closepath stroke
  Pnt} def
/TriDF {stroke [] 0 setdash vpt 1.12 mul sub M
  hpt neg vpt 1.62 mul V
  hpt 2 mul 0 V
  hpt neg vpt -1.62 mul V closepath fill} def
/DiaF {stroke [] 0 setdash vpt add M
  hpt neg vpt neg V hpt vpt neg V
  hpt vpt V hpt neg vpt V closepath fill} def
/Pent {stroke [] 0 setdash 2 copy gsave
  translate 0 hpt M 4 {72 rotate 0 hpt L} repeat
  closepath stroke grestore Pnt} def
/PentF {stroke [] 0 setdash gsave
  translate 0 hpt M 4 {72 rotate 0 hpt L} repeat
  closepath fill grestore} def
/Circle {stroke [] 0 setdash 2 copy
  hpt 0 360 arc stroke Pnt} def
/CircleF {stroke [] 0 setdash hpt 0 360 arc fill} def
/C0 {BL [] 0 setdash 2 copy moveto vpt 90 450 arc} bind def
/C1 {BL [] 0 setdash 2 copy moveto
	2 copy vpt 0 90 arc closepath fill
	vpt 0 360 arc closepath} bind def
/C2 {BL [] 0 setdash 2 copy moveto
	2 copy vpt 90 180 arc closepath fill
	vpt 0 360 arc closepath} bind def
/C3 {BL [] 0 setdash 2 copy moveto
	2 copy vpt 0 180 arc closepath fill
	vpt 0 360 arc closepath} bind def
/C4 {BL [] 0 setdash 2 copy moveto
	2 copy vpt 180 270 arc closepath fill
	vpt 0 360 arc closepath} bind def
/C5 {BL [] 0 setdash 2 copy moveto
	2 copy vpt 0 90 arc
	2 copy moveto
	2 copy vpt 180 270 arc closepath fill
	vpt 0 360 arc} bind def
/C6 {BL [] 0 setdash 2 copy moveto
	2 copy vpt 90 270 arc closepath fill
	vpt 0 360 arc closepath} bind def
/C7 {BL [] 0 setdash 2 copy moveto
	2 copy vpt 0 270 arc closepath fill
	vpt 0 360 arc closepath} bind def
/C8 {BL [] 0 setdash 2 copy moveto
	2 copy vpt 270 360 arc closepath fill
	vpt 0 360 arc closepath} bind def
/C9 {BL [] 0 setdash 2 copy moveto
	2 copy vpt 270 450 arc closepath fill
	vpt 0 360 arc closepath} bind def
/C10 {BL [] 0 setdash 2 copy 2 copy moveto vpt 270 360 arc closepath fill
	2 copy moveto
	2 copy vpt 90 180 arc closepath fill
	vpt 0 360 arc closepath} bind def
/C11 {BL [] 0 setdash 2 copy moveto
	2 copy vpt 0 180 arc closepath fill
	2 copy moveto
	2 copy vpt 270 360 arc closepath fill
	vpt 0 360 arc closepath} bind def
/C12 {BL [] 0 setdash 2 copy moveto
	2 copy vpt 180 360 arc closepath fill
	vpt 0 360 arc closepath} bind def
/C13 {BL [] 0 setdash 2 copy moveto
	2 copy vpt 0 90 arc closepath fill
	2 copy moveto
	2 copy vpt 180 360 arc closepath fill
	vpt 0 360 arc closepath} bind def
/C14 {BL [] 0 setdash 2 copy moveto
	2 copy vpt 90 360 arc closepath fill
	vpt 0 360 arc} bind def
/C15 {BL [] 0 setdash 2 copy vpt 0 360 arc closepath fill
	vpt 0 360 arc closepath} bind def
/Rec {newpath 4 2 roll moveto 1 index 0 rlineto 0 exch rlineto
	neg 0 rlineto closepath} bind def
/Square {dup Rec} bind def
/Bsquare {vpt sub exch vpt sub exch vpt2 Square} bind def
/S0 {BL [] 0 setdash 2 copy moveto 0 vpt rlineto BL Bsquare} bind def
/S1 {BL [] 0 setdash 2 copy vpt Square fill Bsquare} bind def
/S2 {BL [] 0 setdash 2 copy exch vpt sub exch vpt Square fill Bsquare} bind def
/S3 {BL [] 0 setdash 2 copy exch vpt sub exch vpt2 vpt Rec fill Bsquare} bind def
/S4 {BL [] 0 setdash 2 copy exch vpt sub exch vpt sub vpt Square fill Bsquare} bind def
/S5 {BL [] 0 setdash 2 copy 2 copy vpt Square fill
	exch vpt sub exch vpt sub vpt Square fill Bsquare} bind def
/S6 {BL [] 0 setdash 2 copy exch vpt sub exch vpt sub vpt vpt2 Rec fill Bsquare} bind def
/S7 {BL [] 0 setdash 2 copy exch vpt sub exch vpt sub vpt vpt2 Rec fill
	2 copy vpt Square fill Bsquare} bind def
/S8 {BL [] 0 setdash 2 copy vpt sub vpt Square fill Bsquare} bind def
/S9 {BL [] 0 setdash 2 copy vpt sub vpt vpt2 Rec fill Bsquare} bind def
/S10 {BL [] 0 setdash 2 copy vpt sub vpt Square fill 2 copy exch vpt sub exch vpt Square fill
	Bsquare} bind def
/S11 {BL [] 0 setdash 2 copy vpt sub vpt Square fill 2 copy exch vpt sub exch vpt2 vpt Rec fill
	Bsquare} bind def
/S12 {BL [] 0 setdash 2 copy exch vpt sub exch vpt sub vpt2 vpt Rec fill Bsquare} bind def
/S13 {BL [] 0 setdash 2 copy exch vpt sub exch vpt sub vpt2 vpt Rec fill
	2 copy vpt Square fill Bsquare} bind def
/S14 {BL [] 0 setdash 2 copy exch vpt sub exch vpt sub vpt2 vpt Rec fill
	2 copy exch vpt sub exch vpt Square fill Bsquare} bind def
/S15 {BL [] 0 setdash 2 copy Bsquare fill Bsquare} bind def
/D0 {gsave translate 45 rotate 0 0 S0 stroke grestore} bind def
/D1 {gsave translate 45 rotate 0 0 S1 stroke grestore} bind def
/D2 {gsave translate 45 rotate 0 0 S2 stroke grestore} bind def
/D3 {gsave translate 45 rotate 0 0 S3 stroke grestore} bind def
/D4 {gsave translate 45 rotate 0 0 S4 stroke grestore} bind def
/D5 {gsave translate 45 rotate 0 0 S5 stroke grestore} bind def
/D6 {gsave translate 45 rotate 0 0 S6 stroke grestore} bind def
/D7 {gsave translate 45 rotate 0 0 S7 stroke grestore} bind def
/D8 {gsave translate 45 rotate 0 0 S8 stroke grestore} bind def
/D9 {gsave translate 45 rotate 0 0 S9 stroke grestore} bind def
/D10 {gsave translate 45 rotate 0 0 S10 stroke grestore} bind def
/D11 {gsave translate 45 rotate 0 0 S11 stroke grestore} bind def
/D12 {gsave translate 45 rotate 0 0 S12 stroke grestore} bind def
/D13 {gsave translate 45 rotate 0 0 S13 stroke grestore} bind def
/D14 {gsave translate 45 rotate 0 0 S14 stroke grestore} bind def
/D15 {gsave translate 45 rotate 0 0 S15 stroke grestore} bind def
/DiaE {stroke [] 0 setdash vpt add M
  hpt neg vpt neg V hpt vpt neg V
  hpt vpt V hpt neg vpt V closepath stroke} def
/BoxE {stroke [] 0 setdash exch hpt sub exch vpt add M
  0 vpt2 neg V hpt2 0 V 0 vpt2 V
  hpt2 neg 0 V closepath stroke} def
/TriUE {stroke [] 0 setdash vpt 1.12 mul add M
  hpt neg vpt -1.62 mul V
  hpt 2 mul 0 V
  hpt neg vpt 1.62 mul V closepath stroke} def
/TriDE {stroke [] 0 setdash vpt 1.12 mul sub M
  hpt neg vpt 1.62 mul V
  hpt 2 mul 0 V
  hpt neg vpt -1.62 mul V closepath stroke} def
/PentE {stroke [] 0 setdash gsave
  translate 0 hpt M 4 {72 rotate 0 hpt L} repeat
  closepath stroke grestore} def
/CircE {stroke [] 0 setdash 
  hpt 0 360 arc stroke} def
/Opaque {gsave closepath 1 setgray fill grestore 0 setgray closepath} def
/DiaW {stroke [] 0 setdash vpt add M
  hpt neg vpt neg V hpt vpt neg V
  hpt vpt V hpt neg vpt V Opaque stroke} def
/BoxW {stroke [] 0 setdash exch hpt sub exch vpt add M
  0 vpt2 neg V hpt2 0 V 0 vpt2 V
  hpt2 neg 0 V Opaque stroke} def
/TriUW {stroke [] 0 setdash vpt 1.12 mul add M
  hpt neg vpt -1.62 mul V
  hpt 2 mul 0 V
  hpt neg vpt 1.62 mul V Opaque stroke} def
/TriDW {stroke [] 0 setdash vpt 1.12 mul sub M
  hpt neg vpt 1.62 mul V
  hpt 2 mul 0 V
  hpt neg vpt -1.62 mul V Opaque stroke} def
/PentW {stroke [] 0 setdash gsave
  translate 0 hpt M 4 {72 rotate 0 hpt L} repeat
  Opaque stroke grestore} def
/CircW {stroke [] 0 setdash 
  hpt 0 360 arc Opaque stroke} def
/BoxFill {gsave Rec 1 setgray fill grestore} def
/Density {
  /Fillden exch def
  currentrgbcolor
  /ColB exch def /ColG exch def /ColR exch def
  /ColR ColR Fillden mul Fillden sub 1 add def
  /ColG ColG Fillden mul Fillden sub 1 add def
  /ColB ColB Fillden mul Fillden sub 1 add def
  ColR ColG ColB setrgbcolor} def
/BoxColFill {gsave Rec PolyFill} def
/PolyFill {gsave Density fill grestore grestore} def
/h {rlineto rlineto rlineto gsave closepath fill grestore} bind def
%
% PostScript Level 1 Pattern Fill routine for rectangles
% Usage: x y w h s a XX PatternFill
%	x,y = lower left corner of box to be filled
%	w,h = width and height of box
%	  a = angle in degrees between lines and x-axis
%	 XX = 0/1 for no/yes cross-hatch
%
/PatternFill {gsave /PFa [ 9 2 roll ] def
  PFa 0 get PFa 2 get 2 div add PFa 1 get PFa 3 get 2 div add translate
  PFa 2 get -2 div PFa 3 get -2 div PFa 2 get PFa 3 get Rec
  TransparentPatterns {} {gsave 1 setgray fill grestore} ifelse
  clip
  currentlinewidth 0.5 mul setlinewidth
  /PFs PFa 2 get dup mul PFa 3 get dup mul add sqrt def
  0 0 M PFa 5 get rotate PFs -2 div dup translate
  0 1 PFs PFa 4 get div 1 add floor cvi
	{PFa 4 get mul 0 M 0 PFs V} for
  0 PFa 6 get ne {
	0 1 PFs PFa 4 get div 1 add floor cvi
	{PFa 4 get mul 0 2 1 roll M PFs 0 V} for
 } if
  stroke grestore} def
%
/languagelevel where
 {pop languagelevel} {1} ifelse
dup 2 lt
	{/InterpretLevel1 true def
	 /InterpretLevel3 false def}
	{/InterpretLevel1 Level1 def
	 2 gt
	    {/InterpretLevel3 Level3 def}
	    {/InterpretLevel3 false def}
	 ifelse }
 ifelse
%
% PostScript level 2 pattern fill definitions
%
/Level2PatternFill {
/Tile8x8 {/PaintType 2 /PatternType 1 /TilingType 1 /BBox [0 0 8 8] /XStep 8 /YStep 8}
	bind def
/KeepColor {currentrgbcolor [/Pattern /DeviceRGB] setcolorspace} bind def
<< Tile8x8
 /PaintProc {0.5 setlinewidth pop 0 0 M 8 8 L 0 8 M 8 0 L stroke} 
>> matrix makepattern
/Pat1 exch def
<< Tile8x8
 /PaintProc {0.5 setlinewidth pop 0 0 M 8 8 L 0 8 M 8 0 L stroke
	0 4 M 4 8 L 8 4 L 4 0 L 0 4 L stroke}
>> matrix makepattern
/Pat2 exch def
<< Tile8x8
 /PaintProc {0.5 setlinewidth pop 0 0 M 0 8 L
	8 8 L 8 0 L 0 0 L fill}
>> matrix makepattern
/Pat3 exch def
<< Tile8x8
 /PaintProc {0.5 setlinewidth pop -4 8 M 8 -4 L
	0 12 M 12 0 L stroke}
>> matrix makepattern
/Pat4 exch def
<< Tile8x8
 /PaintProc {0.5 setlinewidth pop -4 0 M 8 12 L
	0 -4 M 12 8 L stroke}
>> matrix makepattern
/Pat5 exch def
<< Tile8x8
 /PaintProc {0.5 setlinewidth pop -2 8 M 4 -4 L
	0 12 M 8 -4 L 4 12 M 10 0 L stroke}
>> matrix makepattern
/Pat6 exch def
<< Tile8x8
 /PaintProc {0.5 setlinewidth pop -2 0 M 4 12 L
	0 -4 M 8 12 L 4 -4 M 10 8 L stroke}
>> matrix makepattern
/Pat7 exch def
<< Tile8x8
 /PaintProc {0.5 setlinewidth pop 8 -2 M -4 4 L
	12 0 M -4 8 L 12 4 M 0 10 L stroke}
>> matrix makepattern
/Pat8 exch def
<< Tile8x8
 /PaintProc {0.5 setlinewidth pop 0 -2 M 12 4 L
	-4 0 M 12 8 L -4 4 M 8 10 L stroke}
>> matrix makepattern
/Pat9 exch def
/Pattern1 {PatternBgnd KeepColor Pat1 setpattern} bind def
/Pattern2 {PatternBgnd KeepColor Pat2 setpattern} bind def
/Pattern3 {PatternBgnd KeepColor Pat3 setpattern} bind def
/Pattern4 {PatternBgnd KeepColor Landscape {Pat5} {Pat4} ifelse setpattern} bind def
/Pattern5 {PatternBgnd KeepColor Landscape {Pat4} {Pat5} ifelse setpattern} bind def
/Pattern6 {PatternBgnd KeepColor Landscape {Pat9} {Pat6} ifelse setpattern} bind def
/Pattern7 {PatternBgnd KeepColor Landscape {Pat8} {Pat7} ifelse setpattern} bind def
} def
%
%
%End of PostScript Level 2 code
%
/PatternBgnd {
  TransparentPatterns {} {gsave 1 setgray fill grestore} ifelse
} def
%
% Substitute for Level 2 pattern fill codes with
% grayscale if Level 2 support is not selected.
%
/Level1PatternFill {
/Pattern1 {0.250 Density} bind def
/Pattern2 {0.500 Density} bind def
/Pattern3 {0.750 Density} bind def
/Pattern4 {0.125 Density} bind def
/Pattern5 {0.375 Density} bind def
/Pattern6 {0.625 Density} bind def
/Pattern7 {0.875 Density} bind def
} def
%
% Now test for support of Level 2 code
%
Level1 {Level1PatternFill} {Level2PatternFill} ifelse
%
/Symbol-Oblique /Symbol findfont [1 0 .167 1 0 0] makefont
dup length dict begin {1 index /FID eq {pop pop} {def} ifelse} forall
currentdict end definefont pop
%
/MFshow {
   { dup 5 get 3 ge
     { 5 get 3 eq {gsave} {grestore} ifelse }
     {dup dup 0 get findfont exch 1 get scalefont setfont
     [ currentpoint ] exch dup 2 get 0 exch R dup 5 get 2 ne {dup dup 6
     get exch 4 get {textshow} {stringwidth pop 0 R} ifelse }if dup 5 get 0 eq
     {dup 3 get {2 get neg 0 exch R pop} {pop aload pop M} ifelse} {dup 5
     get 1 eq {dup 2 get exch dup 3 get exch 6 get stringwidth pop -2 div
     dup 0 R} {dup 6 get stringwidth pop -2 div 0 R 6 get
     textshow 2 index {aload pop M neg 3 -1 roll neg R pop pop} {pop pop pop
     pop aload pop M} ifelse }ifelse }ifelse }
     ifelse }
   forall} def
/Gswidth {dup type /stringtype eq {stringwidth} {pop (n) stringwidth} ifelse} def
/MFwidth {0 exch { dup 5 get 3 ge { 5 get 3 eq { 0 } { pop } ifelse }
 {dup 3 get{dup dup 0 get findfont exch 1 get scalefont setfont
     6 get Gswidth pop add} {pop} ifelse} ifelse} forall} def
/MLshow { currentpoint stroke M
  0 exch R
  Blacktext {gsave 0 setgray MFshow grestore} {MFshow} ifelse } bind def
/MRshow { currentpoint stroke M
  exch dup MFwidth neg 3 -1 roll R
  Blacktext {gsave 0 setgray MFshow grestore} {MFshow} ifelse } bind def
/MCshow { currentpoint stroke M
  exch dup MFwidth -2 div 3 -1 roll R
  Blacktext {gsave 0 setgray MFshow grestore} {MFshow} ifelse } bind def
/XYsave    { [( ) 1 2 true false 3 ()] } bind def
/XYrestore { [( ) 1 2 true false 4 ()] } bind def
Level1 SuppressPDFMark or 
{} {
/SDict 10 dict def
systemdict /pdfmark known not {
  userdict /pdfmark systemdict /cleartomark get put
} if
SDict begin [
  /Title (VNR2_K8.eps)
  /Subject (gnuplot plot)
  /Creator (gnuplot 5.0 patchlevel 3)
  /Author (parada)
%  /Producer (gnuplot)
%  /Keywords ()
  /CreationDate (Sat Sep 16 12:08:47 2017)
  /DOCINFO pdfmark
end
} ifelse
%
% Support for boxed text - Ethan A Merritt May 2005
%
/InitTextBox { userdict /TBy2 3 -1 roll put userdict /TBx2 3 -1 roll put
           userdict /TBy1 3 -1 roll put userdict /TBx1 3 -1 roll put
	   /Boxing true def } def
/ExtendTextBox { Boxing
    { gsave dup false charpath pathbbox
      dup TBy2 gt {userdict /TBy2 3 -1 roll put} {pop} ifelse
      dup TBx2 gt {userdict /TBx2 3 -1 roll put} {pop} ifelse
      dup TBy1 lt {userdict /TBy1 3 -1 roll put} {pop} ifelse
      dup TBx1 lt {userdict /TBx1 3 -1 roll put} {pop} ifelse
      grestore } if } def
/PopTextBox { newpath TBx1 TBxmargin sub TBy1 TBymargin sub M
               TBx1 TBxmargin sub TBy2 TBymargin add L
	       TBx2 TBxmargin add TBy2 TBymargin add L
	       TBx2 TBxmargin add TBy1 TBymargin sub L closepath } def
/DrawTextBox { PopTextBox stroke /Boxing false def} def
/FillTextBox { gsave PopTextBox 1 1 1 setrgbcolor fill grestore /Boxing false def} def
0 0 0 0 InitTextBox
/TBxmargin 20 def
/TBymargin 20 def
/Boxing false def
/textshow { ExtendTextBox Gshow } def
%
% redundant definitions for compatibility with prologue.ps older than 5.0.2
/LTB {BL [] LCb DL} def
/LTb {PL [] LCb DL} def
end
%%EndProlog
%%Page: 1 1
gnudict begin
gsave
doclip
50 50 translate
0.050 0.050 scale
0 setgray
newpath
(Times-Roman) findfont 950 scalefont setfont
BackgroundColor 0 lt 3 1 roll 0 lt exch 0 lt or or not {BackgroundColor C 1.000 0 0 23040.00 17280.00 BoxColFill} if
1.000 UL
LTb
LCb setrgbcolor
3705 3040 M
63 0 V
17561 0 R
-63 0 V
stroke
3135 3040 M
[ [(Times-Roman) 700.0 0.0 true true 0 ( 0)]
] -233.3 MRshow
1.000 UL
LTb
LCb setrgbcolor
3705 5413 M
63 0 V
17561 0 R
-63 0 V
stroke
3135 5413 M
[ [(Times-Roman) 700.0 0.0 true true 0 ( 20)]
] -233.3 MRshow
1.000 UL
LTb
LCb setrgbcolor
3705 7786 M
63 0 V
17561 0 R
-63 0 V
stroke
3135 7786 M
[ [(Times-Roman) 700.0 0.0 true true 0 ( 40)]
] -233.3 MRshow
1.000 UL
LTb
LCb setrgbcolor
3705 10158 M
63 0 V
17561 0 R
-63 0 V
stroke
3135 10158 M
[ [(Times-Roman) 700.0 0.0 true true 0 ( 60)]
] -233.3 MRshow
1.000 UL
LTb
LCb setrgbcolor
3705 12531 M
63 0 V
17561 0 R
-63 0 V
stroke
3135 12531 M
[ [(Times-Roman) 700.0 0.0 true true 0 ( 80)]
] -233.3 MRshow
1.000 UL
LTb
LCb setrgbcolor
3705 14904 M
63 0 V
17561 0 R
-63 0 V
stroke
3135 14904 M
[ [(Times-Roman) 700.0 0.0 true true 0 ( 100)]
] -233.3 MRshow
1.000 UL
LTb
LCb setrgbcolor
3705 3040 M
0 63 V
0 11801 R
0 -63 V
stroke
3705 2090 M
[ [(Times-Roman) 700.0 0.0 true true 0 ( 0)]
] -233.3 MCshow
1.000 UL
LTb
LCb setrgbcolor
7230 3040 M
0 63 V
0 11801 R
0 -63 V
stroke
7230 2090 M
[ [(Times-Roman) 700.0 0.0 true true 0 ( 0.2)]
] -233.3 MCshow
1.000 UL
LTb
LCb setrgbcolor
10755 3040 M
0 63 V
0 11801 R
0 -63 V
stroke
10755 2090 M
[ [(Times-Roman) 700.0 0.0 true true 0 ( 0.4)]
] -233.3 MCshow
1.000 UL
LTb
LCb setrgbcolor
14279 3040 M
0 63 V
0 11801 R
0 -63 V
stroke
14279 2090 M
[ [(Times-Roman) 700.0 0.0 true true 0 ( 0.6)]
] -233.3 MCshow
1.000 UL
LTb
LCb setrgbcolor
17804 3040 M
0 63 V
0 11801 R
0 -63 V
stroke
17804 2090 M
[ [(Times-Roman) 700.0 0.0 true true 0 ( 0.8)]
] -233.3 MCshow
1.000 UL
LTb
LCb setrgbcolor
21329 3040 M
0 63 V
0 11801 R
0 -63 V
stroke
21329 2090 M
[ [(Times-Roman) 700.0 0.0 true true 0 ( 1)]
] -233.3 MCshow
1.000 UL
LTb
LCb setrgbcolor
1.000 UL
LTB
LCb setrgbcolor
3705 14904 N
0 -11864 V
17624 0 V
0 11864 V
-17624 0 V
Z stroke
1.000 UP
1.000 UL
LTb
LCb setrgbcolor
LCb setrgbcolor
1520 8972 M
currentpoint gsave translate -270 rotate 0 0 moveto
[ [(Times-Italic) 950.0 0.0 true true 0 (n\(K\))]
[(Times-Roman) 950.0 0.0 true true 0 ( [%])]
] -316.7 MCshow
grestore
LTb
LCb setrgbcolor
12802 665 M
[ [(Times-Italic) 950.0 0.0 true true 0 (p)]
] -316.7 MCshow
LTb
LCb setrgbcolor
12517 15854 M
[ [(Times-Roman) 950.0 0.0 true true 0 (K = 8)]
] -316.7 MCshow
LCb setrgbcolor
19107 7753 M
[ [(Times-Roman) 600.0 0.0 true true 0 (L)]
] -200.0 MCshow
LTb
% Begin plot #1
6.000 UP
6.000 UL
LTb
LC0 setrgbcolor
LCb setrgbcolor
18896 7153 M
[ [(Times-Roman) 600.0 0.0 true true 0 (5)]
] -200.0 MRshow
6.000 UP
6.000 UL
LTb
LC0 setrgbcolor
19256 7153 M
1143 0 V
3705 3040 M
352 0 V
353 0 V
352 0 V
353 0 V
352 0 V
353 0 V
352 0 V
353 0 V
352 0 V
353 0 V
352 0 V
353 0 V
352 0 V
353 2 V
352 -1 V
353 -1 V
352 1 V
353 13 V
352 -7 V
353 13 V
352 31 V
353 93 V
352 17 V
353 138 V
352 409 V
352 156 V
353 538 V
352 500 V
353 642 V
352 1210 V
353 799 V
352 1474 V
353 978 V
352 1134 V
353 920 V
352 1017 V
353 471 V
352 506 V
353 321 V
352 272 V
353 41 V
352 55 V
353 3 V
352 21 V
353 28 V
352 2 V
353 13 V
352 15 V
353 23 V
352 17 V
3705 3040 Pls
4057 3040 Pls
4410 3040 Pls
4762 3040 Pls
5115 3040 Pls
5467 3040 Pls
5820 3040 Pls
6172 3040 Pls
6525 3040 Pls
6877 3040 Pls
7230 3040 Pls
7582 3040 Pls
7935 3040 Pls
8287 3040 Pls
8640 3042 Pls
8992 3041 Pls
9345 3040 Pls
9697 3041 Pls
10050 3054 Pls
10402 3047 Pls
10755 3060 Pls
11107 3091 Pls
11460 3184 Pls
11812 3201 Pls
12165 3339 Pls
12517 3748 Pls
12869 3904 Pls
13222 4442 Pls
13574 4942 Pls
13927 5584 Pls
14279 6794 Pls
14632 7593 Pls
14984 9067 Pls
15337 10045 Pls
15689 11179 Pls
16042 12099 Pls
16394 13116 Pls
16747 13587 Pls
17099 14093 Pls
17452 14414 Pls
17804 14686 Pls
18157 14727 Pls
18509 14782 Pls
18862 14785 Pls
19214 14806 Pls
19567 14834 Pls
19919 14836 Pls
20272 14849 Pls
20624 14864 Pls
20977 14887 Pls
21329 14904 Pls
19827 7153 Pls
% End plot #1
% Begin plot #2
6.000 UP
6.000 UL
LTb
LC1 setrgbcolor
LCb setrgbcolor
18896 6613 M
[ [(Times-Roman) 600.0 0.0 true true 0 (10)]
] -200.0 MRshow
6.000 UP
6.000 UL
LTb
LC1 setrgbcolor
19256 6613 M
1143 0 V
3705 3040 M
352 0 V
353 0 V
352 0 V
353 0 V
352 0 V
353 0 V
352 0 V
353 0 V
352 0 V
353 0 V
352 0 V
353 0 V
352 0 V
353 0 V
352 1 V
353 12 V
352 36 V
353 13 V
352 201 V
353 121 V
352 245 V
353 659 V
352 528 V
353 939 V
352 678 V
352 1498 V
353 1274 V
352 1244 V
353 928 V
352 1073 V
353 814 V
352 703 V
353 478 V
352 152 V
353 96 V
352 11 V
353 14 V
352 10 V
353 -5 V
352 8 V
353 11 V
352 2 V
353 8 V
352 16 V
353 11 V
352 11 V
353 17 V
352 24 V
353 12 V
352 21 V
3705 3040 Crs
4057 3040 Crs
4410 3040 Crs
4762 3040 Crs
5115 3040 Crs
5467 3040 Crs
5820 3040 Crs
6172 3040 Crs
6525 3040 Crs
6877 3040 Crs
7230 3040 Crs
7582 3040 Crs
7935 3040 Crs
8287 3040 Crs
8640 3040 Crs
8992 3041 Crs
9345 3053 Crs
9697 3089 Crs
10050 3102 Crs
10402 3303 Crs
10755 3424 Crs
11107 3669 Crs
11460 4328 Crs
11812 4856 Crs
12165 5795 Crs
12517 6473 Crs
12869 7971 Crs
13222 9245 Crs
13574 10489 Crs
13927 11417 Crs
14279 12490 Crs
14632 13304 Crs
14984 14007 Crs
15337 14485 Crs
15689 14637 Crs
16042 14733 Crs
16394 14744 Crs
16747 14758 Crs
17099 14768 Crs
17452 14763 Crs
17804 14771 Crs
18157 14782 Crs
18509 14784 Crs
18862 14792 Crs
19214 14808 Crs
19567 14819 Crs
19919 14830 Crs
20272 14847 Crs
20624 14871 Crs
20977 14883 Crs
21329 14904 Crs
19827 6613 Crs
% End plot #2
% Begin plot #3
6.000 UP
6.000 UL
LTb
LC2 setrgbcolor
LCb setrgbcolor
18896 6073 M
[ [(Times-Roman) 600.0 0.0 true true 0 (20)]
] -200.0 MRshow
6.000 UP
6.000 UL
LTb
LC2 setrgbcolor
19256 6073 M
1143 0 V
3705 3040 M
352 0 V
353 0 V
352 0 V
353 0 V
352 0 V
353 0 V
352 0 V
353 0 V
352 0 V
353 0 V
352 0 V
353 0 V
352 12 V
353 0 V
352 107 V
353 130 V
352 355 V
353 353 V
352 471 V
353 1330 V
352 1046 V
353 1220 V
352 1430 V
353 1618 V
352 1144 V
352 1215 V
353 703 V
352 441 V
353 112 V
352 11 V
353 14 V
352 6 V
353 -2 V
352 -1 V
353 0 V
352 3 V
353 1 V
352 6 V
353 6 V
352 0 V
353 7 V
352 10 V
353 12 V
352 13 V
353 7 V
352 12 V
353 17 V
352 22 V
353 10 V
352 23 V
3705 3040 Star
4057 3040 Star
4410 3040 Star
4762 3040 Star
5115 3040 Star
5467 3040 Star
5820 3040 Star
6172 3040 Star
6525 3040 Star
6877 3040 Star
7230 3040 Star
7582 3040 Star
7935 3040 Star
8287 3052 Star
8640 3052 Star
8992 3159 Star
9345 3289 Star
9697 3644 Star
10050 3997 Star
10402 4468 Star
10755 5798 Star
11107 6844 Star
11460 8064 Star
11812 9494 Star
12165 11112 Star
12517 12256 Star
12869 13471 Star
13222 14174 Star
13574 14615 Star
13927 14727 Star
14279 14738 Star
14632 14752 Star
14984 14758 Star
15337 14756 Star
15689 14755 Star
16042 14755 Star
16394 14758 Star
16747 14759 Star
17099 14765 Star
17452 14771 Star
17804 14771 Star
18157 14778 Star
18509 14788 Star
18862 14800 Star
19214 14813 Star
19567 14820 Star
19919 14832 Star
20272 14849 Star
20624 14871 Star
20977 14881 Star
21329 14904 Star
19827 6073 Star
% End plot #3
% Begin plot #4
6.000 UP
6.000 UL
LTb
LC3 setrgbcolor
LCb setrgbcolor
18896 5533 M
[ [(Times-Roman) 600.0 0.0 true true 0 (50)]
] -200.0 MRshow
6.000 UP
6.000 UL
LTb
LC3 setrgbcolor
19256 5533 M
1143 0 V
3705 3040 M
352 0 V
353 0 V
352 0 V
353 0 V
352 0 V
353 0 V
352 0 V
353 0 V
352 0 V
353 0 V
352 47 V
353 119 V
352 131 V
353 509 V
352 768 V
353 1394 V
352 1687 V
353 1709 V
352 1375 V
353 1796 V
352 1264 V
353 592 V
352 309 V
353 15 V
352 30 V
352 -8 V
353 -5 V
352 -6 V
353 -6 V
352 -3 V
353 0 V
352 -2 V
353 0 V
352 -2 V
353 -1 V
352 3 V
353 5 V
352 3 V
353 5 V
352 7 V
353 4 V
352 9 V
353 12 V
352 10 V
353 7 V
352 15 V
353 19 V
352 20 V
353 12 V
352 21 V
3705 3040 Box
4057 3040 Box
4410 3040 Box
4762 3040 Box
5115 3040 Box
5467 3040 Box
5820 3040 Box
6172 3040 Box
6525 3040 Box
6877 3040 Box
7230 3040 Box
7582 3087 Box
7935 3206 Box
8287 3337 Box
8640 3846 Box
8992 4614 Box
9345 6008 Box
9697 7695 Box
10050 9404 Box
10402 10779 Box
10755 12575 Box
11107 13839 Box
11460 14431 Box
11812 14740 Box
12165 14755 Box
12517 14785 Box
12869 14777 Box
13222 14772 Box
13574 14766 Box
13927 14760 Box
14279 14757 Box
14632 14757 Box
14984 14755 Box
15337 14755 Box
15689 14753 Box
16042 14752 Box
16394 14755 Box
16747 14760 Box
17099 14763 Box
17452 14768 Box
17804 14775 Box
18157 14779 Box
18509 14788 Box
18862 14800 Box
19214 14810 Box
19567 14817 Box
19919 14832 Box
20272 14851 Box
20624 14871 Box
20977 14883 Box
21329 14904 Box
19827 5533 Box
% End plot #4
% Begin plot #5
6.000 UP
6.000 UL
LTb
LC4 setrgbcolor
LCb setrgbcolor
18896 4993 M
[ [(Times-Roman) 600.0 0.0 true true 0 (100)]
] -200.0 MRshow
6.000 UP
6.000 UL
LTb
LC4 setrgbcolor
19256 4993 M
1143 0 V
3705 3040 M
352 0 V
353 0 V
352 0 V
353 0 V
352 0 V
353 0 V
352 0 V
353 0 V
352 59 V
353 72 V
352 296 V
353 617 V
352 1114 V
353 1824 V
352 1748 V
353 2479 V
352 1635 V
353 1265 V
352 545 V
353 108 V
352 13 V
353 -8 V
352 -9 V
353 -8 V
352 -7 V
352 -5 V
353 -7 V
352 -5 V
353 -4 V
352 -3 V
353 -3 V
352 -1 V
353 -2 V
352 0 V
353 0 V
352 4 V
353 2 V
352 4 V
353 3 V
352 6 V
353 7 V
352 9 V
353 12 V
352 9 V
353 10 V
352 13 V
353 19 V
352 19 V
353 11 V
352 23 V
3705 3040 BoxF
4057 3040 BoxF
4410 3040 BoxF
4762 3040 BoxF
5115 3040 BoxF
5467 3040 BoxF
5820 3040 BoxF
6172 3040 BoxF
6525 3040 BoxF
6877 3099 BoxF
7230 3171 BoxF
7582 3467 BoxF
7935 4084 BoxF
8287 5198 BoxF
8640 7022 BoxF
8992 8770 BoxF
9345 11249 BoxF
9697 12884 BoxF
10050 14149 BoxF
10402 14694 BoxF
10755 14802 BoxF
11107 14815 BoxF
11460 14807 BoxF
11812 14798 BoxF
12165 14790 BoxF
12517 14783 BoxF
12869 14778 BoxF
13222 14771 BoxF
13574 14766 BoxF
13927 14762 BoxF
14279 14759 BoxF
14632 14756 BoxF
14984 14755 BoxF
15337 14753 BoxF
15689 14753 BoxF
16042 14753 BoxF
16394 14757 BoxF
16747 14759 BoxF
17099 14763 BoxF
17452 14766 BoxF
17804 14772 BoxF
18157 14779 BoxF
18509 14788 BoxF
18862 14800 BoxF
19214 14809 BoxF
19567 14819 BoxF
19919 14832 BoxF
20272 14851 BoxF
20624 14870 BoxF
20977 14881 BoxF
21329 14904 BoxF
19827 4993 BoxF
% End plot #5
% Begin plot #6
6.000 UP
6.000 UL
LTb
LC5 setrgbcolor
LCb setrgbcolor
18896 4453 M
[ [(Times-Roman) 600.0 0.0 true true 0 (200)]
] -200.0 MRshow
6.000 UP
6.000 UL
LTb
LC5 setrgbcolor
19256 4453 M
1143 0 V
3705 3040 M
352 0 V
353 0 V
352 0 V
353 0 V
352 0 V
353 0 V
352 0 V
353 0 V
352 0 V
353 475 V
352 2372 V
353 2609 V
352 1420 V
353 2129 V
352 1413 V
353 1412 V
352 -12 V
353 -10 V
352 -12 V
353 -10 V
352 -9 V
353 -11 V
352 -6 V
353 -10 V
352 -6 V
352 -3 V
353 -10 V
352 -3 V
353 -4 V
352 -6 V
353 -3 V
352 0 V
353 -3 V
352 1 V
353 0 V
352 3 V
353 4 V
352 2 V
353 6 V
352 5 V
353 5 V
352 9 V
353 11 V
352 12 V
353 10 V
352 12 V
353 17 V
352 21 V
353 11 V
352 23 V
3705 3040 Circle
4057 3040 Circle
4410 3040 Circle
4762 3040 Circle
5115 3040 Circle
5467 3040 Circle
5820 3040 Circle
6172 3040 Circle
6525 3040 Circle
6877 3040 Circle
7230 3515 Circle
7582 5887 Circle
7935 8496 Circle
8287 9916 Circle
8640 12045 Circle
8992 13458 Circle
9345 14870 Circle
9697 14858 Circle
10050 14848 Circle
10402 14836 Circle
10755 14826 Circle
11107 14817 Circle
11460 14806 Circle
11812 14800 Circle
12165 14790 Circle
12517 14784 Circle
12869 14781 Circle
13222 14771 Circle
13574 14768 Circle
13927 14764 Circle
14279 14758 Circle
14632 14755 Circle
14984 14755 Circle
15337 14752 Circle
15689 14753 Circle
16042 14753 Circle
16394 14756 Circle
16747 14760 Circle
17099 14762 Circle
17452 14768 Circle
17804 14773 Circle
18157 14778 Circle
18509 14787 Circle
18862 14798 Circle
19214 14810 Circle
19567 14820 Circle
19919 14832 Circle
20272 14849 Circle
20624 14870 Circle
20977 14881 Circle
21329 14904 Circle
19827 4453 Circle
% End plot #6
% Begin plot #7
6.000 UP
6.000 UL
LTb
LC6 setrgbcolor
LCb setrgbcolor
18896 3913 M
[ [(Times-Roman) 600.0 0.0 true true 0 (500)]
] -200.0 MRshow
6.000 UP
6.000 UL
LTb
LC6 setrgbcolor
19256 3913 M
1143 0 V
3705 3040 M
352 0 V
353 0 V
352 0 V
353 0 V
352 0 V
353 0 V
352 475 V
353 1423 V
352 -237 V
353 4508 V
352 3084 V
353 1421 V
352 1182 V
353 -7 V
352 -10 V
353 -11 V
352 -10 V
353 -12 V
352 -10 V
353 -10 V
352 -10 V
353 -9 V
352 -9 V
353 -8 V
352 -7 V
352 -6 V
353 -7 V
352 -5 V
353 -3 V
352 -3 V
353 -3 V
352 -3 V
353 -3 V
352 1 V
353 2 V
352 -1 V
353 4 V
352 6 V
353 4 V
352 4 V
353 8 V
352 9 V
353 9 V
352 10 V
353 11 V
352 11 V
353 19 V
352 21 V
353 10 V
352 26 V
3705 3040 CircleF
4057 3040 CircleF
4410 3040 CircleF
4762 3040 CircleF
5115 3040 CircleF
5467 3040 CircleF
5820 3040 CircleF
6172 3515 CircleF
6525 4938 CircleF
6877 4701 CircleF
7230 9209 CircleF
7582 12293 CircleF
7935 13714 CircleF
8287 14896 CircleF
8640 14889 CircleF
8992 14879 CircleF
9345 14868 CircleF
9697 14858 CircleF
10050 14846 CircleF
10402 14836 CircleF
10755 14826 CircleF
11107 14816 CircleF
11460 14807 CircleF
11812 14798 CircleF
12165 14790 CircleF
12517 14783 CircleF
12869 14777 CircleF
13222 14770 CircleF
13574 14765 CircleF
13927 14762 CircleF
14279 14759 CircleF
14632 14756 CircleF
14984 14753 CircleF
15337 14750 CircleF
15689 14751 CircleF
16042 14753 CircleF
16394 14752 CircleF
16747 14756 CircleF
17099 14762 CircleF
17452 14766 CircleF
17804 14770 CircleF
18157 14778 CircleF
18509 14787 CircleF
18862 14796 CircleF
19214 14806 CircleF
19567 14817 CircleF
19919 14828 CircleF
20272 14847 CircleF
20624 14868 CircleF
20977 14878 CircleF
21329 14904 CircleF
19827 3913 CircleF
% End plot #7
% Begin plot #8
6.000 UP
6.000 UL
LTb
LC7 setrgbcolor
LCb setrgbcolor
18896 3373 M
[ [(Times-Roman) 600.0 0.0 true true 0 (1000)]
] -200.0 MRshow
6.000 UP
6.000 UL
LTb
LC7 setrgbcolor
19256 3373 M
1143 0 V
3705 3040 M
352 0 V
353 0 V
352 0 V
353 0 V
352 0 V
353 0 V
352 0 V
353 712 V
352 2135 V
353 5932 V
352 2609 V
353 472 V
352 -4 V
353 -7 V
352 -10 V
353 -11 V
352 -10 V
353 -12 V
352 -11 V
353 -9 V
352 -10 V
353 -9 V
352 -9 V
353 -8 V
352 -7 V
352 -6 V
353 -6 V
352 -5 V
353 -4 V
352 -4 V
353 -2 V
352 -3 V
353 -1 V
352 1 V
353 -1 V
352 4 V
353 1 V
352 6 V
353 3 V
352 5 V
353 7 V
352 9 V
353 10 V
352 11 V
353 11 V
352 11 V
353 19 V
352 18 V
353 13 V
352 24 V
3705 3040 TriU
4057 3040 TriU
4410 3040 TriU
4762 3040 TriU
5115 3040 TriU
5467 3040 TriU
5820 3040 TriU
6172 3040 TriU
6525 3752 TriU
6877 5887 TriU
7230 11819 TriU
7582 14428 TriU
7935 14900 TriU
8287 14896 TriU
8640 14889 TriU
8992 14879 TriU
9345 14868 TriU
9697 14858 TriU
10050 14846 TriU
10402 14835 TriU
10755 14826 TriU
11107 14816 TriU
11460 14807 TriU
11812 14798 TriU
12165 14790 TriU
12517 14783 TriU
12869 14777 TriU
13222 14771 TriU
13574 14766 TriU
13927 14762 TriU
14279 14758 TriU
14632 14756 TriU
14984 14753 TriU
15337 14752 TriU
15689 14753 TriU
16042 14752 TriU
16394 14756 TriU
16747 14757 TriU
17099 14763 TriU
17452 14766 TriU
17804 14771 TriU
18157 14778 TriU
18509 14787 TriU
18862 14797 TriU
19214 14808 TriU
19567 14819 TriU
19919 14830 TriU
20272 14849 TriU
20624 14867 TriU
20977 14880 TriU
21329 14904 TriU
19827 3373 TriU
% End plot #8
2.000 UL
LTb
LCb setrgbcolor
1.000 UL
LTB
LCb setrgbcolor
3705 14904 N
0 -11864 V
17624 0 V
0 11864 V
-17624 0 V
Z stroke
1.000 UP
1.000 UL
LTb
LCb setrgbcolor
stroke
grestore
end
showpage
%%Trailer
%%DocumentFonts: Times-Italic Times-Roman
