set terminal postscript eps size 14,10.5 enhanced color font 'Helvetica,40'
set yrange[0:1]
set xrange[0:0]
set title 'L = 1000, K = 8' 
set xlabel 't'
set key font 'Helvetica,20'
set key outside
set out 'VNR2_L1000K8_n(K)vsLp.eps'
set ylabel '{/Cambria-Italic n(K)}'
 plot 'VNR2_L1000K8_n(K)vsLp.txt' using 0:2 t'p(0.02)' with linespoints, 'VNR2_L1000K8_n(K)vsLp.txt' using 0:3 t'p(0.04)' with linespoints, 'VNR2_L1000K8_n(K)vsLp.txt' using 0:4 t'p(0.06)' with linespoints, 'VNR2_L1000K8_n(K)vsLp.txt' using 0:5 t'p(0.08)' with linespoints, 'VNR2_L1000K8_n(K)vsLp.txt' using 0:6 t'p(0.10)' with linespoints, 'VNR2_L1000K8_n(K)vsLp.txt' using 0:7 t'p(0.12)' with linespoints, 'VNR2_L1000K8_n(K)vsLp.txt' using 0:8 t'p(0.14)' with linespoints, 'VNR2_L1000K8_n(K)vsLp.txt' using 0:9 t'p(0.16)' with linespoints, 'VNR2_L1000K8_n(K)vsLp.txt' using 0:10 t'p(0.18)' with linespoints, 'VNR2_L1000K8_n(K)vsLp.txt' using 0:11 t'p(0.20)' with linespoints, 'VNR2_L1000K8_n(K)vsLp.txt' using 0:12 t'p(0.22)' with linespoints, 'VNR2_L1000K8_n(K)vsLp.txt' using 0:13 t'p(0.24)' with linespoints, 'VNR2_L1000K8_n(K)vsLp.txt' using 0:14 t'p(0.26)' with linespoints, 'VNR2_L1000K8_n(K)vsLp.txt' using 0:15 t'p(0.28)' with linespoints, 'VNR2_L1000K8_n(K)vsLp.txt' using 0:16 t'p(0.30)' with linespoints, 'VNR2_L1000K8_n(K)vsLp.txt' using 0:17 t'p(0.32)' with linespoints, 'VNR2_L1000K8_n(K)vsLp.txt' using 0:18 t'p(0.34)' with linespoints, 'VNR2_L1000K8_n(K)vsLp.txt' using 0:19 t'p(0.36)' with linespoints, 'VNR2_L1000K8_n(K)vsLp.txt' using 0:20 t'p(0.38)' with linespoints, 'VNR2_L1000K8_n(K)vsLp.txt' using 0:21 t'p(0.40)' with linespoints, 'VNR2_L1000K8_n(K)vsLp.txt' using 0:22 t'p(0.42)' with linespoints, 'VNR2_L1000K8_n(K)vsLp.txt' using 0:23 t'p(0.44)' with linespoints, 'VNR2_L1000K8_n(K)vsLp.txt' using 0:24 t'p(0.46)' with linespoints, 'VNR2_L1000K8_n(K)vsLp.txt' using 0:25 t'p(0.48)' with linespoints, 'VNR2_L1000K8_n(K)vsLp.txt' using 0:26 t'p(0.50)' with linespoints, 'VNR2_L1000K8_n(K)vsLp.txt' using 0:27 t'p(0.52)' with linespoints, 'VNR2_L1000K8_n(K)vsLp.txt' using 0:28 t'p(0.54)' with linespoints, 'VNR2_L1000K8_n(K)vsLp.txt' using 0:29 t'p(0.56)' with linespoints, 'VNR2_L1000K8_n(K)vsLp.txt' using 0:30 t'p(0.58)' with linespoints, 'VNR2_L1000K8_n(K)vsLp.txt' using 0:31 t'p(0.60)' with linespoints, 'VNR2_L1000K8_n(K)vsLp.txt' using 0:32 t'p(0.62)' with linespoints, 'VNR2_L1000K8_n(K)vsLp.txt' using 0:33 t'p(0.64)' with linespoints, 'VNR2_L1000K8_n(K)vsLp.txt' using 0:34 t'p(0.66)' with linespoints, 'VNR2_L1000K8_n(K)vsLp.txt' using 0:35 t'p(0.68)' with linespoints, 'VNR2_L1000K8_n(K)vsLp.txt' using 0:36 t'p(0.70)' with linespoints, 'VNR2_L1000K8_n(K)vsLp.txt' using 0:37 t'p(0.72)' with linespoints, 'VNR2_L1000K8_n(K)vsLp.txt' using 0:38 t'p(0.74)' with linespoints, 'VNR2_L1000K8_n(K)vsLp.txt' using 0:39 t'p(0.76)' with linespoints, 'VNR2_L1000K8_n(K)vsLp.txt' using 0:40 t'p(0.78)' with linespoints, 'VNR2_L1000K8_n(K)vsLp.txt' using 0:41 t'p(0.80)' with linespoints, 'VNR2_L1000K8_n(K)vsLp.txt' using 0:42 t'p(0.82)' with linespoints, 'VNR2_L1000K8_n(K)vsLp.txt' using 0:43 t'p(0.84)' with linespoints, 'VNR2_L1000K8_n(K)vsLp.txt' using 0:44 t'p(0.86)' with linespoints, 'VNR2_L1000K8_n(K)vsLp.txt' using 0:45 t'p(0.88)' with linespoints, 'VNR2_L1000K8_n(K)vsLp.txt' using 0:46 t'p(0.90)' with linespoints, 'VNR2_L1000K8_n(K)vsLp.txt' using 0:47 t'p(0.92)' with linespoints, 'VNR2_L1000K8_n(K)vsLp.txt' using 0:48 t'p(0.94)' with linespoints, 'VNR2_L1000K8_n(K)vsLp.txt' using 0:49 t'p(0.96)' with linespoints, 'VNR2_L1000K8_n(K)vsLp.txt' using 0:50 t'p(0.98)' with linespoints
