%!PS-Adobe-2.0 EPSF-2.0
%%Title: Moore_L20K4_n(K).eps
%%Creator: gnuplot 5.0 patchlevel 3
%%CreationDate: Mon Sep 11 17:42:05 2017
%%DocumentFonts: (atend)
%%BoundingBox: 50 50 1058 806
%%EndComments
%%BeginProlog
/gnudict 256 dict def
gnudict begin
%
% The following true/false flags may be edited by hand if desired.
% The unit line width and grayscale image gamma correction may also be changed.
%
/Color true def
/Blacktext false def
/Solid false def
/Dashlength 1 def
/Landscape false def
/Level1 false def
/Level3 false def
/Rounded false def
/ClipToBoundingBox false def
/SuppressPDFMark false def
/TransparentPatterns false def
/gnulinewidth 5.000 def
/userlinewidth gnulinewidth def
/Gamma 1.0 def
/BackgroundColor {-1.000 -1.000 -1.000} def
%
/vshift -316 def
/dl1 {
  10.0 Dashlength userlinewidth gnulinewidth div mul mul mul
  Rounded { currentlinewidth 0.75 mul sub dup 0 le { pop 0.01 } if } if
} def
/dl2 {
  10.0 Dashlength userlinewidth gnulinewidth div mul mul mul
  Rounded { currentlinewidth 0.75 mul add } if
} def
/hpt_ 31.5 def
/vpt_ 31.5 def
/hpt hpt_ def
/vpt vpt_ def
/doclip {
  ClipToBoundingBox {
    newpath 50 50 moveto 1058 50 lineto 1058 806 lineto 50 806 lineto closepath
    clip
  } if
} def
%
% Gnuplot Prolog Version 5.1 (Oct 2015)
%
%/SuppressPDFMark true def
%
/M {moveto} bind def
/L {lineto} bind def
/R {rmoveto} bind def
/V {rlineto} bind def
/N {newpath moveto} bind def
/Z {closepath} bind def
/C {setrgbcolor} bind def
/f {rlineto fill} bind def
/g {setgray} bind def
/Gshow {show} def   % May be redefined later in the file to support UTF-8
/vpt2 vpt 2 mul def
/hpt2 hpt 2 mul def
/Lshow {currentpoint stroke M 0 vshift R 
	Blacktext {gsave 0 setgray textshow grestore} {textshow} ifelse} def
/Rshow {currentpoint stroke M dup stringwidth pop neg vshift R
	Blacktext {gsave 0 setgray textshow grestore} {textshow} ifelse} def
/Cshow {currentpoint stroke M dup stringwidth pop -2 div vshift R 
	Blacktext {gsave 0 setgray textshow grestore} {textshow} ifelse} def
/UP {dup vpt_ mul /vpt exch def hpt_ mul /hpt exch def
  /hpt2 hpt 2 mul def /vpt2 vpt 2 mul def} def
/DL {Color {setrgbcolor Solid {pop []} if 0 setdash}
 {pop pop pop 0 setgray Solid {pop []} if 0 setdash} ifelse} def
/BL {stroke userlinewidth 2 mul setlinewidth
	Rounded {1 setlinejoin 1 setlinecap} if} def
/AL {stroke userlinewidth 2 div setlinewidth
	Rounded {1 setlinejoin 1 setlinecap} if} def
/UL {dup gnulinewidth mul /userlinewidth exch def
	dup 1 lt {pop 1} if 10 mul /udl exch def} def
/PL {stroke userlinewidth setlinewidth
	Rounded {1 setlinejoin 1 setlinecap} if} def
3.8 setmiterlimit
% Classic Line colors (version 5.0)
/LCw {1 1 1} def
/LCb {0 0 0} def
/LCa {0 0 0} def
/LC0 {1 0 0} def
/LC1 {0 1 0} def
/LC2 {0 0 1} def
/LC3 {1 0 1} def
/LC4 {0 1 1} def
/LC5 {1 1 0} def
/LC6 {0 0 0} def
/LC7 {1 0.3 0} def
/LC8 {0.5 0.5 0.5} def
% Default dash patterns (version 5.0)
/LTB {BL [] LCb DL} def
/LTw {PL [] 1 setgray} def
/LTb {PL [] LCb DL} def
/LTa {AL [1 udl mul 2 udl mul] 0 setdash LCa setrgbcolor} def
/LT0 {PL [] LC0 DL} def
/LT1 {PL [2 dl1 3 dl2] LC1 DL} def
/LT2 {PL [1 dl1 1.5 dl2] LC2 DL} def
/LT3 {PL [6 dl1 2 dl2 1 dl1 2 dl2] LC3 DL} def
/LT4 {PL [1 dl1 2 dl2 6 dl1 2 dl2 1 dl1 2 dl2] LC4 DL} def
/LT5 {PL [4 dl1 2 dl2] LC5 DL} def
/LT6 {PL [1.5 dl1 1.5 dl2 1.5 dl1 1.5 dl2 1.5 dl1 6 dl2] LC6 DL} def
/LT7 {PL [3 dl1 3 dl2 1 dl1 3 dl2] LC7 DL} def
/LT8 {PL [2 dl1 2 dl2 2 dl1 6 dl2] LC8 DL} def
/SL {[] 0 setdash} def
/Pnt {stroke [] 0 setdash gsave 1 setlinecap M 0 0 V stroke grestore} def
/Dia {stroke [] 0 setdash 2 copy vpt add M
  hpt neg vpt neg V hpt vpt neg V
  hpt vpt V hpt neg vpt V closepath stroke
  Pnt} def
/Pls {stroke [] 0 setdash vpt sub M 0 vpt2 V
  currentpoint stroke M
  hpt neg vpt neg R hpt2 0 V stroke
 } def
/Box {stroke [] 0 setdash 2 copy exch hpt sub exch vpt add M
  0 vpt2 neg V hpt2 0 V 0 vpt2 V
  hpt2 neg 0 V closepath stroke
  Pnt} def
/Crs {stroke [] 0 setdash exch hpt sub exch vpt add M
  hpt2 vpt2 neg V currentpoint stroke M
  hpt2 neg 0 R hpt2 vpt2 V stroke} def
/TriU {stroke [] 0 setdash 2 copy vpt 1.12 mul add M
  hpt neg vpt -1.62 mul V
  hpt 2 mul 0 V
  hpt neg vpt 1.62 mul V closepath stroke
  Pnt} def
/Star {2 copy Pls Crs} def
/BoxF {stroke [] 0 setdash exch hpt sub exch vpt add M
  0 vpt2 neg V hpt2 0 V 0 vpt2 V
  hpt2 neg 0 V closepath fill} def
/TriUF {stroke [] 0 setdash vpt 1.12 mul add M
  hpt neg vpt -1.62 mul V
  hpt 2 mul 0 V
  hpt neg vpt 1.62 mul V closepath fill} def
/TriD {stroke [] 0 setdash 2 copy vpt 1.12 mul sub M
  hpt neg vpt 1.62 mul V
  hpt 2 mul 0 V
  hpt neg vpt -1.62 mul V closepath stroke
  Pnt} def
/TriDF {stroke [] 0 setdash vpt 1.12 mul sub M
  hpt neg vpt 1.62 mul V
  hpt 2 mul 0 V
  hpt neg vpt -1.62 mul V closepath fill} def
/DiaF {stroke [] 0 setdash vpt add M
  hpt neg vpt neg V hpt vpt neg V
  hpt vpt V hpt neg vpt V closepath fill} def
/Pent {stroke [] 0 setdash 2 copy gsave
  translate 0 hpt M 4 {72 rotate 0 hpt L} repeat
  closepath stroke grestore Pnt} def
/PentF {stroke [] 0 setdash gsave
  translate 0 hpt M 4 {72 rotate 0 hpt L} repeat
  closepath fill grestore} def
/Circle {stroke [] 0 setdash 2 copy
  hpt 0 360 arc stroke Pnt} def
/CircleF {stroke [] 0 setdash hpt 0 360 arc fill} def
/C0 {BL [] 0 setdash 2 copy moveto vpt 90 450 arc} bind def
/C1 {BL [] 0 setdash 2 copy moveto
	2 copy vpt 0 90 arc closepath fill
	vpt 0 360 arc closepath} bind def
/C2 {BL [] 0 setdash 2 copy moveto
	2 copy vpt 90 180 arc closepath fill
	vpt 0 360 arc closepath} bind def
/C3 {BL [] 0 setdash 2 copy moveto
	2 copy vpt 0 180 arc closepath fill
	vpt 0 360 arc closepath} bind def
/C4 {BL [] 0 setdash 2 copy moveto
	2 copy vpt 180 270 arc closepath fill
	vpt 0 360 arc closepath} bind def
/C5 {BL [] 0 setdash 2 copy moveto
	2 copy vpt 0 90 arc
	2 copy moveto
	2 copy vpt 180 270 arc closepath fill
	vpt 0 360 arc} bind def
/C6 {BL [] 0 setdash 2 copy moveto
	2 copy vpt 90 270 arc closepath fill
	vpt 0 360 arc closepath} bind def
/C7 {BL [] 0 setdash 2 copy moveto
	2 copy vpt 0 270 arc closepath fill
	vpt 0 360 arc closepath} bind def
/C8 {BL [] 0 setdash 2 copy moveto
	2 copy vpt 270 360 arc closepath fill
	vpt 0 360 arc closepath} bind def
/C9 {BL [] 0 setdash 2 copy moveto
	2 copy vpt 270 450 arc closepath fill
	vpt 0 360 arc closepath} bind def
/C10 {BL [] 0 setdash 2 copy 2 copy moveto vpt 270 360 arc closepath fill
	2 copy moveto
	2 copy vpt 90 180 arc closepath fill
	vpt 0 360 arc closepath} bind def
/C11 {BL [] 0 setdash 2 copy moveto
	2 copy vpt 0 180 arc closepath fill
	2 copy moveto
	2 copy vpt 270 360 arc closepath fill
	vpt 0 360 arc closepath} bind def
/C12 {BL [] 0 setdash 2 copy moveto
	2 copy vpt 180 360 arc closepath fill
	vpt 0 360 arc closepath} bind def
/C13 {BL [] 0 setdash 2 copy moveto
	2 copy vpt 0 90 arc closepath fill
	2 copy moveto
	2 copy vpt 180 360 arc closepath fill
	vpt 0 360 arc closepath} bind def
/C14 {BL [] 0 setdash 2 copy moveto
	2 copy vpt 90 360 arc closepath fill
	vpt 0 360 arc} bind def
/C15 {BL [] 0 setdash 2 copy vpt 0 360 arc closepath fill
	vpt 0 360 arc closepath} bind def
/Rec {newpath 4 2 roll moveto 1 index 0 rlineto 0 exch rlineto
	neg 0 rlineto closepath} bind def
/Square {dup Rec} bind def
/Bsquare {vpt sub exch vpt sub exch vpt2 Square} bind def
/S0 {BL [] 0 setdash 2 copy moveto 0 vpt rlineto BL Bsquare} bind def
/S1 {BL [] 0 setdash 2 copy vpt Square fill Bsquare} bind def
/S2 {BL [] 0 setdash 2 copy exch vpt sub exch vpt Square fill Bsquare} bind def
/S3 {BL [] 0 setdash 2 copy exch vpt sub exch vpt2 vpt Rec fill Bsquare} bind def
/S4 {BL [] 0 setdash 2 copy exch vpt sub exch vpt sub vpt Square fill Bsquare} bind def
/S5 {BL [] 0 setdash 2 copy 2 copy vpt Square fill
	exch vpt sub exch vpt sub vpt Square fill Bsquare} bind def
/S6 {BL [] 0 setdash 2 copy exch vpt sub exch vpt sub vpt vpt2 Rec fill Bsquare} bind def
/S7 {BL [] 0 setdash 2 copy exch vpt sub exch vpt sub vpt vpt2 Rec fill
	2 copy vpt Square fill Bsquare} bind def
/S8 {BL [] 0 setdash 2 copy vpt sub vpt Square fill Bsquare} bind def
/S9 {BL [] 0 setdash 2 copy vpt sub vpt vpt2 Rec fill Bsquare} bind def
/S10 {BL [] 0 setdash 2 copy vpt sub vpt Square fill 2 copy exch vpt sub exch vpt Square fill
	Bsquare} bind def
/S11 {BL [] 0 setdash 2 copy vpt sub vpt Square fill 2 copy exch vpt sub exch vpt2 vpt Rec fill
	Bsquare} bind def
/S12 {BL [] 0 setdash 2 copy exch vpt sub exch vpt sub vpt2 vpt Rec fill Bsquare} bind def
/S13 {BL [] 0 setdash 2 copy exch vpt sub exch vpt sub vpt2 vpt Rec fill
	2 copy vpt Square fill Bsquare} bind def
/S14 {BL [] 0 setdash 2 copy exch vpt sub exch vpt sub vpt2 vpt Rec fill
	2 copy exch vpt sub exch vpt Square fill Bsquare} bind def
/S15 {BL [] 0 setdash 2 copy Bsquare fill Bsquare} bind def
/D0 {gsave translate 45 rotate 0 0 S0 stroke grestore} bind def
/D1 {gsave translate 45 rotate 0 0 S1 stroke grestore} bind def
/D2 {gsave translate 45 rotate 0 0 S2 stroke grestore} bind def
/D3 {gsave translate 45 rotate 0 0 S3 stroke grestore} bind def
/D4 {gsave translate 45 rotate 0 0 S4 stroke grestore} bind def
/D5 {gsave translate 45 rotate 0 0 S5 stroke grestore} bind def
/D6 {gsave translate 45 rotate 0 0 S6 stroke grestore} bind def
/D7 {gsave translate 45 rotate 0 0 S7 stroke grestore} bind def
/D8 {gsave translate 45 rotate 0 0 S8 stroke grestore} bind def
/D9 {gsave translate 45 rotate 0 0 S9 stroke grestore} bind def
/D10 {gsave translate 45 rotate 0 0 S10 stroke grestore} bind def
/D11 {gsave translate 45 rotate 0 0 S11 stroke grestore} bind def
/D12 {gsave translate 45 rotate 0 0 S12 stroke grestore} bind def
/D13 {gsave translate 45 rotate 0 0 S13 stroke grestore} bind def
/D14 {gsave translate 45 rotate 0 0 S14 stroke grestore} bind def
/D15 {gsave translate 45 rotate 0 0 S15 stroke grestore} bind def
/DiaE {stroke [] 0 setdash vpt add M
  hpt neg vpt neg V hpt vpt neg V
  hpt vpt V hpt neg vpt V closepath stroke} def
/BoxE {stroke [] 0 setdash exch hpt sub exch vpt add M
  0 vpt2 neg V hpt2 0 V 0 vpt2 V
  hpt2 neg 0 V closepath stroke} def
/TriUE {stroke [] 0 setdash vpt 1.12 mul add M
  hpt neg vpt -1.62 mul V
  hpt 2 mul 0 V
  hpt neg vpt 1.62 mul V closepath stroke} def
/TriDE {stroke [] 0 setdash vpt 1.12 mul sub M
  hpt neg vpt 1.62 mul V
  hpt 2 mul 0 V
  hpt neg vpt -1.62 mul V closepath stroke} def
/PentE {stroke [] 0 setdash gsave
  translate 0 hpt M 4 {72 rotate 0 hpt L} repeat
  closepath stroke grestore} def
/CircE {stroke [] 0 setdash 
  hpt 0 360 arc stroke} def
/Opaque {gsave closepath 1 setgray fill grestore 0 setgray closepath} def
/DiaW {stroke [] 0 setdash vpt add M
  hpt neg vpt neg V hpt vpt neg V
  hpt vpt V hpt neg vpt V Opaque stroke} def
/BoxW {stroke [] 0 setdash exch hpt sub exch vpt add M
  0 vpt2 neg V hpt2 0 V 0 vpt2 V
  hpt2 neg 0 V Opaque stroke} def
/TriUW {stroke [] 0 setdash vpt 1.12 mul add M
  hpt neg vpt -1.62 mul V
  hpt 2 mul 0 V
  hpt neg vpt 1.62 mul V Opaque stroke} def
/TriDW {stroke [] 0 setdash vpt 1.12 mul sub M
  hpt neg vpt 1.62 mul V
  hpt 2 mul 0 V
  hpt neg vpt -1.62 mul V Opaque stroke} def
/PentW {stroke [] 0 setdash gsave
  translate 0 hpt M 4 {72 rotate 0 hpt L} repeat
  Opaque stroke grestore} def
/CircW {stroke [] 0 setdash 
  hpt 0 360 arc Opaque stroke} def
/BoxFill {gsave Rec 1 setgray fill grestore} def
/Density {
  /Fillden exch def
  currentrgbcolor
  /ColB exch def /ColG exch def /ColR exch def
  /ColR ColR Fillden mul Fillden sub 1 add def
  /ColG ColG Fillden mul Fillden sub 1 add def
  /ColB ColB Fillden mul Fillden sub 1 add def
  ColR ColG ColB setrgbcolor} def
/BoxColFill {gsave Rec PolyFill} def
/PolyFill {gsave Density fill grestore grestore} def
/h {rlineto rlineto rlineto gsave closepath fill grestore} bind def
%
% PostScript Level 1 Pattern Fill routine for rectangles
% Usage: x y w h s a XX PatternFill
%	x,y = lower left corner of box to be filled
%	w,h = width and height of box
%	  a = angle in degrees between lines and x-axis
%	 XX = 0/1 for no/yes cross-hatch
%
/PatternFill {gsave /PFa [ 9 2 roll ] def
  PFa 0 get PFa 2 get 2 div add PFa 1 get PFa 3 get 2 div add translate
  PFa 2 get -2 div PFa 3 get -2 div PFa 2 get PFa 3 get Rec
  TransparentPatterns {} {gsave 1 setgray fill grestore} ifelse
  clip
  currentlinewidth 0.5 mul setlinewidth
  /PFs PFa 2 get dup mul PFa 3 get dup mul add sqrt def
  0 0 M PFa 5 get rotate PFs -2 div dup translate
  0 1 PFs PFa 4 get div 1 add floor cvi
	{PFa 4 get mul 0 M 0 PFs V} for
  0 PFa 6 get ne {
	0 1 PFs PFa 4 get div 1 add floor cvi
	{PFa 4 get mul 0 2 1 roll M PFs 0 V} for
 } if
  stroke grestore} def
%
/languagelevel where
 {pop languagelevel} {1} ifelse
dup 2 lt
	{/InterpretLevel1 true def
	 /InterpretLevel3 false def}
	{/InterpretLevel1 Level1 def
	 2 gt
	    {/InterpretLevel3 Level3 def}
	    {/InterpretLevel3 false def}
	 ifelse }
 ifelse
%
% PostScript level 2 pattern fill definitions
%
/Level2PatternFill {
/Tile8x8 {/PaintType 2 /PatternType 1 /TilingType 1 /BBox [0 0 8 8] /XStep 8 /YStep 8}
	bind def
/KeepColor {currentrgbcolor [/Pattern /DeviceRGB] setcolorspace} bind def
<< Tile8x8
 /PaintProc {0.5 setlinewidth pop 0 0 M 8 8 L 0 8 M 8 0 L stroke} 
>> matrix makepattern
/Pat1 exch def
<< Tile8x8
 /PaintProc {0.5 setlinewidth pop 0 0 M 8 8 L 0 8 M 8 0 L stroke
	0 4 M 4 8 L 8 4 L 4 0 L 0 4 L stroke}
>> matrix makepattern
/Pat2 exch def
<< Tile8x8
 /PaintProc {0.5 setlinewidth pop 0 0 M 0 8 L
	8 8 L 8 0 L 0 0 L fill}
>> matrix makepattern
/Pat3 exch def
<< Tile8x8
 /PaintProc {0.5 setlinewidth pop -4 8 M 8 -4 L
	0 12 M 12 0 L stroke}
>> matrix makepattern
/Pat4 exch def
<< Tile8x8
 /PaintProc {0.5 setlinewidth pop -4 0 M 8 12 L
	0 -4 M 12 8 L stroke}
>> matrix makepattern
/Pat5 exch def
<< Tile8x8
 /PaintProc {0.5 setlinewidth pop -2 8 M 4 -4 L
	0 12 M 8 -4 L 4 12 M 10 0 L stroke}
>> matrix makepattern
/Pat6 exch def
<< Tile8x8
 /PaintProc {0.5 setlinewidth pop -2 0 M 4 12 L
	0 -4 M 8 12 L 4 -4 M 10 8 L stroke}
>> matrix makepattern
/Pat7 exch def
<< Tile8x8
 /PaintProc {0.5 setlinewidth pop 8 -2 M -4 4 L
	12 0 M -4 8 L 12 4 M 0 10 L stroke}
>> matrix makepattern
/Pat8 exch def
<< Tile8x8
 /PaintProc {0.5 setlinewidth pop 0 -2 M 12 4 L
	-4 0 M 12 8 L -4 4 M 8 10 L stroke}
>> matrix makepattern
/Pat9 exch def
/Pattern1 {PatternBgnd KeepColor Pat1 setpattern} bind def
/Pattern2 {PatternBgnd KeepColor Pat2 setpattern} bind def
/Pattern3 {PatternBgnd KeepColor Pat3 setpattern} bind def
/Pattern4 {PatternBgnd KeepColor Landscape {Pat5} {Pat4} ifelse setpattern} bind def
/Pattern5 {PatternBgnd KeepColor Landscape {Pat4} {Pat5} ifelse setpattern} bind def
/Pattern6 {PatternBgnd KeepColor Landscape {Pat9} {Pat6} ifelse setpattern} bind def
/Pattern7 {PatternBgnd KeepColor Landscape {Pat8} {Pat7} ifelse setpattern} bind def
} def
%
%
%End of PostScript Level 2 code
%
/PatternBgnd {
  TransparentPatterns {} {gsave 1 setgray fill grestore} ifelse
} def
%
% Substitute for Level 2 pattern fill codes with
% grayscale if Level 2 support is not selected.
%
/Level1PatternFill {
/Pattern1 {0.250 Density} bind def
/Pattern2 {0.500 Density} bind def
/Pattern3 {0.750 Density} bind def
/Pattern4 {0.125 Density} bind def
/Pattern5 {0.375 Density} bind def
/Pattern6 {0.625 Density} bind def
/Pattern7 {0.875 Density} bind def
} def
%
% Now test for support of Level 2 code
%
Level1 {Level1PatternFill} {Level2PatternFill} ifelse
%
/Symbol-Oblique /Symbol findfont [1 0 .167 1 0 0] makefont
dup length dict begin {1 index /FID eq {pop pop} {def} ifelse} forall
currentdict end definefont pop
%
/MFshow {
   { dup 5 get 3 ge
     { 5 get 3 eq {gsave} {grestore} ifelse }
     {dup dup 0 get findfont exch 1 get scalefont setfont
     [ currentpoint ] exch dup 2 get 0 exch R dup 5 get 2 ne {dup dup 6
     get exch 4 get {textshow} {stringwidth pop 0 R} ifelse }if dup 5 get 0 eq
     {dup 3 get {2 get neg 0 exch R pop} {pop aload pop M} ifelse} {dup 5
     get 1 eq {dup 2 get exch dup 3 get exch 6 get stringwidth pop -2 div
     dup 0 R} {dup 6 get stringwidth pop -2 div 0 R 6 get
     textshow 2 index {aload pop M neg 3 -1 roll neg R pop pop} {pop pop pop
     pop aload pop M} ifelse }ifelse }ifelse }
     ifelse }
   forall} def
/Gswidth {dup type /stringtype eq {stringwidth} {pop (n) stringwidth} ifelse} def
/MFwidth {0 exch { dup 5 get 3 ge { 5 get 3 eq { 0 } { pop } ifelse }
 {dup 3 get{dup dup 0 get findfont exch 1 get scalefont setfont
     6 get Gswidth pop add} {pop} ifelse} ifelse} forall} def
/MLshow { currentpoint stroke M
  0 exch R
  Blacktext {gsave 0 setgray MFshow grestore} {MFshow} ifelse } bind def
/MRshow { currentpoint stroke M
  exch dup MFwidth neg 3 -1 roll R
  Blacktext {gsave 0 setgray MFshow grestore} {MFshow} ifelse } bind def
/MCshow { currentpoint stroke M
  exch dup MFwidth -2 div 3 -1 roll R
  Blacktext {gsave 0 setgray MFshow grestore} {MFshow} ifelse } bind def
/XYsave    { [( ) 1 2 true false 3 ()] } bind def
/XYrestore { [( ) 1 2 true false 4 ()] } bind def
Level1 SuppressPDFMark or 
{} {
/SDict 10 dict def
systemdict /pdfmark known not {
  userdict /pdfmark systemdict /cleartomark get put
} if
SDict begin [
  /Title (Moore_L20K4_n\(K\).eps)
  /Subject (gnuplot plot)
  /Creator (gnuplot 5.0 patchlevel 3)
  /Author (parada)
%  /Producer (gnuplot)
%  /Keywords ()
  /CreationDate (Mon Sep 11 17:42:05 2017)
  /DOCINFO pdfmark
end
} ifelse
%
% Support for boxed text - Ethan A Merritt May 2005
%
/InitTextBox { userdict /TBy2 3 -1 roll put userdict /TBx2 3 -1 roll put
           userdict /TBy1 3 -1 roll put userdict /TBx1 3 -1 roll put
	   /Boxing true def } def
/ExtendTextBox { Boxing
    { gsave dup false charpath pathbbox
      dup TBy2 gt {userdict /TBy2 3 -1 roll put} {pop} ifelse
      dup TBx2 gt {userdict /TBx2 3 -1 roll put} {pop} ifelse
      dup TBy1 lt {userdict /TBy1 3 -1 roll put} {pop} ifelse
      dup TBx1 lt {userdict /TBx1 3 -1 roll put} {pop} ifelse
      grestore } if } def
/PopTextBox { newpath TBx1 TBxmargin sub TBy1 TBymargin sub M
               TBx1 TBxmargin sub TBy2 TBymargin add L
	       TBx2 TBxmargin add TBy2 TBymargin add L
	       TBx2 TBxmargin add TBy1 TBymargin sub L closepath } def
/DrawTextBox { PopTextBox stroke /Boxing false def} def
/FillTextBox { gsave PopTextBox 1 1 1 setrgbcolor fill grestore /Boxing false def} def
0 0 0 0 InitTextBox
/TBxmargin 20 def
/TBymargin 20 def
/Boxing false def
/textshow { ExtendTextBox Gshow } def
%
% redundant definitions for compatibility with prologue.ps older than 5.0.2
/LTB {BL [] LCb DL} def
/LTb {PL [] LCb DL} def
end
%%EndProlog
%%Page: 1 1
gnudict begin
gsave
doclip
50 50 translate
0.050 0.050 scale
0 setgray
newpath
(Times-Roman) findfont 950 scalefont setfont
BackgroundColor 0 lt 3 1 roll 0 lt exch 0 lt or or not {BackgroundColor C 1.000 0 0 20160.00 15120.00 BoxColFill} if
1.000 UL
LTb
LCb setrgbcolor
2.000 UL
LTb
0.75 0.75 0.75 C 3705 2090 M
11801 0 V
stroke
1.000 UL
LTb
LCb setrgbcolor
3705 2090 M
63 0 V
11738 0 R
-63 0 V
stroke
3135 2090 M
[ [(Times-Roman) 700.0 0.0 true true 0 ( 0)]
] -233.3 MRshow
1.000 UL
LTb
LCb setrgbcolor
2.000 UL
LTb
0.75 0.75 0.75 C 3705 4221 M
11801 0 V
stroke
1.000 UL
LTb
LCb setrgbcolor
3705 4221 M
63 0 V
11738 0 R
-63 0 V
stroke
3135 4221 M
[ [(Times-Roman) 700.0 0.0 true true 0 ( 20)]
] -233.3 MRshow
1.000 UL
LTb
LCb setrgbcolor
2.000 UL
LTb
0.75 0.75 0.75 C 3705 6352 M
11801 0 V
stroke
1.000 UL
LTb
LCb setrgbcolor
3705 6352 M
63 0 V
11738 0 R
-63 0 V
stroke
3135 6352 M
[ [(Times-Roman) 700.0 0.0 true true 0 ( 40)]
] -233.3 MRshow
1.000 UL
LTb
LCb setrgbcolor
2.000 UL
LTb
0.75 0.75 0.75 C 3705 8482 M
11801 0 V
stroke
1.000 UL
LTb
LCb setrgbcolor
3705 8482 M
63 0 V
11738 0 R
-63 0 V
stroke
3135 8482 M
[ [(Times-Roman) 700.0 0.0 true true 0 ( 60)]
] -233.3 MRshow
1.000 UL
LTb
LCb setrgbcolor
2.000 UL
LTb
0.75 0.75 0.75 C 3705 10613 M
11801 0 V
stroke
1.000 UL
LTb
LCb setrgbcolor
3705 10613 M
63 0 V
11738 0 R
-63 0 V
stroke
3135 10613 M
[ [(Times-Roman) 700.0 0.0 true true 0 ( 80)]
] -233.3 MRshow
1.000 UL
LTb
LCb setrgbcolor
2.000 UL
LTb
0.75 0.75 0.75 C 3705 12744 M
11801 0 V
stroke
1.000 UL
LTb
LCb setrgbcolor
3705 12744 M
63 0 V
11738 0 R
-63 0 V
stroke
3135 12744 M
[ [(Times-Roman) 700.0 0.0 true true 0 ( 100)]
] -233.3 MRshow
1.000 UL
LTb
LCb setrgbcolor
2.000 UL
LTb
0.75 0.75 0.75 C 3705 2090 M
0 10654 V
stroke
1.000 UL
LTb
LCb setrgbcolor
3705 2090 M
0 63 V
0 10591 R
0 -63 V
stroke
3705 1140 M
[ [(Times-Roman) 700.0 0.0 true true 0 ( 0)]
] -233.3 MCshow
1.000 UL
LTb
LCb setrgbcolor
2.000 UL
LTb
0.75 0.75 0.75 C 6387 2090 M
0 10654 V
stroke
1.000 UL
LTb
LCb setrgbcolor
6387 2090 M
0 63 V
0 10591 R
0 -63 V
stroke
6387 1140 M
[ [(Times-Roman) 700.0 0.0 true true 0 ( 5)]
] -233.3 MCshow
1.000 UL
LTb
LCb setrgbcolor
2.000 UL
LTb
0.75 0.75 0.75 C 9069 2090 M
0 10654 V
stroke
1.000 UL
LTb
LCb setrgbcolor
9069 2090 M
0 63 V
0 10591 R
0 -63 V
stroke
9069 1140 M
[ [(Times-Roman) 700.0 0.0 true true 0 ( 10)]
] -233.3 MCshow
1.000 UL
LTb
LCb setrgbcolor
2.000 UL
LTb
0.75 0.75 0.75 C 11751 2090 M
0 10654 V
stroke
1.000 UL
LTb
LCb setrgbcolor
11751 2090 M
0 63 V
0 10591 R
0 -63 V
stroke
11751 1140 M
[ [(Times-Roman) 700.0 0.0 true true 0 ( 15)]
] -233.3 MCshow
1.000 UL
LTb
LCb setrgbcolor
2.000 UL
LTb
0.75 0.75 0.75 C 14433 2090 M
0 10654 V
stroke
1.000 UL
LTb
LCb setrgbcolor
14433 2090 M
0 63 V
0 10591 R
0 -63 V
stroke
14433 1140 M
[ [(Times-Roman) 700.0 0.0 true true 0 ( 20)]
] -233.3 MCshow
1.000 UL
LTb
LCb setrgbcolor
1.000 UL
LTB
LCb setrgbcolor
3705 12744 N
0 -10654 V
11801 0 V
0 10654 V
-11801 0 V
Z stroke
1.000 UP
1.000 UL
LTb
LCb setrgbcolor
LCb setrgbcolor
1520 7417 M
currentpoint gsave translate -270 rotate 0 0 moveto
[ [(Times-Italic) 950.0 0.0 true true 0 (n\(K\) )]
[(Times-Roman) 950.0 0.0 true true 0 ([%])]
] -316.7 MCshow
grestore
LTb
LCb setrgbcolor
9605 665 M
[ [(Times-Italic) 950.0 0.0 true true 0 (t)]
] -316.7 MCshow
LTb
LCb setrgbcolor
9605 13694 M
[ [(Times-Italic) 950.0 0.0 true true 0 (L = 20; K = 4)]
] -316.7 MCshow
LCb setrgbcolor
18117 12474 M
[ [(Times-Italic) 600.0 0.0 true true 0 (p=)]
] -200.0 MCshow
LTb
% Begin plot #1
4.000 UP
4.000 UL
LTb
LC0 setrgbcolor
LCb setrgbcolor
17726 11874 M
[ [(Times-Roman) 600.0 0.0 true true 0 (0.1)]
] -200.0 MRshow
4.000 UP
4.000 UL
LTb
LC0 setrgbcolor
18086 11874 M
1143 0 V
3705 2091 M
536 0 V
537 0 V
536 0 V
537 0 V
536 1 V
536 2 V
537 3 V
536 7 V
537 11 V
536 14 V
537 21 V
536 26 V
536 31 V
537 36 V
536 35 V
537 33 V
536 28 V
536 25 V
537 19 V
536 11 V
537 4 V
536 1 V
3705 2091 Pls
4241 2091 Pls
4778 2091 Pls
5314 2091 Pls
5851 2091 Pls
6387 2092 Pls
6923 2094 Pls
7460 2097 Pls
7996 2104 Pls
8533 2115 Pls
9069 2129 Pls
9606 2150 Pls
10142 2176 Pls
10678 2207 Pls
11215 2243 Pls
11751 2278 Pls
12288 2311 Pls
12824 2339 Pls
13360 2364 Pls
13897 2383 Pls
14433 2394 Pls
14970 2398 Pls
15506 2399 Pls
18657 11874 Pls
% End plot #1
% Begin plot #2
4.000 UP
4.000 UL
LTb
LC1 setrgbcolor
LCb setrgbcolor
17726 11334 M
[ [(Times-Roman) 600.0 0.0 true true 0 (0.2)]
] -200.0 MRshow
4.000 UP
4.000 UL
LTb
LC1 setrgbcolor
18086 11334 M
1143 0 V
3705 2107 M
536 3 V
537 6 V
536 25 V
537 106 V
536 212 V
536 330 V
537 443 V
536 539 V
537 616 V
536 672 V
537 695 V
536 602 V
536 413 V
537 206 V
536 80 V
537 27 V
536 7 V
536 1 V
537 0 V
536 0 V
537 0 V
536 0 V
3705 2107 Crs
4241 2110 Crs
4778 2116 Crs
5314 2141 Crs
5851 2247 Crs
6387 2459 Crs
6923 2789 Crs
7460 3232 Crs
7996 3771 Crs
8533 4387 Crs
9069 5059 Crs
9606 5754 Crs
10142 6356 Crs
10678 6769 Crs
11215 6975 Crs
11751 7055 Crs
12288 7082 Crs
12824 7089 Crs
13360 7090 Crs
13897 7090 Crs
14433 7090 Crs
14970 7090 Crs
15506 7090 Crs
18657 11334 Crs
% End plot #2
% Begin plot #3
4.000 UP
4.000 UL
LTb
LC2 setrgbcolor
LCb setrgbcolor
17726 10794 M
[ [(Times-Roman) 600.0 0.0 true true 0 (0.3)]
] -200.0 MRshow
4.000 UP
4.000 UL
LTb
LC2 setrgbcolor
18086 10794 M
1143 0 V
3705 2175 M
536 51 V
537 138 V
536 542 V
537 1378 V
536 1635 V
536 1661 V
537 1503 V
536 1234 V
537 921 V
536 625 V
537 337 V
536 111 V
536 22 V
537 2 V
536 0 V
537 0 V
536 0 V
536 0 V
537 0 V
536 0 V
537 0 V
536 0 V
3705 2175 Star
4241 2226 Star
4778 2364 Star
5314 2906 Star
5851 4284 Star
6387 5919 Star
6923 7580 Star
7460 9083 Star
7996 10317 Star
8533 11238 Star
9069 11863 Star
9606 12200 Star
10142 12311 Star
10678 12333 Star
11215 12335 Star
11751 12335 Star
12288 12335 Star
12824 12335 Star
13360 12335 Star
13897 12335 Star
14433 12335 Star
14970 12335 Star
15506 12335 Star
18657 10794 Star
% End plot #3
% Begin plot #4
4.000 UP
4.000 UL
LTb
LC3 setrgbcolor
LCb setrgbcolor
17726 10254 M
[ [(Times-Roman) 600.0 0.0 true true 0 (0.4)]
] -200.0 MRshow
4.000 UP
4.000 UL
LTb
LC3 setrgbcolor
18086 10254 M
1143 0 V
3705 2362 M
536 305 V
537 941 V
536 2599 V
537 3270 V
536 1861 V
536 903 V
537 351 V
536 107 V
537 28 V
536 5 V
537 1 V
536 0 V
536 0 V
537 0 V
536 0 V
537 0 V
536 0 V
536 0 V
537 0 V
536 0 V
537 0 V
536 0 V
3705 2362 Box
4241 2667 Box
4778 3608 Box
5314 6207 Box
5851 9477 Box
6387 11338 Box
6923 12241 Box
7460 12592 Box
7996 12699 Box
8533 12727 Box
9069 12732 Box
9606 12733 Box
10142 12733 Box
10678 12733 Box
11215 12733 Box
11751 12733 Box
12288 12733 Box
12824 12733 Box
13360 12733 Box
13897 12733 Box
14433 12733 Box
14970 12733 Box
15506 12733 Box
18657 10254 Box
% End plot #4
% Begin plot #5
4.000 UP
4.000 UL
LTb
LC4 setrgbcolor
LCb setrgbcolor
17726 9714 M
[ [(Times-Roman) 600.0 0.0 true true 0 (0.5)]
] -200.0 MRshow
4.000 UP
4.000 UL
LTb
LC4 setrgbcolor
18086 9714 M
1143 0 V
3705 2754 M
536 1072 V
537 2805 V
536 4030 V
537 1762 V
536 253 V
536 24 V
537 2 V
536 0 V
537 0 V
536 0 V
537 0 V
536 0 V
536 0 V
537 0 V
536 0 V
537 0 V
536 0 V
536 0 V
537 0 V
536 0 V
537 0 V
536 0 V
3705 2754 BoxF
4241 3826 BoxF
4778 6631 BoxF
5314 10661 BoxF
5851 12423 BoxF
6387 12676 BoxF
6923 12700 BoxF
7460 12702 BoxF
7996 12702 BoxF
8533 12702 BoxF
9069 12702 BoxF
9606 12702 BoxF
10142 12702 BoxF
10678 12702 BoxF
11215 12702 BoxF
11751 12702 BoxF
12288 12702 BoxF
12824 12702 BoxF
13360 12702 BoxF
13897 12702 BoxF
14433 12702 BoxF
14970 12702 BoxF
15506 12702 BoxF
18657 9714 BoxF
% End plot #5
% Begin plot #6
4.000 UP
4.000 UL
LTb
LC5 setrgbcolor
LCb setrgbcolor
17726 9174 M
[ [(Times-Roman) 600.0 0.0 true true 0 (0.6)]
] -200.0 MRshow
4.000 UP
4.000 UL
LTb
LC5 setrgbcolor
18086 9174 M
1143 0 V
3705 3466 M
536 2466 V
537 4091 V
536 2326 V
537 307 V
536 16 V
536 1 V
537 0 V
536 0 V
537 0 V
536 0 V
537 0 V
536 0 V
536 0 V
537 0 V
536 0 V
537 0 V
536 0 V
536 0 V
537 0 V
536 0 V
537 0 V
536 0 V
3705 3466 Circle
4241 5932 Circle
4778 10023 Circle
5314 12349 Circle
5851 12656 Circle
6387 12672 Circle
6923 12673 Circle
7460 12673 Circle
7996 12673 Circle
8533 12673 Circle
9069 12673 Circle
9606 12673 Circle
10142 12673 Circle
10678 12673 Circle
11215 12673 Circle
11751 12673 Circle
12288 12673 Circle
12824 12673 Circle
13360 12673 Circle
13897 12673 Circle
14433 12673 Circle
14970 12673 Circle
15506 12673 Circle
18657 9174 Circle
% End plot #6
% Begin plot #7
4.000 UP
4.000 UL
LTb
LC6 setrgbcolor
LCb setrgbcolor
17726 8634 M
[ [(Times-Roman) 600.0 0.0 true true 0 (0.7)]
] -200.0 MRshow
4.000 UP
4.000 UL
LTb
LC6 setrgbcolor
18086 8634 M
1143 0 V
3705 4648 M
536 3895 V
537 3227 V
536 816 V
537 71 V
536 4 V
536 1 V
537 0 V
536 0 V
537 0 V
536 0 V
537 0 V
536 0 V
536 0 V
537 0 V
536 0 V
537 0 V
536 0 V
536 0 V
537 0 V
536 0 V
537 0 V
536 0 V
3705 4648 CircleF
4241 8543 CircleF
4778 11770 CircleF
5314 12586 CircleF
5851 12657 CircleF
6387 12661 CircleF
6923 12662 CircleF
7460 12662 CircleF
7996 12662 CircleF
8533 12662 CircleF
9069 12662 CircleF
9606 12662 CircleF
10142 12662 CircleF
10678 12662 CircleF
11215 12662 CircleF
11751 12662 CircleF
12288 12662 CircleF
12824 12662 CircleF
13360 12662 CircleF
13897 12662 CircleF
14433 12662 CircleF
14970 12662 CircleF
15506 12662 CircleF
18657 8634 CircleF
% End plot #7
% Begin plot #8
4.000 UP
4.000 UL
LTb
LC7 setrgbcolor
LCb setrgbcolor
17726 8094 M
[ [(Times-Roman) 600.0 0.0 true true 0 (0.8)]
] -200.0 MRshow
4.000 UP
4.000 UL
LTb
LC7 setrgbcolor
18086 8094 M
1143 0 V
3705 6454 M
536 4296 V
537 1679 V
536 220 V
537 13 V
536 0 V
536 0 V
537 0 V
536 0 V
537 0 V
536 0 V
537 0 V
536 0 V
536 0 V
537 0 V
536 0 V
537 0 V
536 0 V
536 0 V
537 0 V
536 0 V
537 0 V
536 0 V
3705 6454 TriU
4241 10750 TriU
4778 12429 TriU
5314 12649 TriU
5851 12662 TriU
6387 12662 TriU
6923 12662 TriU
7460 12662 TriU
7996 12662 TriU
8533 12662 TriU
9069 12662 TriU
9606 12662 TriU
10142 12662 TriU
10678 12662 TriU
11215 12662 TriU
11751 12662 TriU
12288 12662 TriU
12824 12662 TriU
13360 12662 TriU
13897 12662 TriU
14433 12662 TriU
14970 12662 TriU
15506 12662 TriU
18657 8094 TriU
% End plot #8
% Begin plot #9
4.000 UP
4.000 UL
LTb
LC8 setrgbcolor
LCb setrgbcolor
17726 7554 M
[ [(Times-Roman) 600.0 0.0 true true 0 (0.9)]
] -200.0 MRshow
4.000 UP
4.000 UL
LTb
LC8 setrgbcolor
18086 7554 M
1143 0 V
3705 9082 M
536 3105 V
537 485 V
536 22 V
537 1 V
536 0 V
536 0 V
537 0 V
536 0 V
537 0 V
536 0 V
537 0 V
536 0 V
536 0 V
537 0 V
536 0 V
537 0 V
536 0 V
536 0 V
537 0 V
536 0 V
537 0 V
536 0 V
3705 9082 TriUF
4241 12187 TriUF
4778 12672 TriUF
5314 12694 TriUF
5851 12695 TriUF
6387 12695 TriUF
6923 12695 TriUF
7460 12695 TriUF
7996 12695 TriUF
8533 12695 TriUF
9069 12695 TriUF
9606 12695 TriUF
10142 12695 TriUF
10678 12695 TriUF
11215 12695 TriUF
11751 12695 TriUF
12288 12695 TriUF
12824 12695 TriUF
13360 12695 TriUF
13897 12695 TriUF
14433 12695 TriUF
14970 12695 TriUF
15506 12695 TriUF
18657 7554 TriUF
% End plot #9
2.000 UL
LTb
LCb setrgbcolor
1.000 UL
LTB
LCb setrgbcolor
3705 12744 N
0 -10654 V
11801 0 V
0 10654 V
-11801 0 V
Z stroke
1.000 UP
1.000 UL
LTb
LCb setrgbcolor
stroke
grestore
end
showpage
%%Trailer
%%DocumentFonts: Times-Italic Times-Roman
